\relax 
\bibstyle{CAP}
\citation{nica1,nica2}
\citation{altsybeyev2,RFQ,DAISI}
\@writefile{toc}{\contentsline {section}{\numberline {1}Introduction}{1}\protected@file@percent }
\@writefile{lof}{\contentsline {figure}{\numberline {2}{\ignorespaces Main components of the information system}}{2}\protected@file@percent }
\newlabel{main_diag}{{2}{2}}
\@writefile{toc}{\contentsline {section}{\numberline {2}Information system use cases}{2}\protected@file@percent }
\@writefile{lof}{\contentsline {figure}{\numberline {1}{\ignorespaces UML use cases diagram}}{2}\protected@file@percent }
\newlabel{f1}{{1}{2}}
\@writefile{toc}{\contentsline {section}{\numberline {3}Information system description}{2}\protected@file@percent }
\@writefile{toc}{\contentsline {subsection}{\numberline {3.1}General relations}{2}\protected@file@percent }
\@writefile{toc}{\contentsline {subsection}{\numberline {3.2}User interface}{2}\protected@file@percent }
\@writefile{lof}{\contentsline {figure}{\numberline {3}{\ignorespaces The main page}}{2}\protected@file@percent }
\newlabel{ui0}{{3}{2}}
\@writefile{toc}{\contentsline {subsection}{\numberline {3.3}Database}{2}\protected@file@percent }
\citation{MAD1}
\@writefile{lof}{\contentsline {figure}{\numberline {4}{\ignorespaces The model page}}{3}\protected@file@percent }
\newlabel{ui1}{{4}{3}}
\@writefile{lof}{\contentsline {figure}{\numberline {5}{\ignorespaces Database relationships}}{3}\protected@file@percent }
\newlabel{db}{{5}{3}}
\@writefile{toc}{\contentsline {subsection}{\numberline {3.4}Calculation services}{3}\protected@file@percent }
\@writefile{lof}{\contentsline {figure}{\numberline {6}{\ignorespaces Example of the orbit correction in the booster}}{4}\protected@file@percent }
\newlabel{res1}{{6}{4}}
\@writefile{toc}{\contentsline {section}{\numberline {4}Current status}{4}\protected@file@percent }
\@writefile{toc}{\contentsline {section}{\numberline {5}Conclusion}{4}\protected@file@percent }
\bibdata{bibfile}
\bibcite{MAD1}{MAD, 2011}
\bibcite{DAISI}{Altsybeyev, 2017}
\bibcite{RFQ}{Altsybeyev et\nobreakspace  {}al., 2018a}
\bibcite{nica1}{Altsybeyev et\nobreakspace  {}al., 2018b}
\bibcite{nica2}{Altsybeyev et\nobreakspace  {}al., 2018c}
\bibcite{altsybeyev2}{Ovsyannikov et\nobreakspace  {}al., 2014}
