%!PS-Adobe-3.0 EPSF-3.0
%%Creator: (MATLAB, The Mathworks, Inc. Version 9.0.0.341360 \(R2016a\). Operating System: Windows 8)
%%Title: D:/Dropbox/myWorks/2016/RFQArticle/RFQArticleTex/C6dependences1.eps
%%CreationDate: 2017-06-12T14:50:57
%%Pages: (atend)
%%BoundingBox: 0 0 839 625
%%LanguageLevel: 3
%%EndComments
%%BeginProlog
%%BeginResource: procset (Apache XML Graphics Std ProcSet) 1.2 0
%%Version: 1.2 0
%%Copyright: (Copyright 2001-2003,2010 The Apache Software Foundation. License terms: http://www.apache.org/licenses/LICENSE-2.0)
/bd{bind def}bind def
/ld{load def}bd
/GR/grestore ld
/M/moveto ld
/LJ/setlinejoin ld
/C/curveto ld
/f/fill ld
/LW/setlinewidth ld
/GC/setgray ld
/t/show ld
/N/newpath ld
/CT/concat ld
/cp/closepath ld
/S/stroke ld
/L/lineto ld
/CC/setcmykcolor ld
/A/ashow ld
/GS/gsave ld
/RC/setrgbcolor ld
/RM/rmoveto ld
/ML/setmiterlimit ld
/re {4 2 roll M
1 index 0 rlineto
0 exch rlineto
neg 0 rlineto
cp } bd
/_ctm matrix def
/_tm matrix def
/BT { _ctm currentmatrix pop matrix _tm copy pop 0 0 moveto } bd
/ET { _ctm setmatrix } bd
/iTm { _ctm setmatrix _tm concat } bd
/Tm { _tm astore pop iTm 0 0 moveto } bd
/ux 0.0 def
/uy 0.0 def
/F {
  /Tp exch def
  /Tf exch def
  Tf findfont Tp scalefont setfont
  /cf Tf def  /cs Tp def
} bd
/ULS {currentpoint /uy exch def /ux exch def} bd
/ULE {
  /Tcx currentpoint pop def
  gsave
  newpath
  cf findfont cs scalefont dup
  /FontMatrix get 0 get /Ts exch def /FontInfo get dup
  /UnderlinePosition get Ts mul /To exch def
  /UnderlineThickness get Ts mul /Tt exch def
  ux uy To add moveto  Tcx uy To add lineto
  Tt setlinewidth stroke
  grestore
} bd
/OLE {
  /Tcx currentpoint pop def
  gsave
  newpath
  cf findfont cs scalefont dup
  /FontMatrix get 0 get /Ts exch def /FontInfo get dup
  /UnderlinePosition get Ts mul /To exch def
  /UnderlineThickness get Ts mul /Tt exch def
  ux uy To add cs add moveto Tcx uy To add cs add lineto
  Tt setlinewidth stroke
  grestore
} bd
/SOE {
  /Tcx currentpoint pop def
  gsave
  newpath
  cf findfont cs scalefont dup
  /FontMatrix get 0 get /Ts exch def /FontInfo get dup
  /UnderlinePosition get Ts mul /To exch def
  /UnderlineThickness get Ts mul /Tt exch def
  ux uy To add cs 10 mul 26 idiv add moveto Tcx uy To add cs 10 mul 26 idiv add lineto
  Tt setlinewidth stroke
  grestore
} bd
/QT {
/Y22 exch store
/X22 exch store
/Y21 exch store
/X21 exch store
currentpoint
/Y21 load 2 mul add 3 div exch
/X21 load 2 mul add 3 div exch
/X21 load 2 mul /X22 load add 3 div
/Y21 load 2 mul /Y22 load add 3 div
/X22 load /Y22 load curveto
} bd
/SSPD {
dup length /d exch dict def
{
/v exch def
/k exch def
currentpagedevice k known {
/cpdv currentpagedevice k get def
v cpdv ne {
/upd false def
/nullv v type /nulltype eq def
/nullcpdv cpdv type /nulltype eq def
nullv nullcpdv or
{
/upd true def
} {
/sametype v type cpdv type eq def
sametype {
v type /arraytype eq {
/vlen v length def
/cpdvlen cpdv length def
vlen cpdvlen eq {
0 1 vlen 1 sub {
/i exch def
/obj v i get def
/cpdobj cpdv i get def
obj cpdobj ne {
/upd true def
exit
} if
} for
} {
/upd true def
} ifelse
} {
v type /dicttype eq {
v {
/dv exch def
/dk exch def
/cpddv cpdv dk get def
dv cpddv ne {
/upd true def
exit
} if
} forall
} {
/upd true def
} ifelse
} ifelse
} if
} ifelse
upd true eq {
d k v put
} if
} if
} if
} forall
d length 0 gt {
d setpagedevice
} if
} bd
%%EndResource
%%BeginResource: procset (Apache XML Graphics EPS ProcSet) 1.0 0
%%Version: 1.0 0
%%Copyright: (Copyright 2002-2003 The Apache Software Foundation. License terms: http://www.apache.org/licenses/LICENSE-2.0)
/BeginEPSF { %def
/b4_Inc_state save def         % Save state for cleanup
/dict_count countdictstack def % Count objects on dict stack
/op_count count 1 sub def      % Count objects on operand stack
userdict begin                 % Push userdict on dict stack
/showpage { } def              % Redefine showpage, { } = null proc
0 setgray 0 setlinecap         % Prepare graphics state
1 setlinewidth 0 setlinejoin
10 setmiterlimit [ ] 0 setdash newpath
/languagelevel where           % If level not equal to 1 then
{pop languagelevel             % set strokeadjust and
1 ne                           % overprint to their defaults.
{false setstrokeadjust false setoverprint
} if
} if
} bd
/EndEPSF { %def
count op_count sub {pop} repeat            % Clean up stacks
countdictstack dict_count sub {end} repeat
b4_Inc_state restore
} bd
%%EndResource
%FOPBeginFontDict
%%IncludeResource: font Courier-Bold
%%IncludeResource: font Helvetica
%%IncludeResource: font Courier-BoldOblique
%%IncludeResource: font Courier-Oblique
%%IncludeResource: font Times-Roman
%%IncludeResource: font Helvetica-BoldOblique
%%IncludeResource: font Helvetica-Bold
%%IncludeResource: font Helvetica-Oblique
%%IncludeResource: font Times-BoldItalic
%%IncludeResource: font Courier
%%IncludeResource: font Times-Italic
%%IncludeResource: font Times-Bold
%%IncludeResource: font Symbol
%%IncludeResource: font ZapfDingbats
%FOPEndFontDict
%%BeginResource: encoding WinAnsiEncoding
/WinAnsiEncoding [
/.notdef /.notdef /.notdef /.notdef /.notdef
/.notdef /.notdef /.notdef /.notdef /.notdef
/.notdef /.notdef /.notdef /.notdef /.notdef
/.notdef /.notdef /.notdef /.notdef /.notdef
/.notdef /.notdef /.notdef /.notdef /.notdef
/.notdef /.notdef /.notdef /.notdef /.notdef
/.notdef /.notdef /space /exclam /quotedbl
/numbersign /dollar /percent /ampersand /quotesingle
/parenleft /parenright /asterisk /plus /comma
/hyphen /period /slash /zero /one
/two /three /four /five /six
/seven /eight /nine /colon /semicolon
/less /equal /greater /question /at
/A /B /C /D /E
/F /G /H /I /J
/K /L /M /N /O
/P /Q /R /S /T
/U /V /W /X /Y
/Z /bracketleft /backslash /bracketright /asciicircum
/underscore /quoteleft /a /b /c
/d /e /f /g /h
/i /j /k /l /m
/n /o /p /q /r
/s /t /u /v /w
/x /y /z /braceleft /bar
/braceright /asciitilde /bullet /Euro /bullet
/quotesinglbase /florin /quotedblbase /ellipsis /dagger
/daggerdbl /circumflex /perthousand /Scaron /guilsinglleft
/OE /bullet /Zcaron /bullet /bullet
/quoteleft /quoteright /quotedblleft /quotedblright /bullet
/endash /emdash /asciitilde /trademark /scaron
/guilsinglright /oe /bullet /zcaron /Ydieresis
/space /exclamdown /cent /sterling /currency
/yen /brokenbar /section /dieresis /copyright
/ordfeminine /guillemotleft /logicalnot /sfthyphen /registered
/macron /degree /plusminus /twosuperior /threesuperior
/acute /mu /paragraph /middot /cedilla
/onesuperior /ordmasculine /guillemotright /onequarter /onehalf
/threequarters /questiondown /Agrave /Aacute /Acircumflex
/Atilde /Adieresis /Aring /AE /Ccedilla
/Egrave /Eacute /Ecircumflex /Edieresis /Igrave
/Iacute /Icircumflex /Idieresis /Eth /Ntilde
/Ograve /Oacute /Ocircumflex /Otilde /Odieresis
/multiply /Oslash /Ugrave /Uacute /Ucircumflex
/Udieresis /Yacute /Thorn /germandbls /agrave
/aacute /acircumflex /atilde /adieresis /aring
/ae /ccedilla /egrave /eacute /ecircumflex
/edieresis /igrave /iacute /icircumflex /idieresis
/eth /ntilde /ograve /oacute /ocircumflex
/otilde /odieresis /divide /oslash /ugrave
/uacute /ucircumflex /udieresis /yacute /thorn
/ydieresis
] def
%%EndResource
%FOPBeginFontReencode
/Courier-Bold findfont
dup length dict begin
  {1 index /FID ne {def} {pop pop} ifelse} forall
  /Encoding WinAnsiEncoding def
  currentdict
end
/Courier-Bold exch definefont pop
/Helvetica findfont
dup length dict begin
  {1 index /FID ne {def} {pop pop} ifelse} forall
  /Encoding WinAnsiEncoding def
  currentdict
end
/Helvetica exch definefont pop
/Courier-BoldOblique findfont
dup length dict begin
  {1 index /FID ne {def} {pop pop} ifelse} forall
  /Encoding WinAnsiEncoding def
  currentdict
end
/Courier-BoldOblique exch definefont pop
/Courier-Oblique findfont
dup length dict begin
  {1 index /FID ne {def} {pop pop} ifelse} forall
  /Encoding WinAnsiEncoding def
  currentdict
end
/Courier-Oblique exch definefont pop
/Times-Roman findfont
dup length dict begin
  {1 index /FID ne {def} {pop pop} ifelse} forall
  /Encoding WinAnsiEncoding def
  currentdict
end
/Times-Roman exch definefont pop
/Helvetica-BoldOblique findfont
dup length dict begin
  {1 index /FID ne {def} {pop pop} ifelse} forall
  /Encoding WinAnsiEncoding def
  currentdict
end
/Helvetica-BoldOblique exch definefont pop
/Helvetica-Bold findfont
dup length dict begin
  {1 index /FID ne {def} {pop pop} ifelse} forall
  /Encoding WinAnsiEncoding def
  currentdict
end
/Helvetica-Bold exch definefont pop
/Helvetica-Oblique findfont
dup length dict begin
  {1 index /FID ne {def} {pop pop} ifelse} forall
  /Encoding WinAnsiEncoding def
  currentdict
end
/Helvetica-Oblique exch definefont pop
/Times-BoldItalic findfont
dup length dict begin
  {1 index /FID ne {def} {pop pop} ifelse} forall
  /Encoding WinAnsiEncoding def
  currentdict
end
/Times-BoldItalic exch definefont pop
/Courier findfont
dup length dict begin
  {1 index /FID ne {def} {pop pop} ifelse} forall
  /Encoding WinAnsiEncoding def
  currentdict
end
/Courier exch definefont pop
/Times-Italic findfont
dup length dict begin
  {1 index /FID ne {def} {pop pop} ifelse} forall
  /Encoding WinAnsiEncoding def
  currentdict
end
/Times-Italic exch definefont pop
/Times-Bold findfont
dup length dict begin
  {1 index /FID ne {def} {pop pop} ifelse} forall
  /Encoding WinAnsiEncoding def
  currentdict
end
/Times-Bold exch definefont pop
%FOPEndFontReencode
%%EndProlog
%%Page: 1 1
%%PageBoundingBox: 0 0 839 625
%%BeginPageSetup
[1 0 0 -1 0 625] CT
%%EndPageSetup
GS
[0.75 0 0 0.75 0 0.25] CT
N
0 0 M
1119 0 L
1119 833 L
0 833 L
0 0 L
cp
clip
1 GC
N
0 0 1119 833 re
f
GR
GS
[0.75 0 0 0.75 0 0.25] CT
1 GC
N
0 0 1119 833 re
f
GR
GS
[0.75 0 0 0.75 0 0.25] CT
1 GC
N
157 741 M
983 741 L
983 62 L
157 62 L
cp
f
GR
GS
[0.75 0 0 0.75 0 0.25] CT
0.873 GC
1 LJ
0.667 LW
N
157 741 M
157 62 L
S
GR
GS
[0.75 0 0 0.75 0 0.25] CT
0.873 GC
1 LJ
0.667 LW
N
294.667 741 M
294.667 62 L
S
GR
GS
[0.75 0 0 0.75 0 0.25] CT
0.873 GC
1 LJ
0.667 LW
N
432.333 741 M
432.333 62 L
S
GR
GS
[0.75 0 0 0.75 0 0.25] CT
0.873 GC
1 LJ
0.667 LW
N
570 741 M
570 62 L
S
GR
GS
[0.75 0 0 0.75 0 0.25] CT
0.873 GC
1 LJ
0.667 LW
N
707.667 741 M
707.667 62 L
S
GR
GS
[0.75 0 0 0.75 0 0.25] CT
0.873 GC
1 LJ
0.667 LW
N
845.333 741 M
845.333 62 L
S
GR
GS
[0.75 0 0 0.75 0 0.25] CT
0.873 GC
1 LJ
0.667 LW
N
983 741 M
983 62 L
S
GR
GS
[0.75 0 0 0.75 0 0.25] CT
0.851 0.851 1 RC
1 LJ
0.667 LW
N
983 741 M
157 741 L
S
GR
GS
[0.75 0 0 0.75 0 0.25] CT
0.851 0.851 1 RC
1 LJ
0.667 LW
N
983 605.2 M
157 605.2 L
S
GR
GS
[0.75 0 0 0.75 0 0.25] CT
0.851 0.851 1 RC
1 LJ
0.667 LW
N
983 469.4 M
157 469.4 L
S
GR
GS
[0.75 0 0 0.75 0 0.25] CT
0.851 0.851 1 RC
1 LJ
0.667 LW
N
983 333.6 M
157 333.6 L
S
GR
GS
[0.75 0 0 0.75 0 0.25] CT
0.851 0.851 1 RC
1 LJ
0.667 LW
N
983 197.8 M
157 197.8 L
S
GR
GS
[0.75 0 0 0.75 0 0.25] CT
0.851 0.851 1 RC
1 LJ
0.667 LW
N
983 62 M
157 62 L
S
GR
GS
[0.75 0 0 0.75 0 0.25] CT
0.149 GC
2 setlinecap
1 LJ
0.667 LW
N
157 741 M
983 741 L
S
GR
GS
[0.75 0 0 0.75 0 0.25] CT
0.149 GC
2 setlinecap
1 LJ
0.667 LW
N
157 62 M
983 62 L
S
GR
GS
[0.75 0 0 0.75 0 0.25] CT
0.149 GC
2 setlinecap
1 LJ
0.667 LW
N
157 741 M
157 732.74 L
S
GR
GS
[0.75 0 0 0.75 0 0.25] CT
0.149 GC
2 setlinecap
1 LJ
0.667 LW
N
294.667 741 M
294.667 732.74 L
S
GR
GS
[0.75 0 0 0.75 0 0.25] CT
0.149 GC
2 setlinecap
1 LJ
0.667 LW
N
432.333 741 M
432.333 732.74 L
S
GR
GS
[0.75 0 0 0.75 0 0.25] CT
0.149 GC
2 setlinecap
1 LJ
0.667 LW
N
570 741 M
570 732.74 L
S
GR
GS
[0.75 0 0 0.75 0 0.25] CT
0.149 GC
2 setlinecap
1 LJ
0.667 LW
N
707.667 741 M
707.667 732.74 L
S
GR
GS
[0.75 0 0 0.75 0 0.25] CT
0.149 GC
2 setlinecap
1 LJ
0.667 LW
N
845.333 741 M
845.333 732.74 L
S
GR
GS
[0.75 0 0 0.75 0 0.25] CT
0.149 GC
2 setlinecap
1 LJ
0.667 LW
N
983 741 M
983 732.74 L
S
GR
GS
[0.75 0 0 0.75 0 0.25] CT
0.149 GC
2 setlinecap
1 LJ
0.667 LW
N
157 62 M
157 70.26 L
S
GR
GS
[0.75 0 0 0.75 0 0.25] CT
0.149 GC
2 setlinecap
1 LJ
0.667 LW
N
294.667 62 M
294.667 70.26 L
S
GR
GS
[0.75 0 0 0.75 0 0.25] CT
0.149 GC
2 setlinecap
1 LJ
0.667 LW
N
432.333 62 M
432.333 70.26 L
S
GR
GS
[0.75 0 0 0.75 0 0.25] CT
0.149 GC
2 setlinecap
1 LJ
0.667 LW
N
570 62 M
570 70.26 L
S
GR
GS
[0.75 0 0 0.75 0 0.25] CT
0.149 GC
2 setlinecap
1 LJ
0.667 LW
N
707.667 62 M
707.667 70.26 L
S
GR
GS
[0.75 0 0 0.75 0 0.25] CT
0.149 GC
2 setlinecap
1 LJ
0.667 LW
N
845.333 62 M
845.333 70.26 L
S
GR
GS
[0.75 0 0 0.75 0 0.25] CT
0.149 GC
2 setlinecap
1 LJ
0.667 LW
N
983 62 M
983 70.26 L
S
GR
GS
[0.75 0 0 0.75 117.75 562.79999] CT
0.149 GC
/Helvetica 32 F
GS
[1 0 0 1 0 0] CT
-18 33 moveto 
1 -1 scale
(40) t 
GR
GR
GS
[0.75 0 0 0.75 220.99999 562.79999] CT
0.149 GC
/Helvetica 32 F
GS
[1 0 0 1 0 0] CT
-18 33 moveto 
1 -1 scale
(45) t 
GR
GR
GS
[0.75 0 0 0.75 324.25001 562.79999] CT
0.149 GC
/Helvetica 32 F
GS
[1 0 0 1 0 0] CT
-18 33 moveto 
1 -1 scale
(50) t 
GR
GR
GS
[0.75 0 0 0.75 427.5 562.79999] CT
0.149 GC
/Helvetica 32 F
GS
[1 0 0 1 0 0] CT
-18 33 moveto 
1 -1 scale
(55) t 
GR
GR
GS
[0.75 0 0 0.75 530.75002 562.79999] CT
0.149 GC
/Helvetica 32 F
GS
[1 0 0 1 0 0] CT
-18 33 moveto 
1 -1 scale
(60) t 
GR
GR
GS
[0.75 0 0 0.75 633.99998 562.79999] CT
0.149 GC
/Helvetica 32 F
GS
[1 0 0 1 0 0] CT
-18 33 moveto 
1 -1 scale
(65) t 
GR
GR
GS
[0.75 0 0 0.75 737.25 562.79999] CT
0.149 GC
/Helvetica 32 F
GS
[1 0 0 1 0 0] CT
-18 33 moveto 
1 -1 scale
(70) t 
GR
GR
GS
[0.75 0 0 0.75 609.75027 594.55006] CT
0.149 GC
/Helvetica 32 F
GS
[1 0 0 1 0 0] CT
-150.5 33 moveto 
1 -1 scale
(Intervane voltage, kV) t 
GR
GR
GS
[0.75 0 0 0.75 0 0.25] CT
0 0 1 RC
2 setlinecap
1 LJ
0.667 LW
N
157 741 M
157 62 L
S
GR
GS
[0.75 0 0 0.75 0 0.25] CT
0 0 1 RC
2 setlinecap
1 LJ
0.667 LW
N
983 741 M
983 62 L
S
GR
GS
[0.75 0 0 0.75 0 0.25] CT
0 0 1 RC
2 setlinecap
1 LJ
0.667 LW
N
157 741 M
165.26 741 L
S
GR
GS
[0.75 0 0 0.75 0 0.25] CT
0 0 1 RC
2 setlinecap
1 LJ
0.667 LW
N
157 605.2 M
165.26 605.2 L
S
GR
GS
[0.75 0 0 0.75 0 0.25] CT
0 0 1 RC
2 setlinecap
1 LJ
0.667 LW
N
157 469.4 M
165.26 469.4 L
S
GR
GS
[0.75 0 0 0.75 0 0.25] CT
0 0 1 RC
2 setlinecap
1 LJ
0.667 LW
N
157 333.6 M
165.26 333.6 L
S
GR
GS
[0.75 0 0 0.75 0 0.25] CT
0 0 1 RC
2 setlinecap
1 LJ
0.667 LW
N
157 197.8 M
165.26 197.8 L
S
GR
GS
[0.75 0 0 0.75 0 0.25] CT
0 0 1 RC
2 setlinecap
1 LJ
0.667 LW
N
157 62 M
165.26 62 L
S
GR
GS
[0.75 0 0 0.75 0 0.25] CT
0 0 1 RC
2 setlinecap
1 LJ
0.667 LW
N
983 741 M
974.74 741 L
S
GR
GS
[0.75 0 0 0.75 0 0.25] CT
0 0 1 RC
2 setlinecap
1 LJ
0.667 LW
N
983 605.2 M
974.74 605.2 L
S
GR
GS
[0.75 0 0 0.75 0 0.25] CT
0 0 1 RC
2 setlinecap
1 LJ
0.667 LW
N
983 469.4 M
974.74 469.4 L
S
GR
GS
[0.75 0 0 0.75 0 0.25] CT
0 0 1 RC
2 setlinecap
1 LJ
0.667 LW
N
983 333.6 M
974.74 333.6 L
S
GR
GS
[0.75 0 0 0.75 0 0.25] CT
0 0 1 RC
2 setlinecap
1 LJ
0.667 LW
N
983 197.8 M
974.74 197.8 L
S
GR
GS
[0.75 0 0 0.75 0 0.25] CT
0 0 1 RC
2 setlinecap
1 LJ
0.667 LW
N
983 62 M
974.74 62 L
S
GR
GS
[0.75 0 0 0.75 110.95004 556] CT
0 0 1 RC
/Helvetica 32 F
GS
[1 0 0 1 0 0] CT
-45 12.5 moveto 
1 -1 scale
(0.5) t 
GR
GR
GS
[0.75 0 0 0.75 110.95004 454.1501] CT
0 0 1 RC
/Helvetica 32 F
GS
[1 0 0 1 0 0] CT
-63 12.5 moveto 
1 -1 scale
(0.52) t 
GR
GR
GS
[0.75 0 0 0.75 110.95004 352.29988] CT
0 0 1 RC
/Helvetica 32 F
GS
[1 0 0 1 0 0] CT
-63 12.5 moveto 
1 -1 scale
(0.54) t 
GR
GR
GS
[0.75 0 0 0.75 110.95004 250.44998] CT
0 0 1 RC
/Helvetica 32 F
GS
[1 0 0 1 0 0] CT
-63 12.5 moveto 
1 -1 scale
(0.56) t 
GR
GR
GS
[0.75 0 0 0.75 110.95004 148.60008] CT
0 0 1 RC
/Helvetica 32 F
GS
[1 0 0 1 0 0] CT
-63 12.5 moveto 
1 -1 scale
(0.58) t 
GR
GR
GS
[0.75 0 0 0.75 110.95004 46.74988] CT
0 0 1 RC
/Helvetica 32 F
GS
[1 0 0 1 0 0] CT
-45 12.5 moveto 
1 -1 scale
(0.6) t 
GR
GR
GS
[0 -0.75 0.75 0 60.70003 301.37463] CT
0 0 1 RC
/Helvetica 32 F
GS
[1 0 0 1 0 0] CT
-92.5 -8 moveto 
1 -1 scale
(Capture ratio) t 
GR
GR
GS
[0.75 0 0 0.75 0 0.25] CT
0 0 1 RC
1 LJ
2.667 LW
N
210.415 707.05 M
338.72 333.6 L
531.178 197.8 L
723.636 62 L
980.247 62 L
S
GR
GS
[0.75 0 0 0.75 0 0.25] CT
1 GC
N
451 551 M
451 472 L
908 472 L
908 551 L
cp
f
GR
GS
[0.75 0 0 0.75 366 369.72294] CT
/Helvetica 28.8 F
GS
[1 0 0 1 0 0] CT
0 11.5 moveto 
1 -1 scale
(capture ratio) t 
GR
GR
GS
[0.75 0 0 0.75 0 0.25] CT
0 0 1 RC
1 LJ
2.667 LW
N
455 492.631 M
485 492.631 L
S
GR
GS
[0.75 0 0 0.75 366 398.02708] CT
/Helvetica 28.8 F
GS
[1 0 0 1 0 0] CT
0 11.5 moveto 
1 -1 scale
(90% bunch momentum width, %) t 
GR
GR
GS
[0.75 0 0 0.75 0 0.25] CT
0 0.498 0 RC
[8 8] 0 setdash
2 LJ
2.667 LW
N
455 530.369 M
485 530.369 L
S
GR
GS
[0.75 0 0 0.75 0 0.25] CT
0.149 GC
10.0 ML
0.667 LW
N
451 551 M
451 472 L
908 472 L
908 551 L
cp
S
GR
GS
[0.75 0 0 0.75 0 0.25] CT
0.149 GC
2 setlinecap
1 LJ
0.667 LW
N
156 741 M
982 741 L
S
GR
GS
[0.75 0 0 0.75 0 0.25] CT
0.149 GC
2 setlinecap
1 LJ
0.667 LW
N
156 741 M
156 732.74 L
S
GR
GS
[0.75 0 0 0.75 0 0.25] CT
0.149 GC
2 setlinecap
1 LJ
0.667 LW
N
293.667 741 M
293.667 732.74 L
S
GR
GS
[0.75 0 0 0.75 0 0.25] CT
0.149 GC
2 setlinecap
1 LJ
0.667 LW
N
431.333 741 M
431.333 732.74 L
S
GR
GS
[0.75 0 0 0.75 0 0.25] CT
0.149 GC
2 setlinecap
1 LJ
0.667 LW
N
569 741 M
569 732.74 L
S
GR
GS
[0.75 0 0 0.75 0 0.25] CT
0.149 GC
2 setlinecap
1 LJ
0.667 LW
N
706.667 741 M
706.667 732.74 L
S
GR
GS
[0.75 0 0 0.75 0 0.25] CT
0.149 GC
2 setlinecap
1 LJ
0.667 LW
N
844.333 741 M
844.333 732.74 L
S
GR
GS
[0.75 0 0 0.75 0 0.25] CT
0.149 GC
2 setlinecap
1 LJ
0.667 LW
N
982 741 M
982 732.74 L
S
GR
GS
[0.75 0 0 0.75 117 562.79999] CT
0.149 GC
/Helvetica 32 F
GS
[1 0 0 1 0 0] CT
-18 33 moveto 
1 -1 scale
(40) t 
GR
GR
GS
[0.75 0 0 0.75 220.24999 562.79999] CT
0.149 GC
/Helvetica 32 F
GS
[1 0 0 1 0 0] CT
-18 33 moveto 
1 -1 scale
(45) t 
GR
GR
GS
[0.75 0 0 0.75 323.50001 562.79999] CT
0.149 GC
/Helvetica 32 F
GS
[1 0 0 1 0 0] CT
-18 33 moveto 
1 -1 scale
(50) t 
GR
GR
GS
[0.75 0 0 0.75 426.75 562.79999] CT
0.149 GC
/Helvetica 32 F
GS
[1 0 0 1 0 0] CT
-18 33 moveto 
1 -1 scale
(55) t 
GR
GR
GS
[0.75 0 0 0.75 530.00002 562.79999] CT
0.149 GC
/Helvetica 32 F
GS
[1 0 0 1 0 0] CT
-18 33 moveto 
1 -1 scale
(60) t 
GR
GR
GS
[0.75 0 0 0.75 633.24998 562.79999] CT
0.149 GC
/Helvetica 32 F
GS
[1 0 0 1 0 0] CT
-18 33 moveto 
1 -1 scale
(65) t 
GR
GR
GS
[0.75 0 0 0.75 736.5 562.79999] CT
0.149 GC
/Helvetica 32 F
GS
[1 0 0 1 0 0] CT
-18 33 moveto 
1 -1 scale
(70) t 
GR
GR
GS
[0.75 0 0 0.75 0 0.25] CT
0 0.502 0 RC
2 setlinecap
1 LJ
0.667 LW
N
982 741 M
982 62 L
S
GR
GS
[0.75 0 0 0.75 0 0.25] CT
0 0.502 0 RC
2 setlinecap
1 LJ
0.667 LW
N
982 741 M
973.74 741 L
S
GR
GS
[0.75 0 0 0.75 0 0.25] CT
0 0.502 0 RC
2 setlinecap
1 LJ
0.667 LW
N
982 605.2 M
973.74 605.2 L
S
GR
GS
[0.75 0 0 0.75 0 0.25] CT
0 0.502 0 RC
2 setlinecap
1 LJ
0.667 LW
N
982 469.4 M
973.74 469.4 L
S
GR
GS
[0.75 0 0 0.75 0 0.25] CT
0 0.502 0 RC
2 setlinecap
1 LJ
0.667 LW
N
982 333.6 M
973.74 333.6 L
S
GR
GS
[0.75 0 0 0.75 0 0.25] CT
0 0.502 0 RC
2 setlinecap
1 LJ
0.667 LW
N
982 197.8 M
973.74 197.8 L
S
GR
GS
[0.75 0 0 0.75 0 0.25] CT
0 0.502 0 RC
2 setlinecap
1 LJ
0.667 LW
N
982 62 M
973.74 62 L
S
GR
GS
[0.75 0 0 0.75 743.30003 556] CT
0 0.502 0 RC
/Helvetica 32 F
GS
[1 0 0 1 0 0] CT
0 12.5 moveto 
1 -1 scale
(2) t 
GR
GR
GS
[0.75 0 0 0.75 743.30003 454.15001] CT
0 0.502 0 RC
/Helvetica 32 F
GS
[1 0 0 1 0 0] CT
0 12.5 moveto 
1 -1 scale
(2.5) t 
GR
GR
GS
[0.75 0 0 0.75 743.30003 352.3] CT
0 0.502 0 RC
/Helvetica 32 F
GS
[1 0 0 1 0 0] CT
0 12.5 moveto 
1 -1 scale
(3) t 
GR
GR
GS
[0.75 0 0 0.75 743.30003 250.45] CT
0 0.502 0 RC
/Helvetica 32 F
GS
[1 0 0 1 0 0] CT
0 12.5 moveto 
1 -1 scale
(3.5) t 
GR
GR
GS
[0.75 0 0 0.75 743.30003 148.6] CT
0 0.502 0 RC
/Helvetica 32 F
GS
[1 0 0 1 0 0] CT
0 12.5 moveto 
1 -1 scale
(4) t 
GR
GR
GS
[0.75 0 0 0.75 743.30003 46.75] CT
0 0.502 0 RC
/Helvetica 32 F
GS
[1 0 0 1 0 0] CT
0 12.5 moveto 
1 -1 scale
(4.5) t 
GR
GR
GS
[0 -0.75 0.75 0 780.0499 301.37475] CT
0 0.502 0 RC
/Helvetica 35.2 F
GS
[1 0 0 1 0 0] CT
-251 36 moveto 
1 -1 scale
(90% bunch momentum width, %) t 
GR
GR
GS
[0.75 0 0 0.75 0 0.25] CT
0 0.502 0 RC
[8 8] 0 setdash
2 LJ
2.667 LW
N
209.415 681.248 M
337.72 469.4 L
530.178 360.76 L
722.636 333.6 L
979.247 143.48 L
S
GR
%%Trailer
%%Pages: 1
%%EOF
