%!PS-Adobe-3.0 EPSF-3.0
%%Title: D:/Dropbox/myWorks/2016/RFQArticle/RFQArticleTex/figure_1.eps
%%Creator: matplotlib version 2.0.0, http://matplotlib.org/
%%CreationDate: Mon Jun 12 14:04:54 2017
%%Orientation: portrait
%%BoundingBox: 41 223 570 568
%%EndComments
%%BeginProlog
/mpldict 8 dict def
mpldict begin
/m { moveto } bind def
/l { lineto } bind def
/r { rlineto } bind def
/c { curveto } bind def
/cl { closepath } bind def
/box {
m
1 index 0 r
0 exch r
neg 0 r
cl
} bind def
/clipbox {
box
clip
newpath
} bind def
%!PS-Adobe-3.0 Resource-Font
%%Title: DejaVu Sans
%%Copyright: Copyright (c) 2003 by Bitstream, Inc. All Rights Reserved. Copyright (c) 2006 by Tavmjong Bah. All Rights Reserved. DejaVu changes are in public domain 
%%Creator: Converted from TrueType to type 3 by PPR
25 dict begin
/_d{bind def}bind def
/_m{moveto}_d
/_l{lineto}_d
/_cl{closepath eofill}_d
/_c{curveto}_d
/_sc{7 -1 roll{setcachedevice}{pop pop pop pop pop pop}ifelse}_d
/_e{exec}_d
/FontName /DejaVuSans def
/PaintType 0 def
/FontMatrix[.001 0 0 .001 0 0]def
/FontBBox[-1021 -463 1793 1232]def
/FontType 3 def
/Encoding [ /space /asterisk /comma /period /zero /one /two /three /four /five /six /eight /C /E /I /a /c /d /e /g /h /i /m /n /o /p /r /t /u /w ] def
/FontInfo 10 dict dup begin
/FamilyName (DejaVu Sans) def
/FullName (DejaVu Sans) def
/Notice (Copyright (c) 2003 by Bitstream, Inc. All Rights Reserved. Copyright (c) 2006 by Tavmjong Bah. All Rights Reserved. DejaVu changes are in public domain ) def
/Weight (Book) def
/Version (Version 2.35) def
/ItalicAngle 0.0 def
/isFixedPitch false def
/UnderlinePosition -130 def
/UnderlineThickness 90 def
end readonly def
/CharStrings 30 dict dup begin
/space{318 0 0 0 0 0 _sc
}_d
/asterisk{500 0 30 286 470 742 _sc
470 609 _m
295 514 _l
470 419 _l
442 371 _l
278 470 _l
278 286 _l
222 286 _l
222 470 _l
58 371 _l
30 419 _l
205 514 _l
30 609 _l
58 657 _l
222 558 _l
222 742 _l
278 742 _l
278 558 _l
442 657 _l
470 609 _l
_cl}_d
/comma{318 0 77 -115 220 124 _sc
117 124 _m
220 124 _l
220 40 _l
140 -115 _l
77 -115 _l
117 40 _l
117 124 _l
_cl}_d
/period{318 0 107 0 210 124 _sc
107 124 _m
210 124 _l
210 0 _l
107 0 _l
107 124 _l
_cl}_d
/zero{636 0 66 -13 570 742 _sc
318 664 _m
267 664 229 639 203 589 _c
177 539 165 464 165 364 _c
165 264 177 189 203 139 _c
229 89 267 64 318 64 _c
369 64 407 89 433 139 _c
458 189 471 264 471 364 _c
471 464 458 539 433 589 _c
407 639 369 664 318 664 _c
318 742 _m
399 742 461 709 505 645 _c
548 580 570 486 570 364 _c
570 241 548 147 505 83 _c
461 19 399 -13 318 -13 _c
236 -13 173 19 130 83 _c
87 147 66 241 66 364 _c
66 486 87 580 130 645 _c
173 709 236 742 318 742 _c
_cl}_d
/one{636 0 110 0 544 729 _sc
124 83 _m
285 83 _l
285 639 _l
110 604 _l
110 694 _l
284 729 _l
383 729 _l
383 83 _l
544 83 _l
544 0 _l
124 0 _l
124 83 _l
_cl}_d
/two{{636 0 73 0 536 742 _sc
192 83 _m
536 83 _l
536 0 _l
73 0 _l
73 83 _l
110 121 161 173 226 239 _c
290 304 331 346 348 365 _c
380 400 402 430 414 455 _c
426 479 433 504 433 528 _c
433 566 419 598 392 622 _c
365 646 330 659 286 659 _c
255 659 222 653 188 643 _c
154 632 117 616 78 594 _c
78 694 _l
118 710 155 722 189 730 _c
223 738 255 742 284 742 _c
}_e{359 742 419 723 464 685 _c
509 647 532 597 532 534 _c
532 504 526 475 515 449 _c
504 422 484 390 454 354 _c
446 344 420 317 376 272 _c
332 227 271 164 192 83 _c
_cl}_e}_d
/three{{636 0 76 -13 556 742 _sc
406 393 _m
453 383 490 362 516 330 _c
542 298 556 258 556 212 _c
556 140 531 84 482 45 _c
432 6 362 -13 271 -13 _c
240 -13 208 -10 176 -4 _c
144 1 110 10 76 22 _c
76 117 _l
103 101 133 89 166 81 _c
198 73 232 69 268 69 _c
330 69 377 81 409 105 _c
441 129 458 165 458 212 _c
458 254 443 288 413 312 _c
383 336 341 349 287 349 _c
}_e{202 349 _l
202 430 _l
291 430 _l
339 430 376 439 402 459 _c
428 478 441 506 441 543 _c
441 580 427 609 401 629 _c
374 649 336 659 287 659 _c
260 659 231 656 200 650 _c
169 644 135 635 98 623 _c
98 711 _l
135 721 170 729 203 734 _c
235 739 266 742 296 742 _c
370 742 429 725 473 691 _c
517 657 539 611 539 553 _c
539 513 527 479 504 451 _c
481 423 448 403 406 393 _c
_cl}_e}_d
/four{636 0 49 0 580 729 _sc
378 643 _m
129 254 _l
378 254 _l
378 643 _l
352 729 _m
476 729 _l
476 254 _l
580 254 _l
580 172 _l
476 172 _l
476 0 _l
378 0 _l
378 172 _l
49 172 _l
49 267 _l
352 729 _l
_cl}_d
/five{{636 0 77 -13 549 729 _sc
108 729 _m
495 729 _l
495 646 _l
198 646 _l
198 467 _l
212 472 227 476 241 478 _c
255 480 270 482 284 482 _c
365 482 429 459 477 415 _c
525 370 549 310 549 234 _c
549 155 524 94 475 51 _c
426 8 357 -13 269 -13 _c
238 -13 207 -10 175 -6 _c
143 -1 111 6 77 17 _c
77 116 _l
106 100 136 88 168 80 _c
199 72 232 69 267 69 _c
}_e{323 69 368 83 401 113 _c
433 143 450 183 450 234 _c
450 284 433 324 401 354 _c
368 384 323 399 267 399 _c
241 399 214 396 188 390 _c
162 384 135 375 108 363 _c
108 729 _l
_cl}_e}_d
/six{{636 0 70 -13 573 742 _sc
330 404 _m
286 404 251 388 225 358 _c
199 328 186 286 186 234 _c
186 181 199 139 225 109 _c
251 79 286 64 330 64 _c
374 64 409 79 435 109 _c
461 139 474 181 474 234 _c
474 286 461 328 435 358 _c
409 388 374 404 330 404 _c
526 713 _m
526 623 _l
501 635 476 644 451 650 _c
425 656 400 659 376 659 _c
310 659 260 637 226 593 _c
}_e{192 549 172 482 168 394 _c
187 422 211 444 240 459 _c
269 474 301 482 336 482 _c
409 482 467 459 509 415 _c
551 371 573 310 573 234 _c
573 159 550 99 506 54 _c
462 9 403 -13 330 -13 _c
246 -13 181 19 137 83 _c
92 147 70 241 70 364 _c
70 479 97 571 152 639 _c
206 707 280 742 372 742 _c
396 742 421 739 447 735 _c
472 730 498 723 526 713 _c
_cl}_e}_d
/eight{{636 0 68 -13 568 742 _sc
318 346 _m
271 346 234 333 207 308 _c
180 283 167 249 167 205 _c
167 161 180 126 207 101 _c
234 76 271 64 318 64 _c
364 64 401 76 428 102 _c
455 127 469 161 469 205 _c
469 249 455 283 429 308 _c
402 333 365 346 318 346 _c
219 388 _m
177 398 144 418 120 447 _c
96 476 85 511 85 553 _c
85 611 105 657 147 691 _c
188 725 245 742 318 742 _c
}_e{390 742 447 725 489 691 _c
530 657 551 611 551 553 _c
551 511 539 476 515 447 _c
491 418 459 398 417 388 _c
464 377 501 355 528 323 _c
554 291 568 251 568 205 _c
568 134 546 80 503 43 _c
459 5 398 -13 318 -13 _c
237 -13 175 5 132 43 _c
89 80 68 134 68 205 _c
68 251 81 291 108 323 _c
134 355 171 377 219 388 _c
183 544 _m
183 506 194 476 218 455 _c
}_e{242 434 275 424 318 424 _c
360 424 393 434 417 455 _c
441 476 453 506 453 544 _c
453 582 441 611 417 632 _c
393 653 360 664 318 664 _c
275 664 242 653 218 632 _c
194 611 183 582 183 544 _c
_cl}_e}_d
/C{{698 0 56 -13 644 742 _sc
644 673 _m
644 569 _l
610 599 575 622 537 638 _c
499 653 460 661 418 661 _c
334 661 270 635 226 584 _c
182 533 160 460 160 364 _c
160 268 182 194 226 143 _c
270 92 334 67 418 67 _c
460 67 499 74 537 90 _c
575 105 610 128 644 159 _c
644 56 _l
609 32 572 15 534 4 _c
496 -7 455 -13 412 -13 _c
302 -13 215 20 151 87 _c
}_e{87 154 56 246 56 364 _c
56 481 87 573 151 641 _c
215 708 302 742 412 742 _c
456 742 497 736 535 725 _c
573 713 610 696 644 673 _c
_cl}_e}_d
/E{632 0 98 0 568 729 _sc
98 729 _m
559 729 _l
559 646 _l
197 646 _l
197 430 _l
544 430 _l
544 347 _l
197 347 _l
197 83 _l
568 83 _l
568 0 _l
98 0 _l
98 729 _l
_cl}_d
/I{295 0 98 0 197 729 _sc
98 729 _m
197 729 _l
197 0 _l
98 0 _l
98 729 _l
_cl}_d
/a{{613 0 60 -13 522 560 _sc
343 275 _m
270 275 220 266 192 250 _c
164 233 150 205 150 165 _c
150 133 160 107 181 89 _c
202 70 231 61 267 61 _c
317 61 357 78 387 114 _c
417 149 432 196 432 255 _c
432 275 _l
343 275 _l
522 312 _m
522 0 _l
432 0 _l
432 83 _l
411 49 385 25 355 10 _c
325 -5 287 -13 243 -13 _c
187 -13 142 2 109 33 _c
76 64 60 106 60 159 _c
}_e{60 220 80 266 122 298 _c
163 329 224 345 306 345 _c
432 345 _l
432 354 _l
432 395 418 427 391 450 _c
364 472 326 484 277 484 _c
245 484 215 480 185 472 _c
155 464 127 453 100 439 _c
100 522 _l
132 534 164 544 195 550 _c
226 556 256 560 286 560 _c
365 560 424 539 463 498 _c
502 457 522 395 522 312 _c
_cl}_e}_d
/c{{550 0 55 -13 488 560 _sc
488 526 _m
488 442 _l
462 456 437 466 411 473 _c
385 480 360 484 334 484 _c
276 484 230 465 198 428 _c
166 391 150 339 150 273 _c
150 206 166 154 198 117 _c
230 80 276 62 334 62 _c
360 62 385 65 411 72 _c
437 79 462 90 488 104 _c
488 21 _l
462 9 436 0 410 -5 _c
383 -10 354 -13 324 -13 _c
242 -13 176 12 128 64 _c
}_e{79 115 55 185 55 273 _c
55 362 79 432 128 483 _c
177 534 244 560 330 560 _c
358 560 385 557 411 551 _c
437 545 463 537 488 526 _c
_cl}_e}_d
/d{{635 0 55 -13 544 760 _sc
454 464 _m
454 760 _l
544 760 _l
544 0 _l
454 0 _l
454 82 _l
435 49 411 25 382 10 _c
353 -5 319 -13 279 -13 _c
213 -13 159 13 117 65 _c
75 117 55 187 55 273 _c
55 359 75 428 117 481 _c
159 533 213 560 279 560 _c
319 560 353 552 382 536 _c
411 520 435 496 454 464 _c
148 273 _m
148 207 161 155 188 117 _c
215 79 253 61 301 61 _c
}_e{348 61 385 79 413 117 _c
440 155 454 207 454 273 _c
454 339 440 390 413 428 _c
385 466 348 485 301 485 _c
253 485 215 466 188 428 _c
161 390 148 339 148 273 _c
_cl}_e}_d
/e{{615 0 55 -13 562 560 _sc
562 296 _m
562 252 _l
149 252 _l
153 190 171 142 205 110 _c
238 78 284 62 344 62 _c
378 62 412 66 444 74 _c
476 82 509 95 541 113 _c
541 28 _l
509 14 476 3 442 -3 _c
408 -9 373 -13 339 -13 _c
251 -13 182 12 131 62 _c
80 112 55 181 55 268 _c
55 357 79 428 127 481 _c
175 533 241 560 323 560 _c
397 560 455 536 498 489 _c
}_e{540 441 562 377 562 296 _c
472 322 _m
471 371 457 410 431 440 _c
404 469 368 484 324 484 _c
274 484 234 469 204 441 _c
174 413 156 373 152 322 _c
472 322 _l
_cl}_e}_d
/g{{635 0 55 -207 544 560 _sc
454 280 _m
454 344 440 395 414 431 _c
387 467 349 485 301 485 _c
253 485 215 467 188 431 _c
161 395 148 344 148 280 _c
148 215 161 165 188 129 _c
215 93 253 75 301 75 _c
349 75 387 93 414 129 _c
440 165 454 215 454 280 _c
544 68 _m
544 -24 523 -93 482 -139 _c
440 -184 377 -207 292 -207 _c
260 -207 231 -204 203 -200 _c
175 -195 147 -188 121 -178 _c
}_e{121 -91 _l
147 -105 173 -115 199 -122 _c
225 -129 251 -133 278 -133 _c
336 -133 380 -117 410 -87 _c
439 -56 454 -10 454 52 _c
454 96 _l
435 64 411 40 382 24 _c
353 8 319 0 279 0 _c
211 0 157 25 116 76 _c
75 127 55 195 55 280 _c
55 364 75 432 116 483 _c
157 534 211 560 279 560 _c
319 560 353 552 382 536 _c
411 520 435 496 454 464 _c
454 547 _l
544 547 _l
}_e{544 68 _l
_cl}_e}_d
/h{634 0 91 0 549 760 _sc
549 330 _m
549 0 _l
459 0 _l
459 327 _l
459 379 448 417 428 443 _c
408 469 378 482 338 482 _c
289 482 251 466 223 435 _c
195 404 181 362 181 309 _c
181 0 _l
91 0 _l
91 760 _l
181 760 _l
181 462 _l
202 494 227 519 257 535 _c
286 551 320 560 358 560 _c
420 560 468 540 500 501 _c
532 462 549 405 549 330 _c
_cl}_d
/i{278 0 94 0 184 760 _sc
94 547 _m
184 547 _l
184 0 _l
94 0 _l
94 547 _l
94 760 _m
184 760 _l
184 646 _l
94 646 _l
94 760 _l
_cl}_d
/m{{974 0 91 0 889 560 _sc
520 442 _m
542 482 569 511 600 531 _c
631 550 668 560 711 560 _c
767 560 811 540 842 500 _c
873 460 889 403 889 330 _c
889 0 _l
799 0 _l
799 327 _l
799 379 789 418 771 444 _c
752 469 724 482 686 482 _c
639 482 602 466 575 435 _c
548 404 535 362 535 309 _c
535 0 _l
445 0 _l
445 327 _l
445 379 435 418 417 444 _c
398 469 369 482 331 482 _c
}_e{285 482 248 466 221 435 _c
194 404 181 362 181 309 _c
181 0 _l
91 0 _l
91 547 _l
181 547 _l
181 462 _l
201 495 226 520 255 536 _c
283 552 317 560 357 560 _c
397 560 430 550 458 530 _c
486 510 506 480 520 442 _c
_cl}_e}_d
/n{634 0 91 0 549 560 _sc
549 330 _m
549 0 _l
459 0 _l
459 327 _l
459 379 448 417 428 443 _c
408 469 378 482 338 482 _c
289 482 251 466 223 435 _c
195 404 181 362 181 309 _c
181 0 _l
91 0 _l
91 547 _l
181 547 _l
181 462 _l
202 494 227 519 257 535 _c
286 551 320 560 358 560 _c
420 560 468 540 500 501 _c
532 462 549 405 549 330 _c
_cl}_d
/o{612 0 55 -13 557 560 _sc
306 484 _m
258 484 220 465 192 427 _c
164 389 150 338 150 273 _c
150 207 163 156 191 118 _c
219 80 257 62 306 62 _c
354 62 392 80 420 118 _c
448 156 462 207 462 273 _c
462 337 448 389 420 427 _c
392 465 354 484 306 484 _c
306 560 _m
384 560 445 534 490 484 _c
534 433 557 363 557 273 _c
557 183 534 113 490 63 _c
445 12 384 -13 306 -13 _c
227 -13 165 12 121 63 _c
77 113 55 183 55 273 _c
55 363 77 433 121 484 _c
165 534 227 560 306 560 _c
_cl}_d
/p{{635 0 91 -207 580 560 _sc
181 82 _m
181 -207 _l
91 -207 _l
91 547 _l
181 547 _l
181 464 _l
199 496 223 520 252 536 _c
281 552 316 560 356 560 _c
422 560 476 533 518 481 _c
559 428 580 359 580 273 _c
580 187 559 117 518 65 _c
476 13 422 -13 356 -13 _c
316 -13 281 -5 252 10 _c
223 25 199 49 181 82 _c
487 273 _m
487 339 473 390 446 428 _c
418 466 381 485 334 485 _c
}_e{286 485 249 466 222 428 _c
194 390 181 339 181 273 _c
181 207 194 155 222 117 _c
249 79 286 61 334 61 _c
381 61 418 79 446 117 _c
473 155 487 207 487 273 _c
_cl}_e}_d
/r{411 0 91 0 411 560 _sc
411 463 _m
401 469 390 473 378 476 _c
366 478 353 480 339 480 _c
288 480 249 463 222 430 _c
194 397 181 350 181 288 _c
181 0 _l
91 0 _l
91 547 _l
181 547 _l
181 462 _l
199 495 224 520 254 536 _c
284 552 321 560 365 560 _c
371 560 378 559 386 559 _c
393 558 401 557 411 555 _c
411 463 _l
_cl}_d
/t{392 0 27 0 368 702 _sc
183 702 _m
183 547 _l
368 547 _l
368 477 _l
183 477 _l
183 180 _l
183 135 189 106 201 94 _c
213 81 238 75 276 75 _c
368 75 _l
368 0 _l
276 0 _l
206 0 158 13 132 39 _c
106 65 93 112 93 180 _c
93 477 _l
27 477 _l
27 547 _l
93 547 _l
93 702 _l
183 702 _l
_cl}_d
/u{634 0 85 -13 543 560 _sc
85 216 _m
85 547 _l
175 547 _l
175 219 _l
175 167 185 129 205 103 _c
225 77 255 64 296 64 _c
344 64 383 79 411 110 _c
439 141 453 183 453 237 _c
453 547 _l
543 547 _l
543 0 _l
453 0 _l
453 84 _l
431 50 405 26 377 10 _c
348 -5 315 -13 277 -13 _c
214 -13 166 6 134 45 _c
101 83 85 140 85 216 _c
311 560 _m
311 560 _l
_cl}_d
/w{818 0 42 0 776 547 _sc
42 547 _m
132 547 _l
244 120 _l
356 547 _l
462 547 _l
574 120 _l
686 547 _l
776 547 _l
633 0 _l
527 0 _l
409 448 _l
291 0 _l
185 0 _l
42 547 _l
_cl}_d
end readonly def

/BuildGlyph
 {exch begin
 CharStrings exch
 2 copy known not{pop /.notdef}if
 true 3 1 roll get exec
 end}_d

/BuildChar {
 1 index /Encoding get exch get
 1 index /BuildGlyph get exec
}_d

FontName currentdict end definefont pop
end
%%EndProlog
mpldict begin
41.76 223.2 translate
528.48 345.6 0 0 clipbox
gsave
0 0 m
528.48 0 l
528.48 345.6 l
0 345.6 l
cl
1.000 setgray
fill
grestore
gsave
52.848 43.4 m
471.067438 43.4 l
471.067438 332.28 l
52.848 332.28 l
cl
1.000 setgray
fill
grestore
0.500 setlinewidth
1 setlinejoin
0 setlinecap
[2.2 2.2] 0 setdash
0.000 setgray
gsave
418.2 288.9 52.85 43.4 clipbox
71.857974 43.4 m
71.857974 332.28 l
stroke
grestore
0.800 setlinewidth
[] 0 setdash
gsave
/o {
gsave
newpath
translate
0.8 setlinewidth
1 setlinejoin
0 setlinecap
0 0 m
0 -3.5 l

gsave
0.000 setgray
fill
grestore
stroke
grestore
} bind def
71.858 43.4 o
grestore
/DejaVuSans findfont
11.000 scalefont
setfont
gsave
59.607974 28.040625 translate
0.000000 rotate
0.000000 0.000000 m /zero glyphshow
6.998535 0.000000 m /period glyphshow
10.495117 0.000000 m /three glyphshow
17.493652 0.000000 m /zero glyphshow
grestore
0.500 setlinewidth
[2.2 2.2] 0 setdash
gsave
418.2 288.9 52.85 43.4 clipbox
126.172187 43.4 m
126.172187 332.28 l
stroke
grestore
0.800 setlinewidth
[] 0 setdash
gsave
/o {
gsave
newpath
translate
0.8 setlinewidth
1 setlinejoin
0 setlinecap
0 0 m
0 -3.5 l

gsave
0.000 setgray
fill
grestore
stroke
grestore
} bind def
126.172 43.4 o
grestore
gsave
113.922187 28.040625 translate
0.000000 rotate
0.000000 0.000000 m /zero glyphshow
6.998535 0.000000 m /period glyphshow
10.495117 0.000000 m /three glyphshow
17.493652 0.000000 m /five glyphshow
grestore
0.500 setlinewidth
[2.2 2.2] 0 setdash
gsave
418.2 288.9 52.85 43.4 clipbox
180.4864 43.4 m
180.4864 332.28 l
stroke
grestore
0.800 setlinewidth
[] 0 setdash
gsave
/o {
gsave
newpath
translate
0.8 setlinewidth
1 setlinejoin
0 setlinecap
0 0 m
0 -3.5 l

gsave
0.000 setgray
fill
grestore
stroke
grestore
} bind def
180.486 43.4 o
grestore
gsave
168.236400 28.040625 translate
0.000000 rotate
0.000000 0.000000 m /zero glyphshow
6.998535 0.000000 m /period glyphshow
10.495117 0.000000 m /four glyphshow
17.493652 0.000000 m /zero glyphshow
grestore
0.500 setlinewidth
[2.2 2.2] 0 setdash
gsave
418.2 288.9 52.85 43.4 clipbox
234.800612 43.4 m
234.800612 332.28 l
stroke
grestore
0.800 setlinewidth
[] 0 setdash
gsave
/o {
gsave
newpath
translate
0.8 setlinewidth
1 setlinejoin
0 setlinecap
0 0 m
0 -3.5 l

gsave
0.000 setgray
fill
grestore
stroke
grestore
} bind def
234.801 43.4 o
grestore
gsave
222.550612 28.040625 translate
0.000000 rotate
0.000000 0.000000 m /zero glyphshow
6.998535 0.000000 m /period glyphshow
10.495117 0.000000 m /four glyphshow
17.493652 0.000000 m /five glyphshow
grestore
0.500 setlinewidth
[2.2 2.2] 0 setdash
gsave
418.2 288.9 52.85 43.4 clipbox
289.114825 43.4 m
289.114825 332.28 l
stroke
grestore
0.800 setlinewidth
[] 0 setdash
gsave
/o {
gsave
newpath
translate
0.8 setlinewidth
1 setlinejoin
0 setlinecap
0 0 m
0 -3.5 l

gsave
0.000 setgray
fill
grestore
stroke
grestore
} bind def
289.115 43.4 o
grestore
gsave
276.864825 28.040625 translate
0.000000 rotate
0.000000 0.000000 m /zero glyphshow
6.998535 0.000000 m /period glyphshow
10.495117 0.000000 m /five glyphshow
17.493652 0.000000 m /zero glyphshow
grestore
0.500 setlinewidth
[2.2 2.2] 0 setdash
gsave
418.2 288.9 52.85 43.4 clipbox
343.429038 43.4 m
343.429038 332.28 l
stroke
grestore
0.800 setlinewidth
[] 0 setdash
gsave
/o {
gsave
newpath
translate
0.8 setlinewidth
1 setlinejoin
0 setlinecap
0 0 m
0 -3.5 l

gsave
0.000 setgray
fill
grestore
stroke
grestore
} bind def
343.429 43.4 o
grestore
gsave
331.179038 28.040625 translate
0.000000 rotate
0.000000 0.000000 m /zero glyphshow
6.998535 0.000000 m /period glyphshow
10.495117 0.000000 m /five glyphshow
17.493652 0.000000 m /five glyphshow
grestore
0.500 setlinewidth
[2.2 2.2] 0 setdash
gsave
418.2 288.9 52.85 43.4 clipbox
397.74325 43.4 m
397.74325 332.28 l
stroke
grestore
0.800 setlinewidth
[] 0 setdash
gsave
/o {
gsave
newpath
translate
0.8 setlinewidth
1 setlinejoin
0 setlinecap
0 0 m
0 -3.5 l

gsave
0.000 setgray
fill
grestore
stroke
grestore
} bind def
397.743 43.4 o
grestore
gsave
385.493250 28.040625 translate
0.000000 rotate
0.000000 0.000000 m /zero glyphshow
6.998535 0.000000 m /period glyphshow
10.495117 0.000000 m /six glyphshow
17.493652 0.000000 m /zero glyphshow
grestore
0.500 setlinewidth
[2.2 2.2] 0 setdash
gsave
418.2 288.9 52.85 43.4 clipbox
452.057463 43.4 m
452.057463 332.28 l
stroke
grestore
0.800 setlinewidth
[] 0 setdash
gsave
/o {
gsave
newpath
translate
0.8 setlinewidth
1 setlinejoin
0 setlinecap
0 0 m
0 -3.5 l

gsave
0.000 setgray
fill
grestore
stroke
grestore
} bind def
452.057 43.4 o
grestore
gsave
439.807463 28.040625 translate
0.000000 rotate
0.000000 0.000000 m /zero glyphshow
6.998535 0.000000 m /period glyphshow
10.495117 0.000000 m /six glyphshow
17.493652 0.000000 m /five glyphshow
grestore
gsave
181.231156 13.400000 translate
0.000000 rotate
0.000000 0.000000 m /I glyphshow
3.244141 0.000000 m /n glyphshow
10.215820 0.000000 m /p glyphshow
17.198242 0.000000 m /u glyphshow
24.169922 0.000000 m /t glyphshow
28.482910 0.000000 m /space glyphshow
31.979492 0.000000 m /e glyphshow
38.747070 0.000000 m /m glyphshow
49.462402 0.000000 m /i glyphshow
52.518555 0.000000 m /t glyphshow
56.831543 0.000000 m /t glyphshow
61.144531 0.000000 m /a glyphshow
67.885254 0.000000 m /n glyphshow
74.856934 0.000000 m /c glyphshow
80.904785 0.000000 m /e glyphshow
87.672363 0.000000 m /comma glyphshow
91.168945 0.000000 m /space glyphshow
94.665527 0.000000 m /p glyphshow
101.647949 0.000000 m /i glyphshow
104.704102 0.000000 m /asterisk glyphshow
110.204102 0.000000 m /c glyphshow
116.251953 0.000000 m /m glyphshow
126.967285 0.000000 m /asterisk glyphshow
132.467285 0.000000 m /m glyphshow
143.182617 0.000000 m /r glyphshow
147.705078 0.000000 m /a glyphshow
154.445801 0.000000 m /d glyphshow
grestore
0.500 setlinewidth
[2.2 2.2] 0 setdash
gsave
418.2 288.9 52.85 43.4 clipbox
52.848 68.468099 m
471.067438 68.468099 l
stroke
grestore
0.800 setlinewidth
[] 0 setdash
gsave
/o {
gsave
newpath
translate
0.8 setlinewidth
1 setlinejoin
0 setlinecap
0 0 m
-3.5 0 l

gsave
0.000 setgray
fill
grestore
stroke
grestore
} bind def
52.848 68.4681 o
grestore
gsave
21.348000 64.288412 translate
0.000000 rotate
0.000000 0.000000 m /zero glyphshow
6.998535 0.000000 m /period glyphshow
10.495117 0.000000 m /four glyphshow
17.493652 0.000000 m /zero glyphshow
grestore
0.500 setlinewidth
[2.2 2.2] 0 setdash
gsave
418.2 288.9 52.85 43.4 clipbox
52.848 128.15405 m
471.067438 128.15405 l
stroke
grestore
0.800 setlinewidth
[] 0 setdash
gsave
/o {
gsave
newpath
translate
0.8 setlinewidth
1 setlinejoin
0 setlinecap
0 0 m
-3.5 0 l

gsave
0.000 setgray
fill
grestore
stroke
grestore
} bind def
52.848 128.154 o
grestore
gsave
21.348000 123.974362 translate
0.000000 rotate
0.000000 0.000000 m /zero glyphshow
6.998535 0.000000 m /period glyphshow
10.495117 0.000000 m /four glyphshow
17.493652 0.000000 m /five glyphshow
grestore
0.500 setlinewidth
[2.2 2.2] 0 setdash
gsave
418.2 288.9 52.85 43.4 clipbox
52.848 187.84 m
471.067438 187.84 l
stroke
grestore
0.800 setlinewidth
[] 0 setdash
gsave
/o {
gsave
newpath
translate
0.8 setlinewidth
1 setlinejoin
0 setlinecap
0 0 m
-3.5 0 l

gsave
0.000 setgray
fill
grestore
stroke
grestore
} bind def
52.848 187.84 o
grestore
gsave
21.348000 183.660312 translate
0.000000 rotate
0.000000 0.000000 m /zero glyphshow
6.998535 0.000000 m /period glyphshow
10.495117 0.000000 m /five glyphshow
17.493652 0.000000 m /zero glyphshow
grestore
0.500 setlinewidth
[2.2 2.2] 0 setdash
gsave
418.2 288.9 52.85 43.4 clipbox
52.848 247.52595 m
471.067438 247.52595 l
stroke
grestore
0.800 setlinewidth
[] 0 setdash
gsave
/o {
gsave
newpath
translate
0.8 setlinewidth
1 setlinejoin
0 setlinecap
0 0 m
-3.5 0 l

gsave
0.000 setgray
fill
grestore
stroke
grestore
} bind def
52.848 247.526 o
grestore
gsave
21.348000 243.346263 translate
0.000000 rotate
0.000000 0.000000 m /zero glyphshow
6.998535 0.000000 m /period glyphshow
10.495117 0.000000 m /five glyphshow
17.493652 0.000000 m /five glyphshow
grestore
0.500 setlinewidth
[2.2 2.2] 0 setdash
gsave
418.2 288.9 52.85 43.4 clipbox
52.848 307.211901 m
471.067438 307.211901 l
stroke
grestore
0.800 setlinewidth
[] 0 setdash
gsave
/o {
gsave
newpath
translate
0.8 setlinewidth
1 setlinejoin
0 setlinecap
0 0 m
-3.5 0 l

gsave
0.000 setgray
fill
grestore
stroke
grestore
} bind def
52.848 307.212 o
grestore
gsave
21.348000 303.032213 translate
0.000000 rotate
0.000000 0.000000 m /zero glyphshow
6.998535 0.000000 m /period glyphshow
10.495117 0.000000 m /six glyphshow
17.493652 0.000000 m /zero glyphshow
grestore
gsave
15.066750 151.410313 translate
90.000000 rotate
0.000000 0.000000 m /C glyphshow
7.680664 0.000000 m /a glyphshow
14.421387 0.000000 m /p glyphshow
21.403809 0.000000 m /t glyphshow
25.716797 0.000000 m /u glyphshow
32.688477 0.000000 m /r glyphshow
37.210938 0.000000 m /e glyphshow
43.978516 0.000000 m /space glyphshow
47.475098 0.000000 m /r glyphshow
51.997559 0.000000 m /a glyphshow
58.738281 0.000000 m /t glyphshow
63.051270 0.000000 m /i glyphshow
66.107422 0.000000 m /o glyphshow
grestore
1.500 setlinewidth
2 setlinecap
gsave
418.2 288.9 52.85 43.4 clipbox
71.857974 319.149091 m
158.760715 211.71438 l
245.663455 128.15405 l
343.429038 68.468099 l
452.057463 56.530909 l
stroke
grestore
0.800 setlinewidth
0 setlinejoin
[] 0 setdash
gsave
52.848 43.4 m
52.848 332.28 l
stroke
grestore
gsave
471.067438 43.4 m
471.067438 332.28 l
stroke
grestore
gsave
52.848 43.4 m
471.067438 43.4 l
stroke
grestore
gsave
52.848 332.28 m
471.067438 332.28 l
stroke
grestore
1 setlinejoin
0 setlinecap
[] 0 setdash
0.000 0.500 0.000 setrgbcolor
gsave
/o {
gsave
newpath
translate
0.8 setlinewidth
1 setlinejoin
0 setlinecap
0 0 m
3.5 0 l

gsave
0.000 0.500 0.000 setrgbcolor
fill
grestore
stroke
grestore
} bind def
471.067 82.7927 o
grestore
gsave
478.067438 78.613040 translate
0.000000 rotate
0.000000 0.000000 m /one glyphshow
6.998535 0.000000 m /period glyphshow
10.495117 0.000000 m /eight glyphshow
grestore
gsave
/o {
gsave
newpath
translate
0.8 setlinewidth
1 setlinejoin
0 setlinecap
0 0 m
3.5 0 l

gsave
0.000 0.500 0.000 setrgbcolor
fill
grestore
stroke
grestore
} bind def
471.067 135.316 o
grestore
gsave
478.067438 131.136676 translate
0.000000 rotate
0.000000 0.000000 m /two glyphshow
6.998535 0.000000 m /period glyphshow
10.495117 0.000000 m /zero glyphshow
grestore
gsave
/o {
gsave
newpath
translate
0.8 setlinewidth
1 setlinejoin
0 setlinecap
0 0 m
3.5 0 l

gsave
0.000 0.500 0.000 setrgbcolor
fill
grestore
stroke
grestore
} bind def
471.067 187.84 o
grestore
gsave
478.067438 183.660313 translate
0.000000 rotate
0.000000 0.000000 m /two glyphshow
6.998535 0.000000 m /period glyphshow
10.495117 0.000000 m /two glyphshow
grestore
gsave
/o {
gsave
newpath
translate
0.8 setlinewidth
1 setlinejoin
0 setlinecap
0 0 m
3.5 0 l

gsave
0.000 0.500 0.000 setrgbcolor
fill
grestore
stroke
grestore
} bind def
471.067 240.364 o
grestore
gsave
478.067438 236.183949 translate
0.000000 rotate
0.000000 0.000000 m /two glyphshow
6.998535 0.000000 m /period glyphshow
10.495117 0.000000 m /four glyphshow
grestore
gsave
/o {
gsave
newpath
translate
0.8 setlinewidth
1 setlinejoin
0 setlinecap
0 0 m
3.5 0 l

gsave
0.000 0.500 0.000 setrgbcolor
fill
grestore
stroke
grestore
} bind def
471.067 292.887 o
grestore
gsave
478.067438 288.707585 translate
0.000000 rotate
0.000000 0.000000 m /two glyphshow
6.998535 0.000000 m /period glyphshow
10.495117 0.000000 m /six glyphshow
grestore
gsave
507.926813 138.886875 translate
90.000000 rotate
0.000000 0.000000 m /E glyphshow
6.950195 0.000000 m /m glyphshow
17.665527 0.000000 m /i glyphshow
20.721680 0.000000 m /t glyphshow
25.034668 0.000000 m /t glyphshow
29.347656 0.000000 m /a glyphshow
36.088379 0.000000 m /n glyphshow
43.060059 0.000000 m /c glyphshow
49.107910 0.000000 m /e glyphshow
55.875488 0.000000 m /space glyphshow
59.372070 0.000000 m /g glyphshow
66.354492 0.000000 m /r glyphshow
70.876953 0.000000 m /o glyphshow
77.606934 0.000000 m /w glyphshow
86.603516 0.000000 m /t glyphshow
90.916504 0.000000 m /h glyphshow
grestore
1.500 setlinewidth
[2.2 2.2] 0 setdash
gsave
418.2 288.9 52.85 43.4 clipbox
71.857974 319.149091 m
158.760715 214.101818 l
245.663455 135.316364 l
343.429038 56.530909 l
452.057463 56.530909 l
stroke
grestore
0.800 setlinewidth
0 setlinejoin
2 setlinecap
[] 0 setdash
0.000 setgray
gsave
52.848 43.4 m
52.848 332.28 l
stroke
grestore
gsave
471.067438 43.4 m
471.067438 332.28 l
stroke
grestore
gsave
52.848 43.4 m
471.067438 43.4 l
stroke
grestore
gsave
52.848 332.28 m
471.067438 332.28 l
stroke
grestore
1.000 setlinewidth
0 setlinecap
0.800 setgray
gsave
330.261188 291.19875 m
463.367438 291.19875 l
464.834104 291.19875 465.567438 291.932083 465.567438 293.39875 c
465.567438 324.58 l
465.567438 326.046667 464.834104 326.78 463.367438 326.78 c
330.261188 326.78 l
328.794521 326.78 328.061188 326.046667 328.061188 324.58 c
328.061188 293.39875 l
328.061188 291.932083 328.794521 291.19875 330.261188 291.19875 c
cl
gsave
1.000 setgray
fill
grestore
stroke
grestore
1.500 setlinewidth
1 setlinejoin
2 setlinecap
[] 0 setdash
0.000 setgray
gsave
332.461188 317.870625 m
354.461188 317.870625 l
stroke
grestore
gsave
363.261188 314.020625 translate
0.000000 rotate
0.000000 0.000000 m /C glyphshow
7.680664 0.000000 m /a glyphshow
14.421387 0.000000 m /p glyphshow
21.403809 0.000000 m /t glyphshow
25.716797 0.000000 m /u glyphshow
32.688477 0.000000 m /r glyphshow
37.210938 0.000000 m /e glyphshow
43.978516 0.000000 m /space glyphshow
47.475098 0.000000 m /r glyphshow
51.997559 0.000000 m /a glyphshow
58.738281 0.000000 m /t glyphshow
63.051270 0.000000 m /i glyphshow
66.107422 0.000000 m /o glyphshow
grestore
0 setlinecap
[2.2 2.2] 0 setdash
0.000 0.500 0.000 setrgbcolor
gsave
332.461188 301.73 m
354.461188 301.73 l
stroke
grestore
0.000 setgray
gsave
363.261188 297.880000 translate
0.000000 rotate
0.000000 0.000000 m /E glyphshow
6.950195 0.000000 m /m glyphshow
17.665527 0.000000 m /i glyphshow
20.721680 0.000000 m /t glyphshow
25.034668 0.000000 m /t glyphshow
29.347656 0.000000 m /a glyphshow
36.088379 0.000000 m /n glyphshow
43.060059 0.000000 m /c glyphshow
49.107910 0.000000 m /e glyphshow
55.875488 0.000000 m /space glyphshow
59.372070 0.000000 m /g glyphshow
66.354492 0.000000 m /r glyphshow
70.876953 0.000000 m /o glyphshow
77.606934 0.000000 m /w glyphshow
86.603516 0.000000 m /t glyphshow
90.916504 0.000000 m /h glyphshow
grestore

end
showpage
