%!PS-Adobe-3.0 EPSF-3.0
%%Creator: (MATLAB, The Mathworks, Inc. Version 9.0.0.341360 \(R2016a\). Operating System: Windows 8)
%%Title: D:/Dropbox/myWorks/2016/RFQArticle/RFQArticleTex/mOpt.eps
%%CreationDate: 2017-06-12T14:56:10
%%Pages: (atend)
%%BoundingBox: 0 0 576 432
%%LanguageLevel: 3
%%EndComments
%%BeginProlog
%%BeginResource: procset (Apache XML Graphics Std ProcSet) 1.2 0
%%Version: 1.2 0
%%Copyright: (Copyright 2001-2003,2010 The Apache Software Foundation. License terms: http://www.apache.org/licenses/LICENSE-2.0)
/bd{bind def}bind def
/ld{load def}bd
/GR/grestore ld
/M/moveto ld
/LJ/setlinejoin ld
/C/curveto ld
/f/fill ld
/LW/setlinewidth ld
/GC/setgray ld
/t/show ld
/N/newpath ld
/CT/concat ld
/cp/closepath ld
/S/stroke ld
/L/lineto ld
/CC/setcmykcolor ld
/A/ashow ld
/GS/gsave ld
/RC/setrgbcolor ld
/RM/rmoveto ld
/ML/setmiterlimit ld
/re {4 2 roll M
1 index 0 rlineto
0 exch rlineto
neg 0 rlineto
cp } bd
/_ctm matrix def
/_tm matrix def
/BT { _ctm currentmatrix pop matrix _tm copy pop 0 0 moveto } bd
/ET { _ctm setmatrix } bd
/iTm { _ctm setmatrix _tm concat } bd
/Tm { _tm astore pop iTm 0 0 moveto } bd
/ux 0.0 def
/uy 0.0 def
/F {
  /Tp exch def
  /Tf exch def
  Tf findfont Tp scalefont setfont
  /cf Tf def  /cs Tp def
} bd
/ULS {currentpoint /uy exch def /ux exch def} bd
/ULE {
  /Tcx currentpoint pop def
  gsave
  newpath
  cf findfont cs scalefont dup
  /FontMatrix get 0 get /Ts exch def /FontInfo get dup
  /UnderlinePosition get Ts mul /To exch def
  /UnderlineThickness get Ts mul /Tt exch def
  ux uy To add moveto  Tcx uy To add lineto
  Tt setlinewidth stroke
  grestore
} bd
/OLE {
  /Tcx currentpoint pop def
  gsave
  newpath
  cf findfont cs scalefont dup
  /FontMatrix get 0 get /Ts exch def /FontInfo get dup
  /UnderlinePosition get Ts mul /To exch def
  /UnderlineThickness get Ts mul /Tt exch def
  ux uy To add cs add moveto Tcx uy To add cs add lineto
  Tt setlinewidth stroke
  grestore
} bd
/SOE {
  /Tcx currentpoint pop def
  gsave
  newpath
  cf findfont cs scalefont dup
  /FontMatrix get 0 get /Ts exch def /FontInfo get dup
  /UnderlinePosition get Ts mul /To exch def
  /UnderlineThickness get Ts mul /Tt exch def
  ux uy To add cs 10 mul 26 idiv add moveto Tcx uy To add cs 10 mul 26 idiv add lineto
  Tt setlinewidth stroke
  grestore
} bd
/QT {
/Y22 exch store
/X22 exch store
/Y21 exch store
/X21 exch store
currentpoint
/Y21 load 2 mul add 3 div exch
/X21 load 2 mul add 3 div exch
/X21 load 2 mul /X22 load add 3 div
/Y21 load 2 mul /Y22 load add 3 div
/X22 load /Y22 load curveto
} bd
/SSPD {
dup length /d exch dict def
{
/v exch def
/k exch def
currentpagedevice k known {
/cpdv currentpagedevice k get def
v cpdv ne {
/upd false def
/nullv v type /nulltype eq def
/nullcpdv cpdv type /nulltype eq def
nullv nullcpdv or
{
/upd true def
} {
/sametype v type cpdv type eq def
sametype {
v type /arraytype eq {
/vlen v length def
/cpdvlen cpdv length def
vlen cpdvlen eq {
0 1 vlen 1 sub {
/i exch def
/obj v i get def
/cpdobj cpdv i get def
obj cpdobj ne {
/upd true def
exit
} if
} for
} {
/upd true def
} ifelse
} {
v type /dicttype eq {
v {
/dv exch def
/dk exch def
/cpddv cpdv dk get def
dv cpddv ne {
/upd true def
exit
} if
} forall
} {
/upd true def
} ifelse
} ifelse
} if
} ifelse
upd true eq {
d k v put
} if
} if
} if
} forall
d length 0 gt {
d setpagedevice
} if
} bd
%%EndResource
%%BeginResource: procset (Apache XML Graphics EPS ProcSet) 1.0 0
%%Version: 1.0 0
%%Copyright: (Copyright 2002-2003 The Apache Software Foundation. License terms: http://www.apache.org/licenses/LICENSE-2.0)
/BeginEPSF { %def
/b4_Inc_state save def         % Save state for cleanup
/dict_count countdictstack def % Count objects on dict stack
/op_count count 1 sub def      % Count objects on operand stack
userdict begin                 % Push userdict on dict stack
/showpage { } def              % Redefine showpage, { } = null proc
0 setgray 0 setlinecap         % Prepare graphics state
1 setlinewidth 0 setlinejoin
10 setmiterlimit [ ] 0 setdash newpath
/languagelevel where           % If level not equal to 1 then
{pop languagelevel             % set strokeadjust and
1 ne                           % overprint to their defaults.
{false setstrokeadjust false setoverprint
} if
} if
} bd
/EndEPSF { %def
count op_count sub {pop} repeat            % Clean up stacks
countdictstack dict_count sub {end} repeat
b4_Inc_state restore
} bd
%%EndResource
%FOPBeginFontDict
%%IncludeResource: font Courier-Bold
%%IncludeResource: font Helvetica
%%IncludeResource: font Courier-BoldOblique
%%IncludeResource: font Courier-Oblique
%%IncludeResource: font Times-Roman
%%IncludeResource: font Helvetica-BoldOblique
%%IncludeResource: font Helvetica-Bold
%%IncludeResource: font Helvetica-Oblique
%%IncludeResource: font Times-BoldItalic
%%IncludeResource: font Courier
%%IncludeResource: font Times-Italic
%%IncludeResource: font Times-Bold
%%IncludeResource: font Symbol
%%IncludeResource: font ZapfDingbats
%FOPEndFontDict
%%BeginResource: encoding WinAnsiEncoding
/WinAnsiEncoding [
/.notdef /.notdef /.notdef /.notdef /.notdef
/.notdef /.notdef /.notdef /.notdef /.notdef
/.notdef /.notdef /.notdef /.notdef /.notdef
/.notdef /.notdef /.notdef /.notdef /.notdef
/.notdef /.notdef /.notdef /.notdef /.notdef
/.notdef /.notdef /.notdef /.notdef /.notdef
/.notdef /.notdef /space /exclam /quotedbl
/numbersign /dollar /percent /ampersand /quotesingle
/parenleft /parenright /asterisk /plus /comma
/hyphen /period /slash /zero /one
/two /three /four /five /six
/seven /eight /nine /colon /semicolon
/less /equal /greater /question /at
/A /B /C /D /E
/F /G /H /I /J
/K /L /M /N /O
/P /Q /R /S /T
/U /V /W /X /Y
/Z /bracketleft /backslash /bracketright /asciicircum
/underscore /quoteleft /a /b /c
/d /e /f /g /h
/i /j /k /l /m
/n /o /p /q /r
/s /t /u /v /w
/x /y /z /braceleft /bar
/braceright /asciitilde /bullet /Euro /bullet
/quotesinglbase /florin /quotedblbase /ellipsis /dagger
/daggerdbl /circumflex /perthousand /Scaron /guilsinglleft
/OE /bullet /Zcaron /bullet /bullet
/quoteleft /quoteright /quotedblleft /quotedblright /bullet
/endash /emdash /asciitilde /trademark /scaron
/guilsinglright /oe /bullet /zcaron /Ydieresis
/space /exclamdown /cent /sterling /currency
/yen /brokenbar /section /dieresis /copyright
/ordfeminine /guillemotleft /logicalnot /sfthyphen /registered
/macron /degree /plusminus /twosuperior /threesuperior
/acute /mu /paragraph /middot /cedilla
/onesuperior /ordmasculine /guillemotright /onequarter /onehalf
/threequarters /questiondown /Agrave /Aacute /Acircumflex
/Atilde /Adieresis /Aring /AE /Ccedilla
/Egrave /Eacute /Ecircumflex /Edieresis /Igrave
/Iacute /Icircumflex /Idieresis /Eth /Ntilde
/Ograve /Oacute /Ocircumflex /Otilde /Odieresis
/multiply /Oslash /Ugrave /Uacute /Ucircumflex
/Udieresis /Yacute /Thorn /germandbls /agrave
/aacute /acircumflex /atilde /adieresis /aring
/ae /ccedilla /egrave /eacute /ecircumflex
/edieresis /igrave /iacute /icircumflex /idieresis
/eth /ntilde /ograve /oacute /ocircumflex
/otilde /odieresis /divide /oslash /ugrave
/uacute /ucircumflex /udieresis /yacute /thorn
/ydieresis
] def
%%EndResource
%FOPBeginFontReencode
/Courier-Bold findfont
dup length dict begin
  {1 index /FID ne {def} {pop pop} ifelse} forall
  /Encoding WinAnsiEncoding def
  currentdict
end
/Courier-Bold exch definefont pop
/Helvetica findfont
dup length dict begin
  {1 index /FID ne {def} {pop pop} ifelse} forall
  /Encoding WinAnsiEncoding def
  currentdict
end
/Helvetica exch definefont pop
/Courier-BoldOblique findfont
dup length dict begin
  {1 index /FID ne {def} {pop pop} ifelse} forall
  /Encoding WinAnsiEncoding def
  currentdict
end
/Courier-BoldOblique exch definefont pop
/Courier-Oblique findfont
dup length dict begin
  {1 index /FID ne {def} {pop pop} ifelse} forall
  /Encoding WinAnsiEncoding def
  currentdict
end
/Courier-Oblique exch definefont pop
/Times-Roman findfont
dup length dict begin
  {1 index /FID ne {def} {pop pop} ifelse} forall
  /Encoding WinAnsiEncoding def
  currentdict
end
/Times-Roman exch definefont pop
/Helvetica-BoldOblique findfont
dup length dict begin
  {1 index /FID ne {def} {pop pop} ifelse} forall
  /Encoding WinAnsiEncoding def
  currentdict
end
/Helvetica-BoldOblique exch definefont pop
/Helvetica-Bold findfont
dup length dict begin
  {1 index /FID ne {def} {pop pop} ifelse} forall
  /Encoding WinAnsiEncoding def
  currentdict
end
/Helvetica-Bold exch definefont pop
/Helvetica-Oblique findfont
dup length dict begin
  {1 index /FID ne {def} {pop pop} ifelse} forall
  /Encoding WinAnsiEncoding def
  currentdict
end
/Helvetica-Oblique exch definefont pop
/Times-BoldItalic findfont
dup length dict begin
  {1 index /FID ne {def} {pop pop} ifelse} forall
  /Encoding WinAnsiEncoding def
  currentdict
end
/Times-BoldItalic exch definefont pop
/Courier findfont
dup length dict begin
  {1 index /FID ne {def} {pop pop} ifelse} forall
  /Encoding WinAnsiEncoding def
  currentdict
end
/Courier exch definefont pop
/Times-Italic findfont
dup length dict begin
  {1 index /FID ne {def} {pop pop} ifelse} forall
  /Encoding WinAnsiEncoding def
  currentdict
end
/Times-Italic exch definefont pop
/Times-Bold findfont
dup length dict begin
  {1 index /FID ne {def} {pop pop} ifelse} forall
  /Encoding WinAnsiEncoding def
  currentdict
end
/Times-Bold exch definefont pop
%FOPEndFontReencode
%%EndProlog
%%Page: 1 1
%%PageBoundingBox: 0 0 576 432
%%BeginPageSetup
[1 0 0 -1 0 432] CT
%%EndPageSetup
GS
[0.75041 0 0 0.74943 0 0.32825] CT
1 GC
N
0 0 767 576 re
f
GR
GS
[0.75041 0 0 0.74943 0 0.32825] CT
1 GC
N
0 0 767 576 re
f
GR
GS
[0.75041 0 0 0.74943 0 0.32825] CT
1 GC
N
102 496 M
692 496 L
692 51 L
102 51 L
cp
f
GR
GS
[0.75041 0 0 0.74943 0 0.32825] CT
0.873 GC
1 LJ
0.667 LW
N
144.143 496 M
144.143 51 L
S
GR
GS
[0.75041 0 0 0.74943 0 0.32825] CT
0.873 GC
1 LJ
0.667 LW
N
228.429 496 M
228.429 51 L
S
GR
GS
[0.75041 0 0 0.74943 0 0.32825] CT
0.873 GC
1 LJ
0.667 LW
N
312.714 496 M
312.714 51 L
S
GR
GS
[0.75041 0 0 0.74943 0 0.32825] CT
0.873 GC
1 LJ
0.667 LW
N
397 496 M
397 51 L
S
GR
GS
[0.75041 0 0 0.74943 0 0.32825] CT
0.873 GC
1 LJ
0.667 LW
N
481.286 496 M
481.286 51 L
S
GR
GS
[0.75041 0 0 0.74943 0 0.32825] CT
0.873 GC
1 LJ
0.667 LW
N
565.571 496 M
565.571 51 L
S
GR
GS
[0.75041 0 0 0.74943 0 0.32825] CT
0.873 GC
1 LJ
0.667 LW
N
649.857 496 M
649.857 51 L
S
GR
GS
[0.75041 0 0 0.74943 0 0.32825] CT
0.873 GC
1 LJ
0.667 LW
N
692 496 M
102 496 L
S
GR
GS
[0.75041 0 0 0.74943 0 0.32825] CT
0.873 GC
1 LJ
0.667 LW
N
692 421.833 M
102 421.833 L
S
GR
GS
[0.75041 0 0 0.74943 0 0.32825] CT
0.873 GC
1 LJ
0.667 LW
N
692 347.667 M
102 347.667 L
S
GR
GS
[0.75041 0 0 0.74943 0 0.32825] CT
0.873 GC
1 LJ
0.667 LW
N
692 273.5 M
102 273.5 L
S
GR
GS
[0.75041 0 0 0.74943 0 0.32825] CT
0.873 GC
1 LJ
0.667 LW
N
692 199.333 M
102 199.333 L
S
GR
GS
[0.75041 0 0 0.74943 0 0.32825] CT
0.873 GC
1 LJ
0.667 LW
N
692 125.167 M
102 125.167 L
S
GR
GS
[0.75041 0 0 0.74943 0 0.32825] CT
0.873 GC
1 LJ
0.667 LW
N
692 51 M
102 51 L
S
GR
GS
[0.75041 0 0 0.74943 0 0.32825] CT
0.149 GC
2 setlinecap
1 LJ
0.667 LW
N
102 496 M
692 496 L
S
GR
GS
[0.75041 0 0 0.74943 0 0.32825] CT
0.149 GC
2 setlinecap
1 LJ
0.667 LW
N
102 51 M
692 51 L
S
GR
GS
[0.75041 0 0 0.74943 0 0.32825] CT
0.149 GC
2 setlinecap
1 LJ
0.667 LW
N
144.143 496 M
144.143 490.1 L
S
GR
GS
[0.75041 0 0 0.74943 0 0.32825] CT
0.149 GC
2 setlinecap
1 LJ
0.667 LW
N
228.429 496 M
228.429 490.1 L
S
GR
GS
[0.75041 0 0 0.74943 0 0.32825] CT
0.149 GC
2 setlinecap
1 LJ
0.667 LW
N
312.714 496 M
312.714 490.1 L
S
GR
GS
[0.75041 0 0 0.74943 0 0.32825] CT
0.149 GC
2 setlinecap
1 LJ
0.667 LW
N
397 496 M
397 490.1 L
S
GR
GS
[0.75041 0 0 0.74943 0 0.32825] CT
0.149 GC
2 setlinecap
1 LJ
0.667 LW
N
481.286 496 M
481.286 490.1 L
S
GR
GS
[0.75041 0 0 0.74943 0 0.32825] CT
0.149 GC
2 setlinecap
1 LJ
0.667 LW
N
565.571 496 M
565.571 490.1 L
S
GR
GS
[0.75041 0 0 0.74943 0 0.32825] CT
0.149 GC
2 setlinecap
1 LJ
0.667 LW
N
649.857 496 M
649.857 490.1 L
S
GR
GS
[0.75041 0 0 0.74943 0 0.32825] CT
0.149 GC
2 setlinecap
1 LJ
0.667 LW
N
144.143 51 M
144.143 56.9 L
S
GR
GS
[0.75041 0 0 0.74943 0 0.32825] CT
0.149 GC
2 setlinecap
1 LJ
0.667 LW
N
228.429 51 M
228.429 56.9 L
S
GR
GS
[0.75041 0 0 0.74943 0 0.32825] CT
0.149 GC
2 setlinecap
1 LJ
0.667 LW
N
312.714 51 M
312.714 56.9 L
S
GR
GS
[0.75041 0 0 0.74943 0 0.32825] CT
0.149 GC
2 setlinecap
1 LJ
0.667 LW
N
397 51 M
397 56.9 L
S
GR
GS
[0.75041 0 0 0.74943 0 0.32825] CT
0.149 GC
2 setlinecap
1 LJ
0.667 LW
N
481.286 51 M
481.286 56.9 L
S
GR
GS
[0.75041 0 0 0.74943 0 0.32825] CT
0.149 GC
2 setlinecap
1 LJ
0.667 LW
N
565.571 51 M
565.571 56.9 L
S
GR
GS
[0.75041 0 0 0.74943 0 0.32825] CT
0.149 GC
2 setlinecap
1 LJ
0.667 LW
N
649.857 51 M
649.857 56.9 L
S
GR
GS
[0.75041 0 0 0.74943 108.16583 377.33343] CT
0.149 GC
/Helvetica 21.946 F
GS
[1 0 0 1 0 0] CT
-6.5 23 moveto 
1 -1 scale
(2) t 
GR
GR
GS
[0.75041 0 0 0.74943 171.41444 377.33343] CT
0.149 GC
/Helvetica 21.946 F
GS
[1 0 0 1 0 0] CT
-6.5 23 moveto 
1 -1 scale
(4) t 
GR
GR
GS
[0.75041 0 0 0.74943 234.66306 377.33343] CT
0.149 GC
/Helvetica 21.946 F
GS
[1 0 0 1 0 0] CT
-6.5 23 moveto 
1 -1 scale
(6) t 
GR
GR
GS
[0.75041 0 0 0.74943 297.91166 377.33343] CT
0.149 GC
/Helvetica 21.946 F
GS
[1 0 0 1 0 0] CT
-6.5 23 moveto 
1 -1 scale
(8) t 
GR
GR
GS
[0.75041 0 0 0.74943 361.16026 377.33343] CT
0.149 GC
/Helvetica 21.946 F
GS
[1 0 0 1 0 0] CT
-12.5 23 moveto 
1 -1 scale
(10) t 
GR
GR
GS
[0.75041 0 0 0.74943 424.40885 377.33343] CT
0.149 GC
/Helvetica 21.946 F
GS
[1 0 0 1 0 0] CT
-12.5 23 moveto 
1 -1 scale
(12) t 
GR
GR
GS
[0.75041 0 0 0.74943 487.65745 377.33343] CT
0.149 GC
/Helvetica 21.946 F
GS
[1 0 0 1 0 0] CT
-12.5 23 moveto 
1 -1 scale
(14) t 
GR
GR
GS
[0.75041 0 0 0.74943 440.33179 399.30803] CT
/Helvetica 21.946 F
GS
[1 0 0 1 0 0] CT
-59.5 23 moveto 
1 -1 scale
(Cell number) t 
GR
GR
GS
[0.75041 0 0 0.74943 0 0.32825] CT
0.149 GC
2 setlinecap
1 LJ
0.667 LW
N
102 496 M
102 51 L
S
GR
GS
[0.75041 0 0 0.74943 0 0.32825] CT
0.149 GC
2 setlinecap
1 LJ
0.667 LW
N
692 496 M
692 51 L
S
GR
GS
[0.75041 0 0 0.74943 0 0.32825] CT
0.149 GC
2 setlinecap
1 LJ
0.667 LW
N
102 496 M
107.9 496 L
S
GR
GS
[0.75041 0 0 0.74943 0 0.32825] CT
0.149 GC
2 setlinecap
1 LJ
0.667 LW
N
102 421.833 M
107.9 421.833 L
S
GR
GS
[0.75041 0 0 0.74943 0 0.32825] CT
0.149 GC
2 setlinecap
1 LJ
0.667 LW
N
102 347.667 M
107.9 347.667 L
S
GR
GS
[0.75041 0 0 0.74943 0 0.32825] CT
0.149 GC
2 setlinecap
1 LJ
0.667 LW
N
102 273.5 M
107.9 273.5 L
S
GR
GS
[0.75041 0 0 0.74943 0 0.32825] CT
0.149 GC
2 setlinecap
1 LJ
0.667 LW
N
102 199.333 M
107.9 199.333 L
S
GR
GS
[0.75041 0 0 0.74943 0 0.32825] CT
0.149 GC
2 setlinecap
1 LJ
0.667 LW
N
102 125.167 M
107.9 125.167 L
S
GR
GS
[0.75041 0 0 0.74943 0 0.32825] CT
0.149 GC
2 setlinecap
1 LJ
0.667 LW
N
102 51 M
107.9 51 L
S
GR
GS
[0.75041 0 0 0.74943 0 0.32825] CT
0.149 GC
2 setlinecap
1 LJ
0.667 LW
N
692 496 M
686.1 496 L
S
GR
GS
[0.75041 0 0 0.74943 0 0.32825] CT
0.149 GC
2 setlinecap
1 LJ
0.667 LW
N
692 421.833 M
686.1 421.833 L
S
GR
GS
[0.75041 0 0 0.74943 0 0.32825] CT
0.149 GC
2 setlinecap
1 LJ
0.667 LW
N
692 347.667 M
686.1 347.667 L
S
GR
GS
[0.75041 0 0 0.74943 0 0.32825] CT
0.149 GC
2 setlinecap
1 LJ
0.667 LW
N
692 273.5 M
686.1 273.5 L
S
GR
GS
[0.75041 0 0 0.74943 0 0.32825] CT
0.149 GC
2 setlinecap
1 LJ
0.667 LW
N
692 199.333 M
686.1 199.333 L
S
GR
GS
[0.75041 0 0 0.74943 0 0.32825] CT
0.149 GC
2 setlinecap
1 LJ
0.667 LW
N
692 125.167 M
686.1 125.167 L
S
GR
GS
[0.75041 0 0 0.74943 0 0.32825] CT
0.149 GC
2 setlinecap
1 LJ
0.667 LW
N
692 51 M
686.1 51 L
S
GR
GS
[0.75041 0 0 0.74943 71.24679 372.04559] CT
0.149 GC
/Helvetica 21.946 F
GS
[1 0 0 1 0 0] CT
-13 9 moveto 
1 -1 scale
(0) t 
GR
GR
GS
[0.75041 0 0 0.74943 71.24679 316.46286] CT
0.149 GC
/Helvetica 21.946 F
GS
[1 0 0 1 0 0] CT
-43 9 moveto 
1 -1 scale
(0.01) t 
GR
GR
GS
[0.75041 0 0 0.74943 71.24679 260.88011] CT
0.149 GC
/Helvetica 21.946 F
GS
[1 0 0 1 0 0] CT
-43 9 moveto 
1 -1 scale
(0.02) t 
GR
GR
GS
[0.75041 0 0 0.74943 71.24679 205.29739] CT
0.149 GC
/Helvetica 21.946 F
GS
[1 0 0 1 0 0] CT
-43 9 moveto 
1 -1 scale
(0.03) t 
GR
GR
GS
[0.75041 0 0 0.74943 71.24679 149.71466] CT
0.149 GC
/Helvetica 21.946 F
GS
[1 0 0 1 0 0] CT
-43 9 moveto 
1 -1 scale
(0.04) t 
GR
GR
GS
[0.75041 0 0 0.74943 71.24679 94.13192] CT
0.149 GC
/Helvetica 21.946 F
GS
[1 0 0 1 0 0] CT
-43 9 moveto 
1 -1 scale
(0.05) t 
GR
GR
GS
[0.75041 0 0 0.74943 71.24679 38.54919] CT
0.149 GC
/Helvetica 21.946 F
GS
[1 0 0 1 0 0] CT
-43 9 moveto 
1 -1 scale
(0.06) t 
GR
GR
GS
[0.75041 0 0 0.74943 0 0.32825] CT
1 LJ
2.667 LW
N
102 114.932 M
144.143 265.045 L
186.286 363.835 L
228.429 415.974 L
270.571 434.813 L
312.714 434.813 L
354.857 435.777 L
397 435.777 L
439.143 436.222 L
481.286 436.222 L
523.429 436.222 L
565.571 436.222 L
607.714 436.222 L
649.857 439.559 L
S
GR
GS
[0.75041 0 0 0.74943 0 0.32825] CT
1 0 0 RC
[8 8] 0 setdash
2 LJ
2.667 LW
N
102 162.25 M
144.143 201.855 L
186.286 238.493 L
228.429 272.239 L
270.571 303.018 L
312.714 330.905 L
354.857 355.825 L
397 377.778 L
439.143 396.839 L
481.286 413.008 L
523.429 426.209 L
565.571 436.444 L
607.714 443.787 L
649.857 448.163 L
S
GR
GS
[0.75041 0 0 0.74943 0 0.32825] CT
1 GC
N
249 178 M
249 117 L
545 117 L
545 178 L
cp
f
GR
GS
[0.75041 0 0 0.74943 214.61646 100.10155] CT
/Helvetica 21.946 F
GS
[1 0 0 1 0 0] CT
0 9 moveto 
1 -1 scale
(Profile after optimization) t 
GR
GR
GS
[0.75041 0 0 0.74943 0 0.32825] CT
1 LJ
2.667 LW
N
253 133.132 M
283 133.132 L
S
GR
GS
[0.75041 0 0 0.74943 214.61646 121.63683] CT
/Helvetica 21.946 F
GS
[1 0 0 1 0 0] CT
0 9 moveto 
1 -1 scale
(Profile before optimization) t 
GR
GR
GS
[0.75041 0 0 0.74943 0 0.32825] CT
1 0 0 RC
[8 8] 0 setdash
2 LJ
2.667 LW
N
253 161.868 M
283 161.868 L
S
GR
GS
[0.75041 0 0 0.74943 0 0.32825] CT
10.0 ML
0.667 LW
N
249 178 M
249 117 L
545 117 L
545 178 L
cp
S
GR
GS
[0.75041 0 0 0.74943 85.44677 12.61009] CT
/Helvetica 21.946 F
GS
[1 0 0 1 0 0] CT
0 23 moveto 
1 -1 scale
(R, m) t 
GR
GR
%%Trailer
%%Pages: 1
%%EOF
