%!PS-Adobe-3.0 EPSF-3.0
%%Creator: (MATLAB, The Mathworks, Inc. Version 9.0.0.341360 \(R2016a\). Operating System: Windows 8)
%%Title: D:/Dropbox/myWorks/2016/RFQArticle/RFQArticleTex/rfq.eps
%%CreationDate: 2017-06-12T14:28:53
%%Pages: (atend)
%%BoundingBox: 0 0 839 625
%%LanguageLevel: 3
%%EndComments
%%BeginProlog
%%BeginResource: procset (Apache XML Graphics Std ProcSet) 1.2 0
%%Version: 1.2 0
%%Copyright: (Copyright 2001-2003,2010 The Apache Software Foundation. License terms: http://www.apache.org/licenses/LICENSE-2.0)
/bd{bind def}bind def
/ld{load def}bd
/GR/grestore ld
/M/moveto ld
/LJ/setlinejoin ld
/C/curveto ld
/f/fill ld
/LW/setlinewidth ld
/GC/setgray ld
/t/show ld
/N/newpath ld
/CT/concat ld
/cp/closepath ld
/S/stroke ld
/L/lineto ld
/CC/setcmykcolor ld
/A/ashow ld
/GS/gsave ld
/RC/setrgbcolor ld
/RM/rmoveto ld
/ML/setmiterlimit ld
/re {4 2 roll M
1 index 0 rlineto
0 exch rlineto
neg 0 rlineto
cp } bd
/_ctm matrix def
/_tm matrix def
/BT { _ctm currentmatrix pop matrix _tm copy pop 0 0 moveto } bd
/ET { _ctm setmatrix } bd
/iTm { _ctm setmatrix _tm concat } bd
/Tm { _tm astore pop iTm 0 0 moveto } bd
/ux 0.0 def
/uy 0.0 def
/F {
  /Tp exch def
  /Tf exch def
  Tf findfont Tp scalefont setfont
  /cf Tf def  /cs Tp def
} bd
/ULS {currentpoint /uy exch def /ux exch def} bd
/ULE {
  /Tcx currentpoint pop def
  gsave
  newpath
  cf findfont cs scalefont dup
  /FontMatrix get 0 get /Ts exch def /FontInfo get dup
  /UnderlinePosition get Ts mul /To exch def
  /UnderlineThickness get Ts mul /Tt exch def
  ux uy To add moveto  Tcx uy To add lineto
  Tt setlinewidth stroke
  grestore
} bd
/OLE {
  /Tcx currentpoint pop def
  gsave
  newpath
  cf findfont cs scalefont dup
  /FontMatrix get 0 get /Ts exch def /FontInfo get dup
  /UnderlinePosition get Ts mul /To exch def
  /UnderlineThickness get Ts mul /Tt exch def
  ux uy To add cs add moveto Tcx uy To add cs add lineto
  Tt setlinewidth stroke
  grestore
} bd
/SOE {
  /Tcx currentpoint pop def
  gsave
  newpath
  cf findfont cs scalefont dup
  /FontMatrix get 0 get /Ts exch def /FontInfo get dup
  /UnderlinePosition get Ts mul /To exch def
  /UnderlineThickness get Ts mul /Tt exch def
  ux uy To add cs 10 mul 26 idiv add moveto Tcx uy To add cs 10 mul 26 idiv add lineto
  Tt setlinewidth stroke
  grestore
} bd
/QT {
/Y22 exch store
/X22 exch store
/Y21 exch store
/X21 exch store
currentpoint
/Y21 load 2 mul add 3 div exch
/X21 load 2 mul add 3 div exch
/X21 load 2 mul /X22 load add 3 div
/Y21 load 2 mul /Y22 load add 3 div
/X22 load /Y22 load curveto
} bd
/SSPD {
dup length /d exch dict def
{
/v exch def
/k exch def
currentpagedevice k known {
/cpdv currentpagedevice k get def
v cpdv ne {
/upd false def
/nullv v type /nulltype eq def
/nullcpdv cpdv type /nulltype eq def
nullv nullcpdv or
{
/upd true def
} {
/sametype v type cpdv type eq def
sametype {
v type /arraytype eq {
/vlen v length def
/cpdvlen cpdv length def
vlen cpdvlen eq {
0 1 vlen 1 sub {
/i exch def
/obj v i get def
/cpdobj cpdv i get def
obj cpdobj ne {
/upd true def
exit
} if
} for
} {
/upd true def
} ifelse
} {
v type /dicttype eq {
v {
/dv exch def
/dk exch def
/cpddv cpdv dk get def
dv cpddv ne {
/upd true def
exit
} if
} forall
} {
/upd true def
} ifelse
} ifelse
} if
} ifelse
upd true eq {
d k v put
} if
} if
} if
} forall
d length 0 gt {
d setpagedevice
} if
} bd
%%EndResource
%%BeginResource: procset (Apache XML Graphics EPS ProcSet) 1.0 0
%%Version: 1.0 0
%%Copyright: (Copyright 2002-2003 The Apache Software Foundation. License terms: http://www.apache.org/licenses/LICENSE-2.0)
/BeginEPSF { %def
/b4_Inc_state save def         % Save state for cleanup
/dict_count countdictstack def % Count objects on dict stack
/op_count count 1 sub def      % Count objects on operand stack
userdict begin                 % Push userdict on dict stack
/showpage { } def              % Redefine showpage, { } = null proc
0 setgray 0 setlinecap         % Prepare graphics state
1 setlinewidth 0 setlinejoin
10 setmiterlimit [ ] 0 setdash newpath
/languagelevel where           % If level not equal to 1 then
{pop languagelevel             % set strokeadjust and
1 ne                           % overprint to their defaults.
{false setstrokeadjust false setoverprint
} if
} if
} bd
/EndEPSF { %def
count op_count sub {pop} repeat            % Clean up stacks
countdictstack dict_count sub {end} repeat
b4_Inc_state restore
} bd
%%EndResource
%FOPBeginFontDict
%%IncludeResource: font Courier-Bold
%%IncludeResource: font Helvetica
%%IncludeResource: font Courier-BoldOblique
%%IncludeResource: font Courier-Oblique
%%IncludeResource: font Times-Roman
%%IncludeResource: font Helvetica-BoldOblique
%%IncludeResource: font Helvetica-Bold
%%IncludeResource: font Helvetica-Oblique
%%IncludeResource: font Times-BoldItalic
%%IncludeResource: font Courier
%%IncludeResource: font Times-Italic
%%IncludeResource: font Times-Bold
%%IncludeResource: font Symbol
%%IncludeResource: font ZapfDingbats
%FOPEndFontDict
%%BeginResource: encoding WinAnsiEncoding
/WinAnsiEncoding [
/.notdef /.notdef /.notdef /.notdef /.notdef
/.notdef /.notdef /.notdef /.notdef /.notdef
/.notdef /.notdef /.notdef /.notdef /.notdef
/.notdef /.notdef /.notdef /.notdef /.notdef
/.notdef /.notdef /.notdef /.notdef /.notdef
/.notdef /.notdef /.notdef /.notdef /.notdef
/.notdef /.notdef /space /exclam /quotedbl
/numbersign /dollar /percent /ampersand /quotesingle
/parenleft /parenright /asterisk /plus /comma
/hyphen /period /slash /zero /one
/two /three /four /five /six
/seven /eight /nine /colon /semicolon
/less /equal /greater /question /at
/A /B /C /D /E
/F /G /H /I /J
/K /L /M /N /O
/P /Q /R /S /T
/U /V /W /X /Y
/Z /bracketleft /backslash /bracketright /asciicircum
/underscore /quoteleft /a /b /c
/d /e /f /g /h
/i /j /k /l /m
/n /o /p /q /r
/s /t /u /v /w
/x /y /z /braceleft /bar
/braceright /asciitilde /bullet /Euro /bullet
/quotesinglbase /florin /quotedblbase /ellipsis /dagger
/daggerdbl /circumflex /perthousand /Scaron /guilsinglleft
/OE /bullet /Zcaron /bullet /bullet
/quoteleft /quoteright /quotedblleft /quotedblright /bullet
/endash /emdash /asciitilde /trademark /scaron
/guilsinglright /oe /bullet /zcaron /Ydieresis
/space /exclamdown /cent /sterling /currency
/yen /brokenbar /section /dieresis /copyright
/ordfeminine /guillemotleft /logicalnot /sfthyphen /registered
/macron /degree /plusminus /twosuperior /threesuperior
/acute /mu /paragraph /middot /cedilla
/onesuperior /ordmasculine /guillemotright /onequarter /onehalf
/threequarters /questiondown /Agrave /Aacute /Acircumflex
/Atilde /Adieresis /Aring /AE /Ccedilla
/Egrave /Eacute /Ecircumflex /Edieresis /Igrave
/Iacute /Icircumflex /Idieresis /Eth /Ntilde
/Ograve /Oacute /Ocircumflex /Otilde /Odieresis
/multiply /Oslash /Ugrave /Uacute /Ucircumflex
/Udieresis /Yacute /Thorn /germandbls /agrave
/aacute /acircumflex /atilde /adieresis /aring
/ae /ccedilla /egrave /eacute /ecircumflex
/edieresis /igrave /iacute /icircumflex /idieresis
/eth /ntilde /ograve /oacute /ocircumflex
/otilde /odieresis /divide /oslash /ugrave
/uacute /ucircumflex /udieresis /yacute /thorn
/ydieresis
] def
%%EndResource
%FOPBeginFontReencode
/Courier-Bold findfont
dup length dict begin
  {1 index /FID ne {def} {pop pop} ifelse} forall
  /Encoding WinAnsiEncoding def
  currentdict
end
/Courier-Bold exch definefont pop
/Helvetica findfont
dup length dict begin
  {1 index /FID ne {def} {pop pop} ifelse} forall
  /Encoding WinAnsiEncoding def
  currentdict
end
/Helvetica exch definefont pop
/Courier-BoldOblique findfont
dup length dict begin
  {1 index /FID ne {def} {pop pop} ifelse} forall
  /Encoding WinAnsiEncoding def
  currentdict
end
/Courier-BoldOblique exch definefont pop
/Courier-Oblique findfont
dup length dict begin
  {1 index /FID ne {def} {pop pop} ifelse} forall
  /Encoding WinAnsiEncoding def
  currentdict
end
/Courier-Oblique exch definefont pop
/Times-Roman findfont
dup length dict begin
  {1 index /FID ne {def} {pop pop} ifelse} forall
  /Encoding WinAnsiEncoding def
  currentdict
end
/Times-Roman exch definefont pop
/Helvetica-BoldOblique findfont
dup length dict begin
  {1 index /FID ne {def} {pop pop} ifelse} forall
  /Encoding WinAnsiEncoding def
  currentdict
end
/Helvetica-BoldOblique exch definefont pop
/Helvetica-Bold findfont
dup length dict begin
  {1 index /FID ne {def} {pop pop} ifelse} forall
  /Encoding WinAnsiEncoding def
  currentdict
end
/Helvetica-Bold exch definefont pop
/Helvetica-Oblique findfont
dup length dict begin
  {1 index /FID ne {def} {pop pop} ifelse} forall
  /Encoding WinAnsiEncoding def
  currentdict
end
/Helvetica-Oblique exch definefont pop
/Times-BoldItalic findfont
dup length dict begin
  {1 index /FID ne {def} {pop pop} ifelse} forall
  /Encoding WinAnsiEncoding def
  currentdict
end
/Times-BoldItalic exch definefont pop
/Courier findfont
dup length dict begin
  {1 index /FID ne {def} {pop pop} ifelse} forall
  /Encoding WinAnsiEncoding def
  currentdict
end
/Courier exch definefont pop
/Times-Italic findfont
dup length dict begin
  {1 index /FID ne {def} {pop pop} ifelse} forall
  /Encoding WinAnsiEncoding def
  currentdict
end
/Times-Italic exch definefont pop
/Times-Bold findfont
dup length dict begin
  {1 index /FID ne {def} {pop pop} ifelse} forall
  /Encoding WinAnsiEncoding def
  currentdict
end
/Times-Bold exch definefont pop
%FOPEndFontReencode
%%EndProlog
%%Page: 1 1
%%PageBoundingBox: 0 0 839 625
%%BeginPageSetup
[1 0 0 -1 0 625] CT
%%EndPageSetup
GS
[0.75 0 0 0.75 0 0.25] CT
N
0 0 M
1119 0 L
1119 833 L
0 833 L
0 0 L
cp
clip
1 GC
N
0 0 1119 833 re
f
GR
GS
[0.75 0 0 0.75 0 0.25] CT
1 GC
N
0 0 1119 833 re
f
GR
GS
[0.75 0 0 0.75 0 0.25] CT
1 GC
N
142 714 M
1004 714 L
1004 70 L
142 70 L
cp
f
GR
GS
[0.75 0 0 0.75 0 0.25] CT
0.873 GC
1 LJ
0.667 LW
N
142 714 M
142 70 L
S
GR
GS
[0.75 0 0 0.75 0 0.25] CT
0.873 GC
1 LJ
0.667 LW
N
278.392 714 M
278.392 70 L
S
GR
GS
[0.75 0 0 0.75 0 0.25] CT
0.873 GC
1 LJ
0.667 LW
N
414.785 714 M
414.785 70 L
S
GR
GS
[0.75 0 0 0.75 0 0.25] CT
0.873 GC
1 LJ
0.667 LW
N
551.177 714 M
551.177 70 L
S
GR
GS
[0.75 0 0 0.75 0 0.25] CT
0.873 GC
1 LJ
0.667 LW
N
687.57 714 M
687.57 70 L
S
GR
GS
[0.75 0 0 0.75 0 0.25] CT
0.873 GC
1 LJ
0.667 LW
N
823.962 714 M
823.962 70 L
S
GR
GS
[0.75 0 0 0.75 0 0.25] CT
0.873 GC
1 LJ
0.667 LW
N
960.354 714 M
960.354 70 L
S
GR
GS
[0.75 0 0 0.75 0 0.25] CT
0.851 GC
1 LJ
0.667 LW
N
1004 714 M
142 714 L
S
GR
GS
[0.75 0 0 0.75 0 0.25] CT
0.851 GC
1 LJ
0.667 LW
N
1004 649.6 M
142 649.6 L
S
GR
GS
[0.75 0 0 0.75 0 0.25] CT
0.851 GC
1 LJ
0.667 LW
N
1004 585.2 M
142 585.2 L
S
GR
GS
[0.75 0 0 0.75 0 0.25] CT
0.851 GC
1 LJ
0.667 LW
N
1004 520.8 M
142 520.8 L
S
GR
GS
[0.75 0 0 0.75 0 0.25] CT
0.851 GC
1 LJ
0.667 LW
N
1004 456.4 M
142 456.4 L
S
GR
GS
[0.75 0 0 0.75 0 0.25] CT
0.851 GC
1 LJ
0.667 LW
N
1004 392 M
142 392 L
S
GR
GS
[0.75 0 0 0.75 0 0.25] CT
0.851 GC
1 LJ
0.667 LW
N
1004 327.6 M
142 327.6 L
S
GR
GS
[0.75 0 0 0.75 0 0.25] CT
0.851 GC
1 LJ
0.667 LW
N
1004 263.2 M
142 263.2 L
S
GR
GS
[0.75 0 0 0.75 0 0.25] CT
0.851 GC
1 LJ
0.667 LW
N
1004 198.8 M
142 198.8 L
S
GR
GS
[0.75 0 0 0.75 0 0.25] CT
0.851 GC
1 LJ
0.667 LW
N
1004 134.4 M
142 134.4 L
S
GR
GS
[0.75 0 0 0.75 0 0.25] CT
0.851 GC
1 LJ
0.667 LW
N
1004 70 M
142 70 L
S
GR
GS
[0.75 0 0 0.75 0 0.25] CT
0.149 GC
2 setlinecap
1 LJ
0.667 LW
N
142 714 M
1004 714 L
S
GR
GS
[0.75 0 0 0.75 0 0.25] CT
0.149 GC
2 setlinecap
1 LJ
0.667 LW
N
142 70 M
1004 70 L
S
GR
GS
[0.75 0 0 0.75 0 0.25] CT
0.149 GC
2 setlinecap
1 LJ
0.667 LW
N
142 714 M
142 705.38 L
S
GR
GS
[0.75 0 0 0.75 0 0.25] CT
0.149 GC
2 setlinecap
1 LJ
0.667 LW
N
278.392 714 M
278.392 705.38 L
S
GR
GS
[0.75 0 0 0.75 0 0.25] CT
0.149 GC
2 setlinecap
1 LJ
0.667 LW
N
414.785 714 M
414.785 705.38 L
S
GR
GS
[0.75 0 0 0.75 0 0.25] CT
0.149 GC
2 setlinecap
1 LJ
0.667 LW
N
551.177 714 M
551.177 705.38 L
S
GR
GS
[0.75 0 0 0.75 0 0.25] CT
0.149 GC
2 setlinecap
1 LJ
0.667 LW
N
687.57 714 M
687.57 705.38 L
S
GR
GS
[0.75 0 0 0.75 0 0.25] CT
0.149 GC
2 setlinecap
1 LJ
0.667 LW
N
823.962 714 M
823.962 705.38 L
S
GR
GS
[0.75 0 0 0.75 0 0.25] CT
0.149 GC
2 setlinecap
1 LJ
0.667 LW
N
960.354 714 M
960.354 705.38 L
S
GR
GS
[0.75 0 0 0.75 0 0.25] CT
0.149 GC
2 setlinecap
1 LJ
0.667 LW
N
142 70 M
142 78.62 L
S
GR
GS
[0.75 0 0 0.75 0 0.25] CT
0.149 GC
2 setlinecap
1 LJ
0.667 LW
N
278.392 70 M
278.392 78.62 L
S
GR
GS
[0.75 0 0 0.75 0 0.25] CT
0.149 GC
2 setlinecap
1 LJ
0.667 LW
N
414.785 70 M
414.785 78.62 L
S
GR
GS
[0.75 0 0 0.75 0 0.25] CT
0.149 GC
2 setlinecap
1 LJ
0.667 LW
N
551.177 70 M
551.177 78.62 L
S
GR
GS
[0.75 0 0 0.75 0 0.25] CT
0.149 GC
2 setlinecap
1 LJ
0.667 LW
N
687.57 70 M
687.57 78.62 L
S
GR
GS
[0.75 0 0 0.75 0 0.25] CT
0.149 GC
2 setlinecap
1 LJ
0.667 LW
N
823.962 70 M
823.962 78.62 L
S
GR
GS
[0.75 0 0 0.75 0 0.25] CT
0.149 GC
2 setlinecap
1 LJ
0.667 LW
N
960.354 70 M
960.354 78.62 L
S
GR
GS
[0.75 0 0 0.75 106.5 542.54999] CT
0.149 GC
/Helvetica 32 F
GS
[1 0 0 1 0 0] CT
-9 33 moveto 
1 -1 scale
(0) t 
GR
GR
GS
[0.75 0 0 0.75 208.7943 542.54999] CT
0.149 GC
/Helvetica 32 F
GS
[1 0 0 1 0 0] CT
-18 33 moveto 
1 -1 scale
(50) t 
GR
GR
GS
[0.75 0 0 0.75 311.08862 542.54999] CT
0.149 GC
/Helvetica 32 F
GS
[1 0 0 1 0 0] CT
-27 33 moveto 
1 -1 scale
(100) t 
GR
GR
GS
[0.75 0 0 0.75 413.38289 542.54999] CT
0.149 GC
/Helvetica 32 F
GS
[1 0 0 1 0 0] CT
-27 33 moveto 
1 -1 scale
(150) t 
GR
GR
GS
[0.75 0 0 0.75 515.67723 542.54999] CT
0.149 GC
/Helvetica 32 F
GS
[1 0 0 1 0 0] CT
-27 33 moveto 
1 -1 scale
(200) t 
GR
GR
GS
[0.75 0 0 0.75 617.97153 542.54999] CT
0.149 GC
/Helvetica 32 F
GS
[1 0 0 1 0 0] CT
-27 33 moveto 
1 -1 scale
(250) t 
GR
GR
GS
[0.75 0 0 0.75 720.26582 542.54999] CT
0.149 GC
/Helvetica 32 F
GS
[1 0 0 1 0 0] CT
-27 33 moveto 
1 -1 scale
(300) t 
GR
GR
GS
[0.75 0 0 0.75 683.14316 576.53651] CT
0.149 GC
/Helvetica 32 F
GS
[1 0 0 1 0 0] CT
-86.5 33 moveto 
1 -1 scale
(Cell number) t 
GR
GR
GS
[0.75 0 0 0.75 0 0.25] CT
2 setlinecap
1 LJ
0.667 LW
N
142 714 M
142 70 L
S
GR
GS
[0.75 0 0 0.75 0 0.25] CT
2 setlinecap
1 LJ
0.667 LW
N
142 714 M
150.62 714 L
S
GR
GS
[0.75 0 0 0.75 0 0.25] CT
2 setlinecap
1 LJ
0.667 LW
N
142 649.6 M
150.62 649.6 L
S
GR
GS
[0.75 0 0 0.75 0 0.25] CT
2 setlinecap
1 LJ
0.667 LW
N
142 585.2 M
150.62 585.2 L
S
GR
GS
[0.75 0 0 0.75 0 0.25] CT
2 setlinecap
1 LJ
0.667 LW
N
142 520.8 M
150.62 520.8 L
S
GR
GS
[0.75 0 0 0.75 0 0.25] CT
2 setlinecap
1 LJ
0.667 LW
N
142 456.4 M
150.62 456.4 L
S
GR
GS
[0.75 0 0 0.75 0 0.25] CT
2 setlinecap
1 LJ
0.667 LW
N
142 392 M
150.62 392 L
S
GR
GS
[0.75 0 0 0.75 0 0.25] CT
2 setlinecap
1 LJ
0.667 LW
N
142 327.6 M
150.62 327.6 L
S
GR
GS
[0.75 0 0 0.75 0 0.25] CT
2 setlinecap
1 LJ
0.667 LW
N
142 263.2 M
150.62 263.2 L
S
GR
GS
[0.75 0 0 0.75 0 0.25] CT
2 setlinecap
1 LJ
0.667 LW
N
142 198.8 M
150.62 198.8 L
S
GR
GS
[0.75 0 0 0.75 0 0.25] CT
2 setlinecap
1 LJ
0.667 LW
N
142 134.4 M
150.62 134.4 L
S
GR
GS
[0.75 0 0 0.75 0 0.25] CT
2 setlinecap
1 LJ
0.667 LW
N
142 70 M
150.62 70 L
S
GR
GS
[0.75 0 0 0.75 99.7 535.75] CT
/Helvetica 32 F
GS
[1 0 0 1 0 0] CT
-18 12.5 moveto 
1 -1 scale
(0) t 
GR
GR
GS
[0.75 0 0 0.75 99.7 487.44998] CT
/Helvetica 32 F
GS
[1 0 0 1 0 0] CT
-45 12.5 moveto 
1 -1 scale
(0.5) t 
GR
GR
GS
[0.75 0 0 0.75 99.7 439.15001] CT
/Helvetica 32 F
GS
[1 0 0 1 0 0] CT
-18 12.5 moveto 
1 -1 scale
(1) t 
GR
GR
GS
[0.75 0 0 0.75 99.7 390.84999] CT
/Helvetica 32 F
GS
[1 0 0 1 0 0] CT
-45 12.5 moveto 
1 -1 scale
(1.5) t 
GR
GR
GS
[0.75 0 0 0.75 99.7 342.55] CT
/Helvetica 32 F
GS
[1 0 0 1 0 0] CT
-18 12.5 moveto 
1 -1 scale
(2) t 
GR
GR
GS
[0.75 0 0 0.75 99.7 294.25] CT
/Helvetica 32 F
GS
[1 0 0 1 0 0] CT
-45 12.5 moveto 
1 -1 scale
(2.5) t 
GR
GR
GS
[0.75 0 0 0.75 99.7 245.95] CT
/Helvetica 32 F
GS
[1 0 0 1 0 0] CT
-18 12.5 moveto 
1 -1 scale
(3) t 
GR
GR
GS
[0.75 0 0 0.75 99.7 197.65001] CT
/Helvetica 32 F
GS
[1 0 0 1 0 0] CT
-45 12.5 moveto 
1 -1 scale
(3.5) t 
GR
GR
GS
[0.75 0 0 0.75 99.7 149.35] CT
/Helvetica 32 F
GS
[1 0 0 1 0 0] CT
-18 12.5 moveto 
1 -1 scale
(4) t 
GR
GR
GS
[0.75 0 0 0.75 99.7 101.05] CT
/Helvetica 32 F
GS
[1 0 0 1 0 0] CT
-45 12.5 moveto 
1 -1 scale
(4.5) t 
GR
GR
GS
[0.75 0 0 0.75 99.7 52.75] CT
/Helvetica 32 F
GS
[1 0 0 1 0 0] CT
-18 12.5 moveto 
1 -1 scale
(5) t 
GR
GR
GS
[0.75 0 0 0.75 0 0.25] CT
0.494 0.184 0.557 RC
2 setlinecap
1 LJ
0.667 LW
N
1004 714 M
1004 70 L
S
GR
GS
[0.75 0 0 0.75 0 0.25] CT
0.494 0.184 0.557 RC
2 setlinecap
1 LJ
0.667 LW
N
1004 714 M
995.38 714 L
S
GR
GS
[0.75 0 0 0.75 0 0.25] CT
0.494 0.184 0.557 RC
2 setlinecap
1 LJ
0.667 LW
N
1004 622 M
995.38 622 L
S
GR
GS
[0.75 0 0 0.75 0 0.25] CT
0.494 0.184 0.557 RC
2 setlinecap
1 LJ
0.667 LW
N
1004 530 M
995.38 530 L
S
GR
GS
[0.75 0 0 0.75 0 0.25] CT
0.494 0.184 0.557 RC
2 setlinecap
1 LJ
0.667 LW
N
1004 438 M
995.38 438 L
S
GR
GS
[0.75 0 0 0.75 0 0.25] CT
0.494 0.184 0.557 RC
2 setlinecap
1 LJ
0.667 LW
N
1004 346 M
995.38 346 L
S
GR
GS
[0.75 0 0 0.75 0 0.25] CT
0.494 0.184 0.557 RC
2 setlinecap
1 LJ
0.667 LW
N
1004 254 M
995.38 254 L
S
GR
GS
[0.75 0 0 0.75 0 0.25] CT
0.494 0.184 0.557 RC
2 setlinecap
1 LJ
0.667 LW
N
1004 162 M
995.38 162 L
S
GR
GS
[0.75 0 0 0.75 0 0.25] CT
0.494 0.184 0.557 RC
2 setlinecap
1 LJ
0.667 LW
N
1004 70 M
995.38 70 L
S
GR
GS
[0.75 0 0 0.75 759.79999 535.75] CT
0.494 0.184 0.557 RC
/Helvetica 32 F
GS
[1 0 0 1 0 0] CT
0 12.5 moveto 
1 -1 scale
(-100) t 
GR
GR
GS
[0.75 0 0 0.75 759.79999 466.75] CT
0.494 0.184 0.557 RC
/Helvetica 32 F
GS
[1 0 0 1 0 0] CT
0 12.5 moveto 
1 -1 scale
(-90) t 
GR
GR
GS
[0.75 0 0 0.75 759.79999 397.75] CT
0.494 0.184 0.557 RC
/Helvetica 32 F
GS
[1 0 0 1 0 0] CT
0 12.5 moveto 
1 -1 scale
(-80) t 
GR
GR
GS
[0.75 0 0 0.75 759.79999 328.75] CT
0.494 0.184 0.557 RC
/Helvetica 32 F
GS
[1 0 0 1 0 0] CT
0 12.5 moveto 
1 -1 scale
(-70) t 
GR
GR
GS
[0.75 0 0 0.75 759.79999 259.75] CT
0.494 0.184 0.557 RC
/Helvetica 32 F
GS
[1 0 0 1 0 0] CT
0 12.5 moveto 
1 -1 scale
(-60) t 
GR
GR
GS
[0.75 0 0 0.75 759.79999 190.75] CT
0.494 0.184 0.557 RC
/Helvetica 32 F
GS
[1 0 0 1 0 0] CT
0 12.5 moveto 
1 -1 scale
(-50) t 
GR
GR
GS
[0.75 0 0 0.75 759.79999 121.75] CT
0.494 0.184 0.557 RC
/Helvetica 32 F
GS
[1 0 0 1 0 0] CT
0 12.5 moveto 
1 -1 scale
(-40) t 
GR
GR
GS
[0.75 0 0 0.75 759.79999 52.75] CT
0.494 0.184 0.557 RC
/Helvetica 32 F
GS
[1 0 0 1 0 0] CT
0 12.5 moveto 
1 -1 scale
(-30) t 
GR
GR
GS
[0.75 0 0 0.75 0 0.25] CT
N
142 70 M
1005 70 L
1005 715 L
142 715 L
142 70 L
cp
clip
0 0.498 0 RC
1 LJ
2 LW
N
159.36 0 M
161.095 327.6 L
177.462 327.6 L
193.829 328.888 L
210.196 328.888 L
226.563 330.176 L
242.93 331.464 L
259.297 331.464 L
275.665 332.752 L
292.032 334.04 L
308.399 335.328 L
324.766 336.616 L
341.133 337.904 L
357.5 339.192 L
373.867 340.48 L
390.234 341.768 L
406.601 343.056 L
422.968 344.344 L
439.335 344.344 L
455.703 345.632 L
472.07 346.92 L
488.437 346.92 L
504.804 348.208 L
521.171 349.496 L
537.538 350.784 L
553.905 350.784 L
570.272 350.784 L
586.639 350.784 L
603.006 350.784 L
619.373 350.784 L
635.74 350.784 L
652.108 350.784 L
668.475 350.784 L
684.842 352.072 L
701.209 352.072 L
717.576 352.072 L
733.943 353.36 L
750.31 354.648 L
766.677 355.936 L
783.044 358.512 L
799.411 362.376 L
815.779 367.528 L
832.146 375.256 L
848.513 375.256 L
864.88 376.544 L
881.247 376.544 L
897.614 376.544 L
913.981 376.544 L
930.348 377.832 L
946.715 377.832 L
963.082 377.832 L
979.449 377.832 L
995.816 377.832 L
S
GR
GS
[0.75 0 0 0.75 0 0.25] CT
0 0.498 0 RC
10.0 ML
2 LW
N
158.9 330.1 M
158.9 324.9 L
164.1 324.9 L
164.1 330.1 L
cp
S
GR
GS
[0.75 0 0 0.75 0 0.25] CT
0 0.498 0 RC
10.0 ML
2 LW
N
174.9 330.1 M
174.9 324.9 L
180.1 324.9 L
180.1 330.1 L
cp
S
GR
GS
[0.75 0 0 0.75 0 0.25] CT
0 0.498 0 RC
10.0 ML
2 LW
N
190.9 331.1 M
190.9 325.9 L
196.1 325.9 L
196.1 331.1 L
cp
S
GR
GS
[0.75 0 0 0.75 0 0.25] CT
0 0.498 0 RC
10.0 ML
2 LW
N
207.9 331.1 M
207.9 325.9 L
213.1 325.9 L
213.1 331.1 L
cp
S
GR
GS
[0.75 0 0 0.75 0 0.25] CT
0 0.498 0 RC
10.0 ML
2 LW
N
223.9 333.1 M
223.9 327.9 L
229.1 327.9 L
229.1 333.1 L
cp
S
GR
GS
[0.75 0 0 0.75 0 0.25] CT
0 0.498 0 RC
10.0 ML
2 LW
N
239.9 334.1 M
239.9 328.9 L
245.1 328.9 L
245.1 334.1 L
cp
S
GR
GS
[0.75 0 0 0.75 0 0.25] CT
0 0.498 0 RC
10.0 ML
2 LW
N
256.9 334.1 M
256.9 328.9 L
262.1 328.9 L
262.1 334.1 L
cp
S
GR
GS
[0.75 0 0 0.75 0 0.25] CT
0 0.498 0 RC
10.0 ML
2 LW
N
272.9 335.1 M
272.9 329.9 L
278.1 329.9 L
278.1 335.1 L
cp
S
GR
GS
[0.75 0 0 0.75 0 0.25] CT
0 0.498 0 RC
10.0 ML
2 LW
N
289.9 337.1 M
289.9 331.9 L
295.1 331.9 L
295.1 337.1 L
cp
S
GR
GS
[0.75 0 0 0.75 0 0.25] CT
0 0.498 0 RC
10.0 ML
2 LW
N
305.9 338.1 M
305.9 332.9 L
311.1 332.9 L
311.1 338.1 L
cp
S
GR
GS
[0.75 0 0 0.75 0 0.25] CT
0 0.498 0 RC
10.0 ML
2 LW
N
321.9 339.1 M
321.9 333.9 L
327.1 333.9 L
327.1 339.1 L
cp
S
GR
GS
[0.75 0 0 0.75 0 0.25] CT
0 0.498 0 RC
10.0 ML
2 LW
N
338.9 340.1 M
338.9 334.9 L
344.1 334.9 L
344.1 340.1 L
cp
S
GR
GS
[0.75 0 0 0.75 0 0.25] CT
0 0.498 0 RC
10.0 ML
2 LW
N
354.9 342.1 M
354.9 336.9 L
360.1 336.9 L
360.1 342.1 L
cp
S
GR
GS
[0.75 0 0 0.75 0 0.25] CT
0 0.498 0 RC
10.0 ML
2 LW
N
370.9 343.1 M
370.9 337.9 L
376.1 337.9 L
376.1 343.1 L
cp
S
GR
GS
[0.75 0 0 0.75 0 0.25] CT
0 0.498 0 RC
10.0 ML
2 LW
N
387.9 344.1 M
387.9 338.9 L
393.1 338.9 L
393.1 344.1 L
cp
S
GR
GS
[0.75 0 0 0.75 0 0.25] CT
0 0.498 0 RC
10.0 ML
2 LW
N
403.9 346.1 M
403.9 340.9 L
409.1 340.9 L
409.1 346.1 L
cp
S
GR
GS
[0.75 0 0 0.75 0 0.25] CT
0 0.498 0 RC
10.0 ML
2 LW
N
419.9 347.1 M
419.9 341.9 L
425.1 341.9 L
425.1 347.1 L
cp
S
GR
GS
[0.75 0 0 0.75 0 0.25] CT
0 0.498 0 RC
10.0 ML
2 LW
N
436.9 347.1 M
436.9 341.9 L
442.1 341.9 L
442.1 347.1 L
cp
S
GR
GS
[0.75 0 0 0.75 0 0.25] CT
0 0.498 0 RC
10.0 ML
2 LW
N
452.9 348.1 M
452.9 342.9 L
458.1 342.9 L
458.1 348.1 L
cp
S
GR
GS
[0.75 0 0 0.75 0 0.25] CT
0 0.498 0 RC
10.0 ML
2 LW
N
469.9 349.1 M
469.9 343.9 L
475.1 343.9 L
475.1 349.1 L
cp
S
GR
GS
[0.75 0 0 0.75 0 0.25] CT
0 0.498 0 RC
10.0 ML
2 LW
N
485.9 349.1 M
485.9 343.9 L
491.1 343.9 L
491.1 349.1 L
cp
S
GR
GS
[0.75 0 0 0.75 0 0.25] CT
0 0.498 0 RC
10.0 ML
2 LW
N
501.9 351.1 M
501.9 345.9 L
507.1 345.9 L
507.1 351.1 L
cp
S
GR
GS
[0.75 0 0 0.75 0 0.25] CT
0 0.498 0 RC
10.0 ML
2 LW
N
518.9 352.1 M
518.9 346.9 L
524.1 346.9 L
524.1 352.1 L
cp
S
GR
GS
[0.75 0 0 0.75 0 0.25] CT
0 0.498 0 RC
10.0 ML
2 LW
N
534.9 353.1 M
534.9 347.9 L
540.1 347.9 L
540.1 353.1 L
cp
S
GR
GS
[0.75 0 0 0.75 0 0.25] CT
0 0.498 0 RC
10.0 ML
2 LW
N
550.9 353.1 M
550.9 347.9 L
556.1 347.9 L
556.1 353.1 L
cp
S
GR
GS
[0.75 0 0 0.75 0 0.25] CT
0 0.498 0 RC
10.0 ML
2 LW
N
567.9 353.1 M
567.9 347.9 L
573.1 347.9 L
573.1 353.1 L
cp
S
GR
GS
[0.75 0 0 0.75 0 0.25] CT
0 0.498 0 RC
10.0 ML
2 LW
N
583.9 353.1 M
583.9 347.9 L
589.1 347.9 L
589.1 353.1 L
cp
S
GR
GS
[0.75 0 0 0.75 0 0.25] CT
0 0.498 0 RC
10.0 ML
2 LW
N
600.9 353.1 M
600.9 347.9 L
606.1 347.9 L
606.1 353.1 L
cp
S
GR
GS
[0.75 0 0 0.75 0 0.25] CT
0 0.498 0 RC
10.0 ML
2 LW
N
616.9 353.1 M
616.9 347.9 L
622.1 347.9 L
622.1 353.1 L
cp
S
GR
GS
[0.75 0 0 0.75 0 0.25] CT
0 0.498 0 RC
10.0 ML
2 LW
N
632.9 353.1 M
632.9 347.9 L
638.1 347.9 L
638.1 353.1 L
cp
S
GR
GS
[0.75 0 0 0.75 0 0.25] CT
0 0.498 0 RC
10.0 ML
2 LW
N
649.9 353.1 M
649.9 347.9 L
655.1 347.9 L
655.1 353.1 L
cp
S
GR
GS
[0.75 0 0 0.75 0 0.25] CT
0 0.498 0 RC
10.0 ML
2 LW
N
665.9 353.1 M
665.9 347.9 L
671.1 347.9 L
671.1 353.1 L
cp
S
GR
GS
[0.75 0 0 0.75 0 0.25] CT
0 0.498 0 RC
10.0 ML
2 LW
N
681.9 355.1 M
681.9 349.9 L
687.1 349.9 L
687.1 355.1 L
cp
S
GR
GS
[0.75 0 0 0.75 0 0.25] CT
0 0.498 0 RC
10.0 ML
2 LW
N
698.9 355.1 M
698.9 349.9 L
704.1 349.9 L
704.1 355.1 L
cp
S
GR
GS
[0.75 0 0 0.75 0 0.25] CT
0 0.498 0 RC
10.0 ML
2 LW
N
714.9 355.1 M
714.9 349.9 L
720.1 349.9 L
720.1 355.1 L
cp
S
GR
GS
[0.75 0 0 0.75 0 0.25] CT
0 0.498 0 RC
10.0 ML
2 LW
N
730.9 356.1 M
730.9 350.9 L
736.1 350.9 L
736.1 356.1 L
cp
S
GR
GS
[0.75 0 0 0.75 0 0.25] CT
0 0.498 0 RC
10.0 ML
2 LW
N
747.9 357.1 M
747.9 351.9 L
753.1 351.9 L
753.1 357.1 L
cp
S
GR
GS
[0.75 0 0 0.75 0 0.25] CT
0 0.498 0 RC
10.0 ML
2 LW
N
763.9 358.1 M
763.9 352.9 L
769.1 352.9 L
769.1 358.1 L
cp
S
GR
GS
[0.75 0 0 0.75 0 0.25] CT
0 0.498 0 RC
10.0 ML
2 LW
N
780.9 361.1 M
780.9 355.9 L
786.1 355.9 L
786.1 361.1 L
cp
S
GR
GS
[0.75 0 0 0.75 0 0.25] CT
0 0.498 0 RC
10.0 ML
2 LW
N
796.9 365.1 M
796.9 359.9 L
802.1 359.9 L
802.1 365.1 L
cp
S
GR
GS
[0.75 0 0 0.75 0 0.25] CT
0 0.498 0 RC
10.0 ML
2 LW
N
812.9 370.1 M
812.9 364.9 L
818.1 364.9 L
818.1 370.1 L
cp
S
GR
GS
[0.75 0 0 0.75 0 0.25] CT
0 0.498 0 RC
10.0 ML
2 LW
N
829.9 378.1 M
829.9 372.9 L
835.1 372.9 L
835.1 378.1 L
cp
S
GR
GS
[0.75 0 0 0.75 0 0.25] CT
0 0.498 0 RC
10.0 ML
2 LW
N
845.9 378.1 M
845.9 372.9 L
851.1 372.9 L
851.1 378.1 L
cp
S
GR
GS
[0.75 0 0 0.75 0 0.25] CT
0 0.498 0 RC
10.0 ML
2 LW
N
861.9 379.1 M
861.9 373.9 L
867.1 373.9 L
867.1 379.1 L
cp
S
GR
GS
[0.75 0 0 0.75 0 0.25] CT
0 0.498 0 RC
10.0 ML
2 LW
N
878.9 379.1 M
878.9 373.9 L
884.1 373.9 L
884.1 379.1 L
cp
S
GR
GS
[0.75 0 0 0.75 0 0.25] CT
0 0.498 0 RC
10.0 ML
2 LW
N
894.9 379.1 M
894.9 373.9 L
900.1 373.9 L
900.1 379.1 L
cp
S
GR
GS
[0.75 0 0 0.75 0 0.25] CT
0 0.498 0 RC
10.0 ML
2 LW
N
910.9 379.1 M
910.9 373.9 L
916.1 373.9 L
916.1 379.1 L
cp
S
GR
GS
[0.75 0 0 0.75 0 0.25] CT
0 0.498 0 RC
10.0 ML
2 LW
N
927.9 380.1 M
927.9 374.9 L
933.1 374.9 L
933.1 380.1 L
cp
S
GR
GS
[0.75 0 0 0.75 0 0.25] CT
0 0.498 0 RC
10.0 ML
2 LW
N
943.9 380.1 M
943.9 374.9 L
949.1 374.9 L
949.1 380.1 L
cp
S
GR
GS
[0.75 0 0 0.75 0 0.25] CT
0 0.498 0 RC
10.0 ML
2 LW
N
960.9 380.1 M
960.9 374.9 L
966.1 374.9 L
966.1 380.1 L
cp
S
GR
GS
[0.75 0 0 0.75 0 0.25] CT
0 0.498 0 RC
10.0 ML
2 LW
N
976.9 380.1 M
976.9 374.9 L
982.1 374.9 L
982.1 380.1 L
cp
S
GR
GS
[0.75 0 0 0.75 0 0.25] CT
0 0.498 0 RC
10.0 ML
2 LW
N
992.9 380.1 M
992.9 374.9 L
998.1 374.9 L
998.1 380.1 L
cp
S
GR
GS
[0.75 0 0 0.75 0 0.25] CT
1 0 0 RC
1 LJ
2 LW
N
144.728 701.635 M
161.095 701.635 L
177.462 701.635 L
193.829 701.635 L
210.196 701.635 L
226.563 701.633 L
242.93 701.63 L
259.297 701.623 L
275.665 701.612 L
292.032 701.593 L
308.399 701.566 L
324.766 701.526 L
341.133 701.471 L
357.5 701.396 L
373.867 701.297 L
390.234 701.167 L
406.601 701.002 L
422.968 700.792 L
439.335 700.536 L
455.703 700.231 L
472.07 699.87 L
488.437 699.442 L
504.804 698.937 L
521.171 698.342 L
537.538 697.642 L
553.905 696.82 L
570.272 695.882 L
586.639 694.778 L
603.006 693.45 L
619.373 691.831 L
635.74 689.85 L
652.108 687.424 L
668.475 684.457 L
684.842 680.839 L
701.209 676.438 L
717.576 671.099 L
733.943 664.624 L
750.31 656.75 L
766.677 647.112 L
783.044 635.2 L
799.411 620.301 L
815.779 601.443 L
832.146 577.373 L
848.513 549.061 L
864.88 519.316 L
881.247 488.529 L
897.614 456.755 L
913.981 424.296 L
930.348 391.262 L
946.715 357.736 L
963.082 323.781 L
979.449 289.449 L
995.816 254.781 L
S
GR
GS
[0.75 0 0 0.75 0 0.25] CT
1 0 0 RC
1 LJ
2 LW
N
141 705 M
148 698 L
S
GR
GS
[0.75 0 0 0.75 0 0.25] CT
1 0 0 RC
1 LJ
2 LW
N
141 698 M
148 705 L
S
GR
GS
[0.75 0 0 0.75 0 0.25] CT
1 0 0 RC
1 LJ
2 LW
N
158 705 M
165 698 L
S
GR
GS
[0.75 0 0 0.75 0 0.25] CT
1 0 0 RC
1 LJ
2 LW
N
158 698 M
165 705 L
S
GR
GS
[0.75 0 0 0.75 0 0.25] CT
1 0 0 RC
1 LJ
2 LW
N
174 705 M
181 698 L
S
GR
GS
[0.75 0 0 0.75 0 0.25] CT
1 0 0 RC
1 LJ
2 LW
N
174 698 M
181 705 L
S
GR
GS
[0.75 0 0 0.75 0 0.25] CT
1 0 0 RC
1 LJ
2 LW
N
190 705 M
197 698 L
S
GR
GS
[0.75 0 0 0.75 0 0.25] CT
1 0 0 RC
1 LJ
2 LW
N
190 698 M
197 705 L
S
GR
GS
[0.75 0 0 0.75 0 0.25] CT
1 0 0 RC
1 LJ
2 LW
N
207 705 M
214 698 L
S
GR
GS
[0.75 0 0 0.75 0 0.25] CT
1 0 0 RC
1 LJ
2 LW
N
207 698 M
214 705 L
S
GR
GS
[0.75 0 0 0.75 0 0.25] CT
1 0 0 RC
1 LJ
2 LW
N
223 705 M
230 698 L
S
GR
GS
[0.75 0 0 0.75 0 0.25] CT
1 0 0 RC
1 LJ
2 LW
N
223 698 M
230 705 L
S
GR
GS
[0.75 0 0 0.75 0 0.25] CT
1 0 0 RC
1 LJ
2 LW
N
239 705 M
246 698 L
S
GR
GS
[0.75 0 0 0.75 0 0.25] CT
1 0 0 RC
1 LJ
2 LW
N
239 698 M
246 705 L
S
GR
GS
[0.75 0 0 0.75 0 0.25] CT
1 0 0 RC
1 LJ
2 LW
N
256 705 M
263 698 L
S
GR
GS
[0.75 0 0 0.75 0 0.25] CT
1 0 0 RC
1 LJ
2 LW
N
256 698 M
263 705 L
S
GR
GS
[0.75 0 0 0.75 0 0.25] CT
1 0 0 RC
1 LJ
2 LW
N
272 705 M
279 698 L
S
GR
GS
[0.75 0 0 0.75 0 0.25] CT
1 0 0 RC
1 LJ
2 LW
N
272 698 M
279 705 L
S
GR
GS
[0.75 0 0 0.75 0 0.25] CT
1 0 0 RC
1 LJ
2 LW
N
289 705 M
296 698 L
S
GR
GS
[0.75 0 0 0.75 0 0.25] CT
1 0 0 RC
1 LJ
2 LW
N
289 698 M
296 705 L
S
GR
GS
[0.75 0 0 0.75 0 0.25] CT
1 0 0 RC
1 LJ
2 LW
N
305 705 M
312 698 L
S
GR
GS
[0.75 0 0 0.75 0 0.25] CT
1 0 0 RC
1 LJ
2 LW
N
305 698 M
312 705 L
S
GR
GS
[0.75 0 0 0.75 0 0.25] CT
1 0 0 RC
1 LJ
2 LW
N
321 705 M
328 698 L
S
GR
GS
[0.75 0 0 0.75 0 0.25] CT
1 0 0 RC
1 LJ
2 LW
N
321 698 M
328 705 L
S
GR
GS
[0.75 0 0 0.75 0 0.25] CT
1 0 0 RC
1 LJ
2 LW
N
338 705 M
345 698 L
S
GR
GS
[0.75 0 0 0.75 0 0.25] CT
1 0 0 RC
1 LJ
2 LW
N
338 698 M
345 705 L
S
GR
GS
[0.75 0 0 0.75 0 0.25] CT
1 0 0 RC
1 LJ
2 LW
N
354 705 M
361 698 L
S
GR
GS
[0.75 0 0 0.75 0 0.25] CT
1 0 0 RC
1 LJ
2 LW
N
354 698 M
361 705 L
S
GR
GS
[0.75 0 0 0.75 0 0.25] CT
1 0 0 RC
1 LJ
2 LW
N
370 705 M
377 698 L
S
GR
GS
[0.75 0 0 0.75 0 0.25] CT
1 0 0 RC
1 LJ
2 LW
N
370 698 M
377 705 L
S
GR
GS
[0.75 0 0 0.75 0 0.25] CT
1 0 0 RC
1 LJ
2 LW
N
387 705 M
394 698 L
S
GR
GS
[0.75 0 0 0.75 0 0.25] CT
1 0 0 RC
1 LJ
2 LW
N
387 698 M
394 705 L
S
GR
GS
[0.75 0 0 0.75 0 0.25] CT
1 0 0 RC
1 LJ
2 LW
N
403 705 M
410 698 L
S
GR
GS
[0.75 0 0 0.75 0 0.25] CT
1 0 0 RC
1 LJ
2 LW
N
403 698 M
410 705 L
S
GR
GS
[0.75 0 0 0.75 0 0.25] CT
1 0 0 RC
1 LJ
2 LW
N
419 704 M
426 697 L
S
GR
GS
[0.75 0 0 0.75 0 0.25] CT
1 0 0 RC
1 LJ
2 LW
N
419 697 M
426 704 L
S
GR
GS
[0.75 0 0 0.75 0 0.25] CT
1 0 0 RC
1 LJ
2 LW
N
436 704 M
443 697 L
S
GR
GS
[0.75 0 0 0.75 0 0.25] CT
1 0 0 RC
1 LJ
2 LW
N
436 697 M
443 704 L
S
GR
GS
[0.75 0 0 0.75 0 0.25] CT
1 0 0 RC
1 LJ
2 LW
N
452 704 M
459 697 L
S
GR
GS
[0.75 0 0 0.75 0 0.25] CT
1 0 0 RC
1 LJ
2 LW
N
452 697 M
459 704 L
S
GR
GS
[0.75 0 0 0.75 0 0.25] CT
1 0 0 RC
1 LJ
2 LW
N
469 703 M
476 696 L
S
GR
GS
[0.75 0 0 0.75 0 0.25] CT
1 0 0 RC
1 LJ
2 LW
N
469 696 M
476 703 L
S
GR
GS
[0.75 0 0 0.75 0 0.25] CT
1 0 0 RC
1 LJ
2 LW
N
485 703 M
492 696 L
S
GR
GS
[0.75 0 0 0.75 0 0.25] CT
1 0 0 RC
1 LJ
2 LW
N
485 696 M
492 703 L
S
GR
GS
[0.75 0 0 0.75 0 0.25] CT
1 0 0 RC
1 LJ
2 LW
N
501 702 M
508 695 L
S
GR
GS
[0.75 0 0 0.75 0 0.25] CT
1 0 0 RC
1 LJ
2 LW
N
501 695 M
508 702 L
S
GR
GS
[0.75 0 0 0.75 0 0.25] CT
1 0 0 RC
1 LJ
2 LW
N
518 702 M
525 695 L
S
GR
GS
[0.75 0 0 0.75 0 0.25] CT
1 0 0 RC
1 LJ
2 LW
N
518 695 M
525 702 L
S
GR
GS
[0.75 0 0 0.75 0 0.25] CT
1 0 0 RC
1 LJ
2 LW
N
534 701 M
541 694 L
S
GR
GS
[0.75 0 0 0.75 0 0.25] CT
1 0 0 RC
1 LJ
2 LW
N
534 694 M
541 701 L
S
GR
GS
[0.75 0 0 0.75 0 0.25] CT
1 0 0 RC
1 LJ
2 LW
N
550 700 M
557 693 L
S
GR
GS
[0.75 0 0 0.75 0 0.25] CT
1 0 0 RC
1 LJ
2 LW
N
550 693 M
557 700 L
S
GR
GS
[0.75 0 0 0.75 0 0.25] CT
1 0 0 RC
1 LJ
2 LW
N
567 699 M
574 692 L
S
GR
GS
[0.75 0 0 0.75 0 0.25] CT
1 0 0 RC
1 LJ
2 LW
N
567 692 M
574 699 L
S
GR
GS
[0.75 0 0 0.75 0 0.25] CT
1 0 0 RC
1 LJ
2 LW
N
583 698 M
590 691 L
S
GR
GS
[0.75 0 0 0.75 0 0.25] CT
1 0 0 RC
1 LJ
2 LW
N
583 691 M
590 698 L
S
GR
GS
[0.75 0 0 0.75 0 0.25] CT
1 0 0 RC
1 LJ
2 LW
N
600 697 M
607 690 L
S
GR
GS
[0.75 0 0 0.75 0 0.25] CT
1 0 0 RC
1 LJ
2 LW
N
600 690 M
607 697 L
S
GR
GS
[0.75 0 0 0.75 0 0.25] CT
1 0 0 RC
1 LJ
2 LW
N
616 695 M
623 688 L
S
GR
GS
[0.75 0 0 0.75 0 0.25] CT
1 0 0 RC
1 LJ
2 LW
N
616 688 M
623 695 L
S
GR
GS
[0.75 0 0 0.75 0 0.25] CT
1 0 0 RC
1 LJ
2 LW
N
632 693 M
639 686 L
S
GR
GS
[0.75 0 0 0.75 0 0.25] CT
1 0 0 RC
1 LJ
2 LW
N
632 686 M
639 693 L
S
GR
GS
[0.75 0 0 0.75 0 0.25] CT
1 0 0 RC
1 LJ
2 LW
N
649 691 M
656 684 L
S
GR
GS
[0.75 0 0 0.75 0 0.25] CT
1 0 0 RC
1 LJ
2 LW
N
649 684 M
656 691 L
S
GR
GS
[0.75 0 0 0.75 0 0.25] CT
1 0 0 RC
1 LJ
2 LW
N
665 688 M
672 681 L
S
GR
GS
[0.75 0 0 0.75 0 0.25] CT
1 0 0 RC
1 LJ
2 LW
N
665 681 M
672 688 L
S
GR
GS
[0.75 0 0 0.75 0 0.25] CT
1 0 0 RC
1 LJ
2 LW
N
681 684 M
688 677 L
S
GR
GS
[0.75 0 0 0.75 0 0.25] CT
1 0 0 RC
1 LJ
2 LW
N
681 677 M
688 684 L
S
GR
GS
[0.75 0 0 0.75 0 0.25] CT
1 0 0 RC
1 LJ
2 LW
N
698 680 M
705 673 L
S
GR
GS
[0.75 0 0 0.75 0 0.25] CT
1 0 0 RC
1 LJ
2 LW
N
698 673 M
705 680 L
S
GR
GS
[0.75 0 0 0.75 0 0.25] CT
1 0 0 RC
1 LJ
2 LW
N
714 675 M
721 668 L
S
GR
GS
[0.75 0 0 0.75 0 0.25] CT
1 0 0 RC
1 LJ
2 LW
N
714 668 M
721 675 L
S
GR
GS
[0.75 0 0 0.75 0 0.25] CT
1 0 0 RC
1 LJ
2 LW
N
730 668 M
737 661 L
S
GR
GS
[0.75 0 0 0.75 0 0.25] CT
1 0 0 RC
1 LJ
2 LW
N
730 661 M
737 668 L
S
GR
GS
[0.75 0 0 0.75 0 0.25] CT
1 0 0 RC
1 LJ
2 LW
N
747 660 M
754 653 L
S
GR
GS
[0.75 0 0 0.75 0 0.25] CT
1 0 0 RC
1 LJ
2 LW
N
747 653 M
754 660 L
S
GR
GS
[0.75 0 0 0.75 0 0.25] CT
1 0 0 RC
1 LJ
2 LW
N
763 651 M
770 644 L
S
GR
GS
[0.75 0 0 0.75 0 0.25] CT
1 0 0 RC
1 LJ
2 LW
N
763 644 M
770 651 L
S
GR
GS
[0.75 0 0 0.75 0 0.25] CT
1 0 0 RC
1 LJ
2 LW
N
780 639 M
787 632 L
S
GR
GS
[0.75 0 0 0.75 0 0.25] CT
1 0 0 RC
1 LJ
2 LW
N
780 632 M
787 639 L
S
GR
GS
[0.75 0 0 0.75 0 0.25] CT
1 0 0 RC
1 LJ
2 LW
N
796 624 M
803 617 L
S
GR
GS
[0.75 0 0 0.75 0 0.25] CT
1 0 0 RC
1 LJ
2 LW
N
796 617 M
803 624 L
S
GR
GS
[0.75 0 0 0.75 0 0.25] CT
1 0 0 RC
1 LJ
2 LW
N
812 605 M
819 598 L
S
GR
GS
[0.75 0 0 0.75 0 0.25] CT
1 0 0 RC
1 LJ
2 LW
N
812 598 M
819 605 L
S
GR
GS
[0.75 0 0 0.75 0 0.25] CT
1 0 0 RC
1 LJ
2 LW
N
829 581 M
836 574 L
S
GR
GS
[0.75 0 0 0.75 0 0.25] CT
1 0 0 RC
1 LJ
2 LW
N
829 574 M
836 581 L
S
GR
GS
[0.75 0 0 0.75 0 0.25] CT
1 0 0 RC
1 LJ
2 LW
N
845 553 M
852 546 L
S
GR
GS
[0.75 0 0 0.75 0 0.25] CT
1 0 0 RC
1 LJ
2 LW
N
845 546 M
852 553 L
S
GR
GS
[0.75 0 0 0.75 0 0.25] CT
1 0 0 RC
1 LJ
2 LW
N
861 523 M
868 516 L
S
GR
GS
[0.75 0 0 0.75 0 0.25] CT
1 0 0 RC
1 LJ
2 LW
N
861 516 M
868 523 L
S
GR
GS
[0.75 0 0 0.75 0 0.25] CT
1 0 0 RC
1 LJ
2 LW
N
878 492 M
885 485 L
S
GR
GS
[0.75 0 0 0.75 0 0.25] CT
1 0 0 RC
1 LJ
2 LW
N
878 485 M
885 492 L
S
GR
GS
[0.75 0 0 0.75 0 0.25] CT
1 0 0 RC
1 LJ
2 LW
N
894 460 M
901 453 L
S
GR
GS
[0.75 0 0 0.75 0 0.25] CT
1 0 0 RC
1 LJ
2 LW
N
894 453 M
901 460 L
S
GR
GS
[0.75 0 0 0.75 0 0.25] CT
1 0 0 RC
1 LJ
2 LW
N
910 428 M
917 421 L
S
GR
GS
[0.75 0 0 0.75 0 0.25] CT
1 0 0 RC
1 LJ
2 LW
N
910 421 M
917 428 L
S
GR
GS
[0.75 0 0 0.75 0 0.25] CT
1 0 0 RC
1 LJ
2 LW
N
927 395 M
934 388 L
S
GR
GS
[0.75 0 0 0.75 0 0.25] CT
1 0 0 RC
1 LJ
2 LW
N
927 388 M
934 395 L
S
GR
GS
[0.75 0 0 0.75 0 0.25] CT
1 0 0 RC
1 LJ
2 LW
N
943 361 M
950 354 L
S
GR
GS
[0.75 0 0 0.75 0 0.25] CT
1 0 0 RC
1 LJ
2 LW
N
943 354 M
950 361 L
S
GR
GS
[0.75 0 0 0.75 0 0.25] CT
1 0 0 RC
1 LJ
2 LW
N
960 327 M
967 320 L
S
GR
GS
[0.75 0 0 0.75 0 0.25] CT
1 0 0 RC
1 LJ
2 LW
N
960 320 M
967 327 L
S
GR
GS
[0.75 0 0 0.75 0 0.25] CT
1 0 0 RC
1 LJ
2 LW
N
976 293 M
983 286 L
S
GR
GS
[0.75 0 0 0.75 0 0.25] CT
1 0 0 RC
1 LJ
2 LW
N
976 286 M
983 293 L
S
GR
GS
[0.75 0 0 0.75 0 0.25] CT
1 0 0 RC
1 LJ
2 LW
N
992 258 M
999 251 L
S
GR
GS
[0.75 0 0 0.75 0 0.25] CT
1 0 0 RC
1 LJ
2 LW
N
992 251 M
999 258 L
S
GR
GS
[0.75 0 0 0.75 0 0.25] CT
0 0.447 0.741 RC
1 LJ
2 LW
N
142 585.2 M
158.367 585.181 L
174.734 584.908 L
191.101 584.506 L
207.468 584.019 L
223.835 583.465 L
240.203 582.855 L
256.57 582.195 L
272.937 581.491 L
289.304 580.746 L
305.671 579.963 L
322.038 579.146 L
338.405 578.296 L
354.772 577.415 L
371.139 576.505 L
387.506 575.566 L
403.873 574.6 L
420.241 573.608 L
436.608 573.155 L
452.975 572.572 L
469.342 571.927 L
485.709 571.238 L
502.076 570.516 L
518.443 569.763 L
534.81 568.987 L
551.177 568.456 L
567.544 568.456 L
583.911 568.456 L
600.279 568.455 L
616.646 568.452 L
633.013 568.442 L
649.38 568.415 L
665.747 568.354 L
682.114 568.234 L
698.481 568.014 L
714.848 567.636 L
731.215 567.016 L
747.582 566.047 L
763.949 564.584 L
780.316 562.442 L
796.684 559.388 L
813.051 555.137 L
829.418 549.309 L
845.785 548.425 L
862.152 548.017 L
878.519 547.727 L
894.886 547.495 L
911.253 547.301 L
927.62 547.131 L
943.987 546.979 L
960.354 546.841 L
976.721 546.715 L
993.089 546.597 L
S
GR
GS
[0.75 0 0 0.75 0 0.25] CT
0.494 0.184 0.557 RC
[8 8] 0 setdash
2 LJ
2 LW
N
142 622.002 M
144.728 622.002 L
147.456 622.002 L
150.184 622.002 L
152.911 622.002 L
155.639 622.002 L
158.367 621.991 L
161.095 621.976 L
163.823 621.944 L
166.551 621.902 L
169.278 621.844 L
172.006 621.781 L
174.734 621.707 L
177.462 621.617 L
180.19 621.522 L
182.918 621.412 L
185.646 621.29 L
188.373 621.164 L
191.101 621.021 L
193.829 620.869 L
196.557 620.71 L
199.285 620.536 L
202.013 620.357 L
204.741 620.162 L
207.468 619.962 L
210.196 619.746 L
212.924 619.524 L
215.652 619.293 L
218.38 619.05 L
221.108 618.797 L
223.835 618.534 L
226.563 618.259 L
229.291 617.975 L
232.019 617.68 L
234.747 617.379 L
237.475 617.063 L
240.203 616.741 L
242.93 616.404 L
245.658 616.061 L
248.386 615.708 L
251.114 615.344 L
253.842 614.975 L
256.57 614.591 L
259.297 614.201 L
262.025 613.795 L
264.753 613.383 L
267.481 612.962 L
270.209 612.53 L
272.937 612.092 L
275.665 611.639 L
278.392 611.18 L
281.12 610.706 L
283.848 610.226 L
286.576 609.736 L
289.304 609.24 L
292.032 608.729 L
294.759 608.212 L
297.487 607.685 L
300.215 607.148 L
302.943 606.599 L
305.671 606.041 L
308.399 605.477 L
311.127 604.897 L
313.854 604.312 L
316.582 603.716 L
319.31 603.115 L
322.038 602.498 L
324.766 601.876 L
327.494 601.244 L
330.222 600.601 L
332.949 599.947 L
335.677 599.288 L
338.405 598.614 L
341.133 597.934 L
343.861 597.248 L
346.589 596.547 L
349.316 595.841 L
352.044 595.119 L
354.772 594.391 L
357.5 593.659 L
360.228 592.91 L
362.956 592.156 L
365.684 591.392 L
368.411 590.617 L
371.139 589.832 L
373.867 589.041 L
376.595 588.235 L
379.323 587.428 L
382.051 586.606 L
384.778 585.773 L
387.506 584.935 L
390.234 584.086 L
392.962 583.227 L
395.69 582.362 L
398.418 581.482 L
401.146 580.597 L
403.873 579.706 L
406.601 578.799 L
409.329 577.887 L
412.057 576.965 L
414.785 576.032 L
417.513 575.088 L
420.241 574.139 L
422.968 573.222 L
425.696 572.305 L
428.424 571.388 L
431.152 570.471 L
433.88 569.553 L
436.608 568.641 L
439.335 567.724 L
442.063 566.807 L
444.791 565.89 L
447.519 564.973 L
450.247 564.055 L
452.975 563.138 L
455.703 562.221 L
458.43 561.304 L
461.158 560.387 L
463.886 559.47 L
466.614 558.552 L
469.342 557.64 L
472.07 556.723 L
474.797 555.806 L
477.525 554.889 L
480.253 553.972 L
482.981 553.054 L
485.709 552.137 L
488.437 551.22 L
491.165 550.303 L
493.892 549.386 L
496.62 548.469 L
499.348 547.557 L
502.076 546.639 L
504.804 545.722 L
507.532 544.805 L
510.259 543.888 L
512.987 542.971 L
515.715 542.053 L
518.443 541.136 L
521.171 540.219 L
523.899 539.302 L
526.627 538.385 L
529.354 537.467 L
532.082 536.556 L
534.81 535.638 L
537.538 534.721 L
540.266 533.804 L
542.994 532.887 L
545.721 531.97 L
548.449 531.564 L
551.177 530.815 L
553.905 529.845 L
556.633 528.701 L
559.361 527.405 L
562.089 525.966 L
564.816 524.405 L
567.544 522.729 L
570.272 520.942 L
573 519.055 L
575.728 517.068 L
578.456 514.991 L
581.184 512.825 L
583.911 510.574 L
586.639 508.239 L
589.367 505.83 L
592.095 503.342 L
594.823 500.78 L
597.551 498.144 L
600.279 495.435 L
603.006 492.662 L
605.734 489.821 L
608.462 486.917 L
611.19 483.944 L
613.918 480.913 L
616.646 477.818 L
619.373 474.666 L
622.101 471.451 L
624.829 468.183 L
627.557 464.857 L
630.285 461.472 L
633.013 458.03 L
635.74 454.541 L
638.468 450.993 L
641.196 447.393 L
643.924 443.745 L
646.652 440.045 L
649.38 436.292 L
652.108 432.491 L
654.835 428.638 L
657.563 424.737 L
660.291 420.794 L
663.019 416.799 L
665.747 412.756 L
668.475 408.671 L
671.203 404.538 L
673.93 400.358 L
676.658 396.136 L
679.386 391.871 L
682.114 387.56 L
684.842 383.205 L
687.57 378.809 L
690.297 374.371 L
693.025 369.89 L
695.753 365.368 L
698.481 360.803 L
701.209 356.196 L
703.937 351.552 L
706.665 346.866 L
709.392 342.137 L
712.12 337.372 L
714.848 332.57 L
717.576 327.726 L
720.304 322.845 L
723.032 317.922 L
725.76 312.961 L
728.487 307.969 L
731.215 302.936 L
733.943 297.865 L
736.671 292.757 L
739.399 287.612 L
742.127 282.43 L
744.854 277.212 L
747.582 271.962 L
750.31 266.675 L
753.038 261.351 L
755.766 255.99 L
758.494 250.598 L
761.221 245.168 L
763.949 239.707 L
766.677 234.209 L
769.405 228.68 L
772.133 223.114 L
774.861 217.516 L
777.589 211.881 L
780.316 206.219 L
783.044 200.521 L
785.772 194.786 L
788.5 189.025 L
791.228 183.226 L
793.956 177.402 L
796.684 171.54 L
799.411 165.647 L
802.139 159.722 L
804.867 153.765 L
807.595 147.777 L
810.323 141.763 L
813.051 135.712 L
815.779 129.629 L
818.506 123.519 L
821.234 117.378 L
823.962 111.206 L
826.69 105.001 L
829.418 102.345 L
832.146 101.243 L
834.873 100.4 L
837.601 99.688 L
840.329 99.061 L
843.057 98.497 L
845.785 97.975 L
848.513 97.49 L
851.24 97.031 L
853.968 96.599 L
856.696 96.193 L
859.424 95.798 L
862.152 95.424 L
864.88 95.06 L
867.608 94.712 L
870.335 94.375 L
873.063 94.048 L
875.791 93.732 L
878.519 93.421 L
881.247 93.12 L
883.975 92.83 L
886.703 92.54 L
889.43 92.261 L
892.158 91.987 L
894.886 91.718 L
897.614 91.454 L
900.342 91.196 L
903.07 90.943 L
905.797 90.695 L
908.525 90.453 L
911.253 90.21 L
913.981 89.973 L
916.709 89.741 L
919.437 89.509 L
922.165 89.288 L
924.892 89.061 L
927.62 88.845 L
930.348 88.624 L
933.076 88.413 L
935.804 88.202 L
938.532 87.991 L
941.26 87.786 L
943.987 87.58 L
946.715 87.38 L
949.443 87.18 L
952.171 86.984 L
954.899 86.789 L
957.627 86.6 L
960.354 86.405 L
963.082 86.22 L
965.81 86.03 L
968.538 85.846 L
971.266 85.661 L
973.994 85.482 L
976.721 85.303 L
979.449 85.124 L
982.177 84.945 L
984.905 84.771 L
987.633 84.597 L
990.361 84.423 L
993.089 84.254 L
995.816 84.085 L
998.544 83.917 L
1001.272 83.917 L
S
GR
GS
[0.75 0 0 0.75 0 0.25] CT
1 GC
N
193 266 M
193 96 L
583 96 L
583 266 L
cp
f
GR
GS
[0.75 0 0 0.75 172.5 89.17478] CT
/Helvetica 32 F
GS
[1 0 0 1 0 0] CT
0 12.5 moveto 
1 -1 scale
(minimum radius, mm) t 
GR
GR
GS
[0.75 0 0 0.75 0 0.25] CT
0 0.498 0 RC
1 LJ
2 LW
N
197 118.566 M
227 118.566 L
S
GR
GS
[0.75 0 0 0.75 0 0.25] CT
0 0.498 0 RC
10.0 ML
2 LW
N
209.9 121.1 M
209.9 115.9 L
215.1 115.9 L
215.1 121.1 L
cp
S
GR
GS
[0.75 0 0 0.75 172.5 120.3916] CT
/Helvetica 32 F
GS
[1 0 0 1 0 0] CT
0 12.5 moveto 
1 -1 scale
(energy, MeV) t 
GR
GR
GS
[0.75 0 0 0.75 0 0.25] CT
1 0 0 RC
1 LJ
2 LW
N
197 160.189 M
227 160.189 L
S
GR
GS
[0.75 0 0 0.75 0 0.25] CT
1 0 0 RC
1 LJ
2 LW
N
209 164 M
216 157 L
S
GR
GS
[0.75 0 0 0.75 0 0.25] CT
1 0 0 RC
1 LJ
2 LW
N
209 157 M
216 164 L
S
GR
GS
[0.75 0 0 0.75 172.5 151.6084] CT
/Helvetica 32 F
GS
[1 0 0 1 0 0] CT
0 12.5 moveto 
1 -1 scale
(modulation) t 
GR
GR
GS
[0.75 0 0 0.75 0 0.25] CT
0 0.447 0.741 RC
1 LJ
0.667 LW
N
197 201.811 M
227 201.811 L
S
GR
GS
[0.75 0 0 0.75 172.5 182.82522] CT
/Helvetica 32 F
GS
[1 0 0 1 0 0] CT
0 12.5 moveto 
1 -1 scale
(synchronous phase, deg) t 
GR
GR
GS
[0.75 0 0 0.75 0 0.25] CT
0.494 0.184 0.557 RC
[8 8] 0 setdash
2 LJ
2 LW
N
197 243.434 M
227 243.434 L
S
GR
GS
[0.75 0 0 0.75 0 0.25] CT
0.149 GC
10.0 ML
0.667 LW
N
193 266 M
193 96 L
583 96 L
583 266 L
cp
S
GR
GS
[0.75 0 0 0.75 113.75 14.37475] CT
/Helvetica 32 F
GS
[1 0 0 1 0 0] CT
0 33 moveto 
1 -1 scale
(mm, MeV, m) t 
GR
GR
GS
[0.75 0 0 0.75 703.24997 15.12476] CT
/Helvetica 32 F
GS
[1 0 0 1 0 0] CT
0 33 moveto 
1 -1 scale
(deg) t 
GR
GR
%%Trailer
%%Pages: 1
%%EOF
