\relax 
\bibstyle{IEEEtran}
\citation{Martel}
\citation{Angert}
\citation{Angert1}
\citation{Zhao}
\citation{Andreev}
\citation{rfqSvisunov}
\citation{Leitner}
\citation{Ratzinger1}
\citation{Ratzinger2}
\citation{Angert}
\citation{Angert1}
\citation{GikalDisser}
\citation{SKoz}
\citation{Chung1}
\citation{rfqSvisunov}
\@writefile{toc}{\contentsline {section}{\numberline {I}INTRODUCTION}{1}\protected@file@percent }
\citation{altsybeyev2}
\citation{altsybeyev2}
\citation{Chung1}
\citation{OvsyannikovPopular}
\citation{BDORFQ}
\citation{Kennedy}
\citation{Kennedy}
\citation{swarm}
\@writefile{toc}{\contentsline {section}{\numberline {II}RFQ OPTIMIZATION AND BEAM DYNAMICS SIMULATIONS}{2}\protected@file@percent }
\@writefile{toc}{\contentsline {subsection}{\numberline {II-A}MAIN IDEA AND EQUATIONS}{2}\protected@file@percent }
\@writefile{toc}{\contentsline {subsection}{\numberline {II-B}PARTICLE SWARM OPTIMIZATION}{2}\protected@file@percent }
\citation{BDORFQ}
\citation{Chung2}
\citation{OvsyannikovPopular}
\@writefile{lof}{\contentsline {figure}{\numberline {1}{\ignorespaces Particle swarm optimization flow chart}}{3}\protected@file@percent }
\newlabel{ParticleSwarm}{{1}{3}}
\@writefile{toc}{\contentsline {subsection}{\numberline {II-C}GRADIENT DESCENT OPTIMIZATION}{3}\protected@file@percent }
\@writefile{toc}{\contentsline {subsection}{\numberline {II-D}RFQ OPTIMIZATION ALGORITHM}{3}\protected@file@percent }
\@writefile{lof}{\contentsline {figure}{\numberline {2}{\ignorespaces Flow chart of RFQ optimization algorithm}}{3}\protected@file@percent }
\newlabel{OptAlg}{{2}{3}}
\@writefile{toc}{\contentsline {subsection}{\numberline {II-E}PROCEDURE FOR IMPROVING CAPTURE RATIO}{3}\protected@file@percent }
\citation{Chung2}
\citation{rfqSvisunov}
\citation{BondarevDurkin2}
\citation{Angert}
\citation{Angert1}
\citation{GikalDisser}
\@writefile{toc}{\contentsline {subsection}{\numberline {II-F}EMITTANCE GROWTH MINIMIZATION PROCEDURE}{4}\protected@file@percent }
\@writefile{toc}{\contentsline {subsection}{\numberline {II-G}PARTICLE IN CELL SIMULATIONS}{4}\protected@file@percent }
\@writefile{toc}{\contentsline {section}{\numberline {III}EXAMPLES OF PREACCELERATION OF HARD MULTICHARGED IONS Yb, Pb, Bi}{4}\protected@file@percent }
\@writefile{lof}{\contentsline {figure}{\numberline {3}{\ignorespaces Dependences of some output characteristics of the accelerated ${\rm  Yb}_{176}^{22+}$ ion beam on the input emittance}}{4}\protected@file@percent }
\newlabel{CapEm}{{3}{4}}
\@writefile{toc}{\contentsline {section}{\numberline {IV}EXAMPLES OF PREACCELERATION OF HARD MULTICHARGED IONS Kr, Ar}{4}\protected@file@percent }
\bibdata{bibfile}
\bibcite{Martel}{1}
\@writefile{lot}{\contentsline {table}{\numberline {I}{\ignorespaces Main RFQ parameters for multicharged ions Yb, Pb and Bi}}{5}\protected@file@percent }
\newlabel{t2}{{I}{5}}
\@writefile{lot}{\contentsline {table}{\numberline {II}{\ignorespaces Output parameters of Yb, Pb and Bi accelerated beams}}{5}\protected@file@percent }
\newlabel{t3}{{II}{5}}
\@writefile{lof}{\contentsline {figure}{\numberline {4}{\ignorespaces Trajectories of ${\rm  Ar}_{40}^{8+}$ ion before optimization calculated using DAISI. Capture ratio in standing-wave model is 0.52}}{5}\protected@file@percent }
\newlabel{r1.jpg}{{4}{5}}
\@writefile{lof}{\contentsline {figure}{\numberline {5}{\ignorespaces Trajectories of ${\rm  Ar}_{40}^{8+}$ after gradient descend optimization calculated using DAISI. Capture ratio in standing-wave model is 0.78}}{5}\protected@file@percent }
\newlabel{r2.jpg}{{5}{5}}
\@writefile{lot}{\contentsline {table}{\numberline {III}{\ignorespaces Main RFQ parameters for multicharged ions Kr, Ar}}{5}\protected@file@percent }
\newlabel{t4}{{III}{5}}
\@writefile{lot}{\contentsline {table}{\numberline {IV}{\ignorespaces Comparison of optimization results}}{5}\protected@file@percent }
\newlabel{t5}{{IV}{5}}
\@writefile{toc}{\contentsline {section}{\numberline {V}CONCLUSION}{5}\protected@file@percent }
\bibcite{Angert}{2}
\bibcite{Angert1}{3}
\bibcite{Zhao}{4}
\bibcite{Andreev}{5}
\bibcite{rfqSvisunov}{6}
\bibcite{Leitner}{7}
\bibcite{Ratzinger1}{8}
\bibcite{Ratzinger2}{9}
\bibcite{GikalDisser}{10}
\bibcite{SKoz}{11}
\bibcite{Chung1}{12}
\bibcite{altsybeyev2}{13}
\bibcite{OvsyannikovPopular}{14}
\bibcite{BDORFQ}{15}
\bibcite{Kennedy}{16}
\bibcite{swarm}{17}
\bibcite{Chung2}{18}
\bibcite{BondarevDurkin2}{19}
\@writefile{lof}{\contentsline {figure}{\numberline {6}{\ignorespaces Trajectories of ${\rm  Ar}_{40}^{8+}$ after proposed optimization approach (particle swarm + gradient descend) calculated using DAISI. Capture ratio in standing-wave model is 1.0}}{6}\protected@file@percent }
\newlabel{r3.jpg}{{6}{6}}
\@writefile{toc}{\contentsline {section}{References}{6}\protected@file@percent }
