\relax 
\catcode `"\active 
\babel@aux{russian}{}
\@writefile{toc}{\contentsline {section}{\numberline {1}\IeC {\CYRV }\IeC {\cyrv }\IeC {\cyre }\IeC {\cyrd }\IeC {\cyre }\IeC {\cyrn }\IeC {\cyri }\IeC {\cyre }}{1}\protected@file@percent }
\@writefile{toc}{\contentsline {subsection}{\numberline {1.1}\IeC {\CYRF }\IeC {\cyru }\IeC {\cyrn }\IeC {\cyrd }\IeC {\cyra }\IeC {\cyrm }\IeC {\cyre }\IeC {\cyrn }\IeC {\cyrt }\IeC {\cyra }\IeC {\cyrl }\IeC {\cyrsftsn }\IeC {\cyrn }\IeC {\cyra }\IeC {\cyrya } \IeC {\cyri } \IeC {\cyrp }\IeC {\cyrr }\IeC {\cyri }\IeC {\cyrk }\IeC {\cyrl }\IeC {\cyra }\IeC {\cyrd }\IeC {\cyrn }\IeC {\cyra }\IeC {\cyrya } \IeC {\cyrn }\IeC {\cyra }\IeC {\cyru }\IeC {\cyrk }\IeC {\cyra }}{1}\protected@file@percent }
\@writefile{toc}{\contentsline {subsection}{\numberline {1.2}\IeC {\CYRP }\IeC {\cyrr }\IeC {\cyri }\IeC {\cyrk }\IeC {\cyrl }\IeC {\cyra }\IeC {\cyrd }\IeC {\cyrn }\IeC {\cyrery }\IeC {\cyre } \IeC {\cyrz }\IeC {\cyra }\IeC {\cyrd }\IeC {\cyra }\IeC {\cyrch }\IeC {\cyri }}{2}\protected@file@percent }
\@writefile{toc}{\contentsline {subsection}{\numberline {1.3}\IeC {\CYRT }\IeC {\cyro }\IeC {\cyrch }\IeC {\cyrn }\IeC {\cyro }\IeC {\cyrs }\IeC {\cyrt }\IeC {\cyrsftsn } \IeC {\cyrr }\IeC {\cyre }\IeC {\cyrsh }\IeC {\cyre }\IeC {\cyrn }\IeC {\cyri }\IeC {\cyrya } \IeC {\cyrz }\IeC {\cyra }\IeC {\cyrd }\IeC {\cyra }\IeC {\cyrch }\IeC {\cyri }}{3}\protected@file@percent }
\@writefile{toc}{\contentsline {subsubsection}{\numberline {1.3.1}\IeC {\CYRP }\IeC {\cyro }\IeC {\cyrn }\IeC {\cyrya }\IeC {\cyrt }\IeC {\cyri }\IeC {\cyre } \IeC {\cyrb }\IeC {\cyrl }\IeC {\cyri }\IeC {\cyrz }\IeC {\cyro }\IeC {\cyrs }\IeC {\cyrt }\IeC {\cyri }}{3}\protected@file@percent }
\newlabel{thRiesz}{{1}{5}}
\@writefile{toc}{\contentsline {section}{$\S  ~2$ \IeC {\CYRM }\IeC {\cyre }\IeC {\cyrt }\IeC {\cyrr }\IeC {\cyri }\IeC {\cyrk }\IeC {\cyra } \IeC {\cyri } \IeC {\cyrp }\IeC {\cyrr }\IeC {\cyro }\IeC {\cyrs }\IeC {\cyrt }\IeC {\cyrr }\IeC {\cyra }\IeC {\cyrn }\IeC {\cyrs }\IeC {\cyrt }\IeC {\cyrv }\IeC {\cyra }}{5}\protected@file@percent }
\@writefile{toc}{\contentsline {subsubsection}{\numberline {1.3.2}\IeC {\CYRD }\IeC {\cyri }\IeC {\cyrs }\IeC {\cyrk }\IeC {\cyrr }\IeC {\cyre }\IeC {\cyrt }\IeC {\cyri }\IeC {\cyrz }\IeC {\cyra }\IeC {\cyrc }\IeC {\cyri }\IeC {\cyro }\IeC {\cyrn }\IeC {\cyrn }\IeC {\cyrery }\IeC {\cyre } \IeC {\cyrm }\IeC {\cyre }\IeC {\cyrt }\IeC {\cyro }\IeC {\cyrd }\IeC {\cyrery }}{7}\protected@file@percent }
\newlabel{main_cont_eq}{{1}{7}}
\newlabel{main_dskr_eq}{{2}{7}}
\newlabel{main_dskr_eq_vozm1}{{3}{7}}
\newlabel{residue}{{4}{8}}
\newlabel{def1}{{5}{8}}
\newlabel{def2}{{7}{8}}
\@writefile{toc}{\contentsline {subsubsection}{\numberline {1.3.3}\IeC {\CYRI }\IeC {\cyrt }\IeC {\cyre }\IeC {\cyrr }\IeC {\cyra }\IeC {\cyrc }\IeC {\cyri }\IeC {\cyro }\IeC {\cyrn }\IeC {\cyrn }\IeC {\cyrery }\IeC {\cyre } \IeC {\cyrm }\IeC {\cyre }\IeC {\cyrt }\IeC {\cyro }\IeC {\cyrd }\IeC {\cyrery }}{9}\protected@file@percent }
\@writefile{toc}{\contentsline {section}{\numberline {2}\IeC {\CYRR }\IeC {\cyre }\IeC {\cyrsh }\IeC {\cyre }\IeC {\cyrn }\IeC {\cyri }\IeC {\cyre } \IeC {\cyru }\IeC {\cyrr }\IeC {\cyra }\IeC {\cyrv }\IeC {\cyrn }\IeC {\cyre }\IeC {\cyrn }\IeC {\cyri }\IeC {\cyrishrt }}{9}\protected@file@percent }
\@writefile{toc}{\contentsline {subsection}{\numberline {2.1}\IeC {\CYRM }\IeC {\cyre }\IeC {\cyrt }\IeC {\cyro }\IeC {\cyrd } \IeC {\cyrp }\IeC {\cyrr }\IeC {\cyro }\IeC {\cyrs }\IeC {\cyrt }\IeC {\cyro }\IeC {\cyrishrt } \IeC {\cyri }\IeC {\cyrt }\IeC {\cyre }\IeC {\cyrr }\IeC {\cyra }\IeC {\cyrc }\IeC {\cyri }\IeC {\cyri }}{9}\protected@file@percent }
\newlabel{simple_iter_cond}{{11}{10}}
\@writefile{toc}{\contentsline {subsection}{\numberline {2.2}\IeC {\CYRM }\IeC {\cyre }\IeC {\cyrt }\IeC {\cyro }\IeC {\cyrd } \IeC {\cyrr }\IeC {\cyre }\IeC {\cyrl }\IeC {\cyra }\IeC {\cyrk }\IeC {\cyrs }\IeC {\cyra }\IeC {\cyrc }\IeC {\cyri }\IeC {\cyri }}{10}\protected@file@percent }
\newlabel{simple_iter_err}{{12}{11}}
\newlabel{simple_iter_err0}{{13}{11}}
\newlabel{simple_iter_err1}{{14}{11}}
\newlabel{simple_iter_err2}{{15}{11}}
\newlabel{rho_h=f(rho_h)Omega_iter}{{16}{11}}
\@writefile{toc}{\contentsline {subsection}{\numberline {2.3}\IeC {\CYRR }\IeC {\cyre }\IeC {\cyrsh }\IeC {\cyre }\IeC {\cyrn }\IeC {\cyri }\IeC {\cyre } \IeC {\cyru }\IeC {\cyrr }\IeC {\cyra }\IeC {\cyrv }\IeC {\cyrn }\IeC {\cyre }\IeC {\cyrn }\IeC {\cyri }\IeC {\cyrishrt } f(x) = 0}{12}\protected@file@percent }
\newlabel{maineq}{{17}{12}}
\@writefile{toc}{\contentsline {subsubsection}{\numberline {2.3.1}\IeC {\CYRM }\IeC {\cyre }\IeC {\cyrt }\IeC {\cyro }\IeC {\cyrd } \IeC {\CYRN }\IeC {\cyrsftsn }\IeC {\cyryu }\IeC {\cyrt }\IeC {\cyro }\IeC {\cyrn }\IeC {\cyra }}{13}\protected@file@percent }
\@writefile{toc}{\contentsline {subsubsection}{\numberline {2.3.2}\IeC {\CYRCH }\IeC {\cyri }\IeC {\cyrs }\IeC {\cyrl }\IeC {\cyre }\IeC {\cyrn }\IeC {\cyrn }\IeC {\cyro }\IeC {\cyre } \IeC {\cyrd }\IeC {\cyri }\IeC {\cyrf }\IeC {\cyrf }\IeC {\cyre }\IeC {\cyrr }\IeC {\cyre }\IeC {\cyrn }\IeC {\cyrc }\IeC {\cyri }\IeC {\cyrr }\IeC {\cyro }\IeC {\cyrv }\IeC {\cyra }\IeC {\cyrn }\IeC {\cyri }\IeC {\cyre }}{14}\protected@file@percent }
\newlabel{dif}{{20}{14}}
\newlabel{numdif}{{21}{14}}
\newlabel{numdif1}{{22}{14}}
\newlabel{numdif2}{{23}{15}}
\@writefile{toc}{\contentsline {subsection}{\numberline {2.4}\IeC {\CYRR }\IeC {\cyre }\IeC {\cyrsh }\IeC {\cyre }\IeC {\cyrn }\IeC {\cyri }\IeC {\cyre } \IeC {\CYRS }\IeC {\CYRL }\IeC {\CYRA }\IeC {\CYRU }}{16}\protected@file@percent }
\@writefile{toc}{\contentsline {subsection}{\numberline {2.5}\IeC {\CYRP }\IeC {\cyrr }\IeC {\cyrya }\IeC {\cyrm }\IeC {\cyrery }\IeC {\cyre } \IeC {\cyrm }\IeC {\cyre }\IeC {\cyrt }\IeC {\cyro }\IeC {\cyrd }\IeC {\cyrery } \IeC {\cyrr }\IeC {\cyre }\IeC {\cyrsh }\IeC {\cyre }\IeC {\cyrn }\IeC {\cyri }\IeC {\cyrya } \IeC {\CYRS }\IeC {\CYRL }\IeC {\CYRA }\IeC {\CYRU }}{16}\protected@file@percent }
\newlabel{lu1}{{28}{17}}
\newlabel{lu2}{{29}{18}}
\@writefile{toc}{\contentsline {subsection}{\numberline {2.6}\IeC {\CYRI }\IeC {\cyrt }\IeC {\cyre }\IeC {\cyrr }\IeC {\cyra }\IeC {\cyrc }\IeC {\cyri }\IeC {\cyro }\IeC {\cyrn }\IeC {\cyrn }\IeC {\cyrery }\IeC {\cyre } \IeC {\cyrm }\IeC {\cyre }\IeC {\cyrt }\IeC {\cyro }\IeC {\cyrd }\IeC {\cyrery } \IeC {\cyrr }\IeC {\cyre }\IeC {\cyrsh }\IeC {\cyre }\IeC {\cyrn }\IeC {\cyri }\IeC {\cyrya } \IeC {\CYRS }\IeC {\CYRL }\IeC {\CYRA }\IeC {\CYRU }}{20}\protected@file@percent }
\@writefile{toc}{\contentsline {subsubsection}{\numberline {2.6.1}\IeC {\cyrm }\IeC {\cyre }\IeC {\cyrt }\IeC {\cyro }\IeC {\cyrd }\IeC {\cyrery } \IeC {\cyro }\IeC {\cyrs }\IeC {\cyrn }\IeC {\cyro }\IeC {\cyrv }\IeC {\cyra }\IeC {\cyrn }\IeC {\cyrn }\IeC {\cyrery }\IeC {\cyre } \IeC {\cyrn }\IeC {\cyra } \IeC {\cyrr }\IeC {\cyra }\IeC {\cyrs }\IeC {\cyrshch }\IeC {\cyre }\IeC {\cyrp }\IeC {\cyrl }\IeC {\cyre }\IeC {\cyrn }\IeC {\cyri }\IeC {\cyri } \IeC {\cyrm }\IeC {\cyra }\IeC {\cyrt }\IeC {\cyrr }\IeC {\cyri }\IeC {\cyrc }\IeC {\cyrery }}{20}\protected@file@percent }
\newlabel{jacobi1}{{38}{20}}
\newlabel{jacobi2}{{39}{20}}
\newlabel{jacobi3}{{40}{20}}
\@writefile{toc}{\contentsline {subsection}{\numberline {2.7}\IeC {\CYRO }\IeC {\cyrb }\IeC {\cyru }\IeC {\cyrs }\IeC {\cyrl }\IeC {\cyro }\IeC {\cyrv }\IeC {\cyrl }\IeC {\cyre }\IeC {\cyrn }\IeC {\cyrn }\IeC {\cyro }\IeC {\cyrs }\IeC {\cyrt }\IeC {\cyrsftsn } \IeC {\cyrm }\IeC {\cyra }\IeC {\cyrt }\IeC {\cyrr }\IeC {\cyri }\IeC {\cyrc }\IeC {\cyrery }}{22}\protected@file@percent }
\@writefile{toc}{\contentsline {subsubsection}{\numberline {2.7.1}\IeC {\CYRP }\IeC {\cyro }\IeC {\cyrg }\IeC {\cyrr }\IeC {\cyre }\IeC {\cyrsh }\IeC {\cyrn }\IeC {\cyro }\IeC {\cyrs }\IeC {\cyrt }\IeC {\cyrsftsn } \IeC {\cyrp }\IeC {\cyrr }\IeC {\cyrya }\IeC {\cyrm }\IeC {\cyro }\IeC {\cyrishrt } \IeC {\cyrz }\IeC {\cyra }\IeC {\cyrm }\IeC {\cyre }\IeC {\cyrn }\IeC {\cyrery } \IeC {\cyru }\IeC {\cyrr }\IeC {\cyra }\IeC {\cyrv }\IeC {\cyrn }\IeC {\cyre }\IeC {\cyrn }\IeC {\cyri }\IeC {\cyrya }.}{23}\protected@file@percent }
\@writefile{toc}{\contentsline {subsubsection}{\numberline {2.7.2}\IeC {\CYRP }\IeC {\cyrr }\IeC {\cyre }\IeC {\cyrd }\IeC {\cyro }\IeC {\cyrb }\IeC {\cyru }\IeC {\cyrs }\IeC {\cyrl }\IeC {\cyra }\IeC {\cyrv }\IeC {\cyrl }\IeC {\cyri }\IeC {\cyrv }\IeC {\cyra }\IeC {\cyrn }\IeC {\cyri }\IeC {\cyre } \IeC {\cyri } \IeC {\cyri }\IeC {\cyrt }\IeC {\cyre }\IeC {\cyrr }\IeC {\cyra }\IeC {\cyrc }\IeC {\cyri }\IeC {\cyro }\IeC {\cyrn }\IeC {\cyrn }\IeC {\cyrery }\IeC {\cyre } \IeC {\cyrm }\IeC {\cyre }\IeC {\cyrt }\IeC {\cyro }\IeC {\cyrd }\IeC {\cyrery }, \IeC {\cyro }\IeC {\cyrs }\IeC {\cyrn }\IeC {\cyro }\IeC {\cyrv }\IeC {\cyra }\IeC {\cyrn }\IeC {\cyrn }\IeC {\cyrery }\IeC {\cyre } \IeC {\cyrn }\IeC {\cyra } \IeC {\cyrr }\IeC {\cyra }\IeC {\cyrs }\IeC {\cyrshch }\IeC {\cyre }\IeC {\cyrp }\IeC {\cyrl }\IeC {\cyre }\IeC {\cyrn }\IeC {\cyri }\IeC {\cyri }.}{24}\protected@file@percent }
\@writefile{toc}{\contentsline {subsubsection}{\numberline {2.7.3}\IeC {\CYRP }\IeC {\cyrr }\IeC {\cyre }\IeC {\cyrd }\IeC {\cyro }\IeC {\cyrb }\IeC {\cyru }\IeC {\cyrs }\IeC {\cyrl }\IeC {\cyra }\IeC {\cyrv }\IeC {\cyrl }\IeC {\cyri }\IeC {\cyrv }\IeC {\cyra }\IeC {\cyrn }\IeC {\cyri }\IeC {\cyre } \IeC {\cyrv } \IeC {\cyri }\IeC {\cyrt }\IeC {\cyre }\IeC {\cyrr }\IeC {\cyra }\IeC {\cyrc }\IeC {\cyri }\IeC {\cyro }\IeC {\cyrn }\IeC {\cyrn }\IeC {\cyrery }\IeC {\cyrh } \IeC {\cyrm }\IeC {\cyre }\IeC {\cyrt }\IeC {\cyro }\IeC {\cyrd }\IeC {\cyra }\IeC {\cyrh }.}{25}\protected@file@percent }
\@writefile{toc}{\contentsline {subsubsection}{\numberline {2.7.4}ILU \IeC {\CYRP }\IeC {\cyrr }\IeC {\cyre }\IeC {\cyrd }\IeC {\cyro }\IeC {\cyrb }\IeC {\cyru }\IeC {\cyrs }\IeC {\cyrl }\IeC {\cyra }\IeC {\cyrv }\IeC {\cyrl }\IeC {\cyri }\IeC {\cyrv }\IeC {\cyra }\IeC {\cyrt }\IeC {\cyre }\IeC {\cyrl }\IeC {\cyrsftsn }}{25}\protected@file@percent }
\@writefile{toc}{\contentsline {subsection}{\numberline {2.8}\IeC {\CYRP }\IeC {\cyrr }\IeC {\cyro }\IeC {\cyre }\IeC {\cyrk }\IeC {\cyrc }\IeC {\cyri }\IeC {\cyro }\IeC {\cyrn }\IeC {\cyrn }\IeC {\cyrery }\IeC {\cyre } \IeC {\cyrm }\IeC {\cyre }\IeC {\cyrt }\IeC {\cyro }\IeC {\cyrd }\IeC {\cyrery } \IeC {\cyrr }\IeC {\cyre }\IeC {\cyrsh }\IeC {\cyre }\IeC {\cyrn }\IeC {\cyri }\IeC {\cyrya } \IeC {\CYRS }\IeC {\CYRL }\IeC {\CYRA }\IeC {\CYRU }}{26}\protected@file@percent }
\@writefile{toc}{\contentsline {section}{\numberline {3}\IeC {\CYRB }\IeC {\cyri }\IeC {\cyrb }\IeC {\cyrl }\IeC {\cyri }\IeC {\cyro }\IeC {\cyrt }\IeC {\cyre }\IeC {\cyrk }\IeC {\cyri } \IeC {\cyrl }\IeC {\cyri }\IeC {\cyrn }\IeC {\cyre }\IeC {\cyrishrt }\IeC {\cyrn }\IeC {\cyro }\IeC {\cyrishrt } \IeC {\cyra }\IeC {\cyrl }\IeC {\cyrg }\IeC {\cyre }\IeC {\cyrb }\IeC {\cyrr }\IeC {\cyrery }}{28}\protected@file@percent }
\@writefile{toc}{\contentsline {subsection}{\numberline {3.1}BLAS}{28}\protected@file@percent }
\@writefile{toc}{\contentsline {subsection}{\numberline {3.2}\IeC {\CYRS }\IeC {\cyrr }\IeC {\cyra }\IeC {\cyrv }\IeC {\cyrn }\IeC {\cyre }\IeC {\cyrn }\IeC {\cyri }\IeC {\cyre } \IeC {\cyrb }\IeC {\cyri }\IeC {\cyrb }\IeC {\cyrl }\IeC {\cyri }\IeC {\cyro }\IeC {\cyrt }\IeC {\cyre }\IeC {\cyrk } \IeC {\cyrl }\IeC {\cyri }\IeC {\cyrn }\IeC {\cyre }\IeC {\cyrishrt }\IeC {\cyrn }\IeC {\cyro }\IeC {\cyrishrt } \IeC {\cyra }\IeC {\cyrl }\IeC {\cyrg }\IeC {\cyre }\IeC {\cyrb }\IeC {\cyrr }\IeC {\cyrery }}{28}\protected@file@percent }
\@writefile{toc}{\contentsline {section}{\numberline {4}\IeC {\CYRM }\IeC {\cyre }\IeC {\cyrt }\IeC {\cyro }\IeC {\cyrd }\IeC {\cyrery } \IeC {\cyro }\IeC {\cyrp }\IeC {\cyrt }\IeC {\cyri }\IeC {\cyrm }\IeC {\cyri }\IeC {\cyrz }\IeC {\cyra }\IeC {\cyrc }\IeC {\cyri }\IeC {\cyri }}{29}\protected@file@percent }
\@writefile{toc}{\contentsline {subsection}{\numberline {4.1}\IeC {\CYRP }\IeC {\cyro }\IeC {\cyrs }\IeC {\cyrt }\IeC {\cyra }\IeC {\cyrn }\IeC {\cyro }\IeC {\cyrv }\IeC {\cyrk }\IeC {\cyra } \IeC {\cyrz }\IeC {\cyra }\IeC {\cyrd }\IeC {\cyra }\IeC {\cyrch }\IeC {\cyri } \IeC {\cyri } \IeC {\cyrk }\IeC {\cyrl }\IeC {\cyra }\IeC {\cyrs }\IeC {\cyrs }\IeC {\cyri }\IeC {\cyrf }\IeC {\cyri }\IeC {\cyrk }\IeC {\cyra }\IeC {\cyrc }\IeC {\cyri }\IeC {\cyrya } }{29}\protected@file@percent }
\@writefile{toc}{\contentsline {subsection}{\numberline {4.2}\IeC {\CYRO } \IeC {\cyrb }\IeC {\cyre }\IeC {\cyrs }\IeC {\cyrk }\IeC {\cyro }\IeC {\cyrn }\IeC {\cyre }\IeC {\cyrch }\IeC {\cyrn }\IeC {\cyro }\IeC {\cyrm }\IeC {\cyre }\IeC {\cyrr }\IeC {\cyrn }\IeC {\cyro }\IeC {\cyrishrt } \IeC {\cyro }\IeC {\cyrp }\IeC {\cyrt }\IeC {\cyri }\IeC {\cyrm }\IeC {\cyri }\IeC {\cyrz }\IeC {\cyra }\IeC {\cyrc }\IeC {\cyri }\IeC {\cyri } }{29}\protected@file@percent }
\@writefile{toc}{\contentsline {subsection}{\numberline {4.3}\IeC {\CYRO } \IeC {\cyrm }\IeC {\cyrn }\IeC {\cyro }\IeC {\cyrg }\IeC {\cyro }\IeC {\cyrk }\IeC {\cyrr }\IeC {\cyri }\IeC {\cyrt }\IeC {\cyre }\IeC {\cyrr }\IeC {\cyri }\IeC {\cyra }\IeC {\cyrl }\IeC {\cyrsftsn }\IeC {\cyrn }\IeC {\cyro }\IeC {\cyrishrt } \IeC {\cyro }\IeC {\cyrp }\IeC {\cyrt }\IeC {\cyri }\IeC {\cyrm }\IeC {\cyri }\IeC {\cyrz }\IeC {\cyra }\IeC {\cyrc }\IeC {\cyri }\IeC {\cyri } }{30}\protected@file@percent }
\@writefile{toc}{\contentsline {subsubsection}{\numberline {4.3.1}\IeC {\CYRO }\IeC {\cyrp }\IeC {\cyrt }\IeC {\cyri }\IeC {\cyrm }\IeC {\cyra }\IeC {\cyrl }\IeC {\cyrsftsn }\IeC {\cyrn }\IeC {\cyro }\IeC {\cyrs }\IeC {\cyrt }\IeC {\cyrsftsn } \IeC {\cyrp }\IeC {\cyro } \IeC {\CYRP }\IeC {\cyra }\IeC {\cyrr }\IeC {\cyre }\IeC {\cyrt }\IeC {\cyro }}{30}\protected@file@percent }
\@writefile{toc}{\contentsline {subsubsection}{\numberline {4.3.2}\IeC {\CYRS }\IeC {\cyrk }\IeC {\cyra }\IeC {\cyrl }\IeC {\cyrya }\IeC {\cyrr }\IeC {\cyri }\IeC {\cyrz }\IeC {\cyra }\IeC {\cyrc }\IeC {\cyri }\IeC {\cyri } --- \IeC {\cyrv }\IeC {\cyrz }\IeC {\cyrv }\IeC {\cyre }\IeC {\cyrsh }\IeC {\cyre }\IeC {\cyrn }\IeC {\cyrn }\IeC {\cyra }\IeC {\cyrya } \IeC {\cyrs }\IeC {\cyru }\IeC {\cyrm }\IeC {\cyrm }\IeC {\cyra }}{31}\protected@file@percent }
\@writefile{toc}{\contentsline {subsubsection}{\numberline {4.3.3}\IeC {\CYRS }\IeC {\cyrk }\IeC {\cyra }\IeC {\cyrl }\IeC {\cyrya }\IeC {\cyrr }\IeC {\cyri }\IeC {\cyrz }\IeC {\cyra }\IeC {\cyrc }\IeC {\cyri }\IeC {\cyri } --- \IeC {\cyrf }\IeC {\cyru }\IeC {\cyrn }\IeC {\cyrk }\IeC {\cyrc }\IeC {\cyri }\IeC {\cyrya } \IeC {\CYRCH }\IeC {\cyre }\IeC {\cyrb }\IeC {\cyrery }\IeC {\cyrsh }\IeC {\cyryo }\IeC {\cyrv }\IeC {\cyra }}{31}\protected@file@percent }
\@writefile{toc}{\contentsline {subsection}{\numberline {4.4}\IeC {\CYRM }\IeC {\cyre }\IeC {\cyrt }\IeC {\cyro }\IeC {\cyrd }\IeC {\cyrery } \IeC {\cyro }\IeC {\cyrp }\IeC {\cyrt }\IeC {\cyri }\IeC {\cyrm }\IeC {\cyri }\IeC {\cyrz }\IeC {\cyra }\IeC {\cyrc }\IeC {\cyri }\IeC {\cyri } }{31}\protected@file@percent }
\@writefile{toc}{\contentsline {subsubsection}{\numberline {4.4.1} \IeC {\CYRD }\IeC {\cyre }\IeC {\cyrt }\IeC {\cyre }\IeC {\cyrr }\IeC {\cyrm }\IeC {\cyri }\IeC {\cyrn }\IeC {\cyri }\IeC {\cyrr }\IeC {\cyro }\IeC {\cyrv }\IeC {\cyra }\IeC {\cyrn }\IeC {\cyrn }\IeC {\cyrery }\IeC {\cyre } \IeC {\cyrm }\IeC {\cyre }\IeC {\cyrt }\IeC {\cyro }\IeC {\cyrd }\IeC {\cyrery }}{32}\protected@file@percent }
\newlabel{hb1}{{88}{33}}
\@writefile{toc}{\contentsline {subsubsection}{\numberline {4.4.2} \IeC {\CYRS }\IeC {\cyrt }\IeC {\cyro }\IeC {\cyrh }\IeC {\cyra }\IeC {\cyrs }\IeC {\cyrt }\IeC {\cyri }\IeC {\cyrch }\IeC {\cyre }\IeC {\cyrs }\IeC {\cyrk }\IeC {\cyri }\IeC {\cyre } \IeC {\cyrm }\IeC {\cyre }\IeC {\cyrt }\IeC {\cyro }\IeC {\cyrd }\IeC {\cyrery }}{33}\protected@file@percent }
\@writefile{lof}{\contentsline {figure}{\numberline {4.4.1}{\ignorespaces \IeC {\CYRA }\IeC {\cyrl }\IeC {\cyrg }\IeC {\cyro }\IeC {\cyrr }\IeC {\cyri }\IeC {\cyrt }\IeC {\cyrm } \IeC {\cyrm }\IeC {\cyre }\IeC {\cyrt }\IeC {\cyro }\IeC {\cyrd }\IeC {\cyra } \IeC {\cyrr }\IeC {\cyro }\IeC {\cyrya } \IeC {\cyrch }\IeC {\cyra }\IeC {\cyrs }\IeC {\cyrt }\IeC {\cyri }\IeC {\cyrc }}}{36}\protected@file@percent }
\newlabel{ParticleSwarm}{{4.4.1}{36}}
\@writefile{toc}{\contentsline {section}{\numberline {5}\IeC {\CYRM }\IeC {\cyre }\IeC {\cyrt }\IeC {\cyro }\IeC {\cyrd }\IeC {\cyrery } \IeC {\cyrr }\IeC {\cyre }\IeC {\cyrsh }\IeC {\cyre }\IeC {\cyrn }\IeC {\cyri }\IeC {\cyrya } \IeC {\CYRO }\IeC {\CYRD }\IeC {\CYRU }}{37}\protected@file@percent }
\@writefile{toc}{\contentsline {subsection}{\numberline {5.1}\IeC {\cyrya }\IeC {\cyrv }\IeC {\cyrn }\IeC {\cyrery }\IeC {\cyre } \IeC {\cyrm }\IeC {\cyre }\IeC {\cyrt }\IeC {\cyro }\IeC {\cyrd }\IeC {\cyrery } \IeC {\CYRR }\IeC {\cyru }\IeC {\cyrn }\IeC {\cyrg }\IeC {\cyre }-\IeC {\CYRK }\IeC {\cyru }\IeC {\cyrt }\IeC {\cyrt }\IeC {\cyrery }}{38}\protected@file@percent }
\newlabel{rk1}{{93}{38}}
\@writefile{toc}{\contentsline {subsubsection}{\numberline {5.1.1}\IeC {\cyru }\IeC {\cyrs }\IeC {\cyrt }\IeC {\cyro }\IeC {\cyrishrt }\IeC {\cyrch }\IeC {\cyri }\IeC {\cyrv }\IeC {\cyro }\IeC {\cyrs }\IeC {\cyrt }\IeC {\cyrsftsn } \IeC {\cyrya }\IeC {\cyrv }\IeC {\cyrn }\IeC {\cyrery }\IeC {\cyrh } \IeC {\cyrm }\IeC {\cyre }\IeC {\cyrt }\IeC {\cyro }\IeC {\cyrd }\IeC {\cyro }\IeC {\cyrv } \IeC {\CYRR }\IeC {\cyru }\IeC {\cyrn }\IeC {\cyrg }\IeC {\cyre }-\IeC {\CYRK }\IeC {\cyru }\IeC {\cyrt }\IeC {\cyrt }\IeC {\cyrery }}{39}\protected@file@percent }
\@writefile{toc}{\contentsline {subsection}{\numberline {5.2}\IeC {\cyrm }\IeC {\cyre }\IeC {\cyrt }\IeC {\cyro }\IeC {\cyrd }\IeC {\cyrery } \IeC {\CYRA }\IeC {\cyrd }\IeC {\cyra }\IeC {\cyrm }\IeC {\cyrs }\IeC {\cyra }}{42}\protected@file@percent }
\@writefile{toc}{\contentsline {subsubsection}{\numberline {5.2.1}\IeC {\cyrm }\IeC {\cyre }\IeC {\cyrt }\IeC {\cyro }\IeC {\cyrd }\IeC {\cyrery } \IeC {\CYRA }\IeC {\cyrd }\IeC {\cyra }\IeC {\cyrm }\IeC {\cyrs }\IeC {\cyra }-\IeC {\CYRB }\IeC {\cyra }\IeC {\cyrsh }\IeC {\cyrf }\IeC {\cyro }\IeC {\cyrr }\IeC {\cyrt }\IeC {\cyra }}{42}\protected@file@percent }
\@writefile{toc}{\contentsline {subsubsection}{\numberline {5.2.2}\IeC {\cyrm }\IeC {\cyre }\IeC {\cyrt }\IeC {\cyro }\IeC {\cyrd }\IeC {\cyrery } \IeC {\CYRA }\IeC {\cyrd }\IeC {\cyra }\IeC {\cyrm }\IeC {\cyrs }\IeC {\cyra }-\IeC {\CYRM }\IeC {\cyru }\IeC {\cyrl }\IeC {\cyrt }\IeC {\cyro }\IeC {\cyrn }\IeC {\cyra }}{43}\protected@file@percent }
\@writefile{toc}{\contentsline {subsubsection}{\numberline {5.2.3}\IeC {\cyru }\IeC {\cyrs }\IeC {\cyrt }\IeC {\cyro }\IeC {\cyrishrt }\IeC {\cyrch }\IeC {\cyri }\IeC {\cyrv }\IeC {\cyro }\IeC {\cyrs }\IeC {\cyrt }\IeC {\cyrsftsn } \IeC {\cyrm }\IeC {\cyre }\IeC {\cyrt }\IeC {\cyro }\IeC {\cyrd }\IeC {\cyro }\IeC {\cyrv } \IeC {\CYRA }\IeC {\cyrd }\IeC {\cyra }\IeC {\cyrm }\IeC {\cyrs }\IeC {\cyra }}{44}\protected@file@percent }
\@writefile{toc}{\contentsline {subsection}{\numberline {5.3}\IeC {\CYRM }\IeC {\cyre }\IeC {\cyrt }\IeC {\cyro }\IeC {\cyrd } \IeC {\cyrs } \IeC {\cyrp }\IeC {\cyre }\IeC {\cyrr }\IeC {\cyre }\IeC {\cyrsh }\IeC {\cyra }\IeC {\cyrg }\IeC {\cyri }\IeC {\cyrv }\IeC {\cyra }\IeC {\cyrn }\IeC {\cyri }\IeC {\cyre }\IeC {\cyrm }}{46}\protected@file@percent }
