\relax 
\bibstyle{spmpsci}
\immediate\closeout\minitoc
\let \MiniTOC =N
\citation{daisi}
\citation{DAISIpr}
\@writefile{toc}{\contentsline {title}{An optimization approach for minimization of charged particles orbit deviation in synchrotron and transport channels systems caused by magnetic field tolerances}{1}\protected@file@percent }
\@writefile{toc}{\authcount {1}}
\@writefile{toc}{\contentsline {author}{Vladislav Altsybeyev and Vladimir Kozynchenko}{1}\protected@file@percent }
\@writefile{toc}{\contentsline {section}{\numberline {1}Introduction}{1}\protected@file@percent }
\newlabel{sec:1}{{1}{1}}
\@writefile{toc}{\contentsline {section}{\numberline {2}Orbit dynamics simulations and optimization}{2}\protected@file@percent }
\newlabel{sec:2}{{2}{2}}
\@writefile{toc}{\contentsline {subsection}{\numberline {2.1}Equations and problem statement}{2}\protected@file@percent }
\citation{Kennedy}
\@writefile{toc}{\contentsline {subsection}{\numberline {2.2}Optimization approach}{3}\protected@file@percent }
\citation{nica1}
\citation{nica2}
\@writefile{lof}{\contentsline {figure}{\numberline {1}{\ignorespaces Trajectories of beam orbit before optimization}}{4}\protected@file@percent }
\newlabel{fig1}{{1}{4}}
\@writefile{lof}{\contentsline {figure}{\numberline {2}{\ignorespaces Trajectories of beam orbit before and after optimization using particle swarm methods}}{4}\protected@file@percent }
\newlabel{fig2}{{2}{4}}
\@writefile{toc}{\contentsline {section}{\numberline {3}Example of orbit deviation minimization in Booster synchrotron}{4}\protected@file@percent }
\bibdata{bibfile}
\bibcite{DAISIpr}{1}
\@writefile{lof}{\contentsline {figure}{\numberline {3}{\ignorespaces Trajectories of beam orbit before and after optimization using combination of particle swarm and gradient descent methods}}{5}\protected@file@percent }
\newlabel{fig3}{{3}{5}}
\@writefile{lof}{\contentsline {figure}{\numberline {4}{\ignorespaces Correctors horizontal angles before and after optimization}}{5}\protected@file@percent }
\newlabel{fig4}{{4}{5}}
\@writefile{toc}{\contentsline {section}{\numberline {4}Conclusion}{5}\protected@file@percent }
\bibcite{daisi}{2}
\bibcite{nica1}{3}
\bibcite{nica2}{4}
\bibcite{Kennedy}{5}
\bibcite{swarm}{6}
\immediate\closeout\minitoc
\@writefile{toc}{\contentsline {section}{References}{6}\protected@file@percent }
\@mtwritefile{\contentsline {mtchap}{References}{6}}
