\relax 
\catcode `"\active 
\select@language{russian}
\@writefile{toc}{\select@language{russian}}
\@writefile{lof}{\select@language{russian}}
\@writefile{lot}{\select@language{russian}}
\@writefile{toc}{\contentsline {section}{$\S  ~1$ \IeC {\CYRO }\IeC {\cyrb }\IeC {\cyrshch }\IeC {\cyri }\IeC {\cyre } \IeC {\cyrs }\IeC {\cyrv }\IeC {\cyre }\IeC {\cyrd }\IeC {\cyre }\IeC {\cyrn }\IeC {\cyri }\IeC {\cyrya }}{3}}
\newlabel{thRiesz}{{1}{4}}
\@writefile{toc}{\contentsline {section}{$\S  ~2$ \IeC {\CYRM }\IeC {\cyre }\IeC {\cyrt }\IeC {\cyrr }\IeC {\cyri }\IeC {\cyrk }\IeC {\cyra } \IeC {\cyri } \IeC {\cyrp }\IeC {\cyrr }\IeC {\cyro }\IeC {\cyrs }\IeC {\cyrt }\IeC {\cyrr }\IeC {\cyra }\IeC {\cyrn }\IeC {\cyrs }\IeC {\cyrt }\IeC {\cyrv }\IeC {\cyra }}{4}}
\@writefile{toc}{\contentsline {section}{$\S  ~3$ \IeC {\CYRP }\IeC {\cyro }\IeC {\cyrg }\IeC {\cyrr }\IeC {\cyre }\IeC {\cyrsh }\IeC {\cyrn }\IeC {\cyro }\IeC {\cyrs }\IeC {\cyrt }\IeC {\cyri } \IeC {\cyri } \IeC {\cyrs }\IeC {\cyrh }\IeC {\cyro }\IeC {\cyrd }\IeC {\cyri }\IeC {\cyrm }\IeC {\cyro }\IeC {\cyrs }\IeC {\cyrt }\IeC {\cyri }}{6}}
\@writefile{toc}{\contentsline {section}{$\S  ~4$ \IeC {\CYRM }\IeC {\cyre }\IeC {\cyrt }\IeC {\cyro }\IeC {\cyrd } \IeC {\CYRN }\IeC {\cyrsftsn }\IeC {\cyryu }\IeC {\cyrt }\IeC {\cyro }\IeC {\cyrn }\IeC {\cyra }}{8}}
\@writefile{toc}{\contentsline {section}{$\S  ~5$ \IeC {\CYRCH }\IeC {\cyri }\IeC {\cyrs }\IeC {\cyrl }\IeC {\cyre }\IeC {\cyrn }\IeC {\cyrn }\IeC {\cyro }\IeC {\cyre } \IeC {\cyrd }\IeC {\cyri }\IeC {\cyrf }\IeC {\cyrf }\IeC {\cyre }\IeC {\cyrr }\IeC {\cyre }\IeC {\cyrn }\IeC {\cyrc }\IeC {\cyri }\IeC {\cyrr }\IeC {\cyro }\IeC {\cyrv }\IeC {\cyra }\IeC {\cyrn }\IeC {\cyri }\IeC {\cyre }}{9}}
\@writefile{toc}{\contentsline {section}{$\S  ~6$ \IeC {\CYRM }\IeC {\cyre }\IeC {\cyrt }\IeC {\cyro }\IeC {\cyrd }\IeC {\cyrery } \IeC {\cyrr }\IeC {\cyre }\IeC {\cyrsh }\IeC {\cyre }\IeC {\cyrn }\IeC {\cyri }\IeC {\cyrya } \IeC {\CYRS }\IeC {\CYRL }\IeC {\CYRA }\IeC {\CYRU }}{9}}
\@writefile{toc}{\contentsline {paragraph}{\IeC {\CYRP }\IeC {\cyrr }\IeC {\cyro }\IeC {\cyre }\IeC {\cyrk }\IeC {\cyrc }\IeC {\cyri }\IeC {\cyro }\IeC {\cyrn }\IeC {\cyrn }\IeC {\cyrery }\IeC {\cyre } \IeC {\cyrm }\IeC {\cyre }\IeC {\cyrt }\IeC {\cyro }\IeC {\cyrd }\IeC {\cyrery }}{11}}
\@writefile{toc}{\contentsline {section}{$\S  ~7$ \IeC {\CYRZ }\IeC {\cyra }\IeC {\cyrd }\IeC {\cyra }\IeC {\cyrch }\IeC {\cyri } \IeC {\cyro }\IeC {\cyrp }\IeC {\cyrt }\IeC {\cyri }\IeC {\cyrm }\IeC {\cyri }\IeC {\cyrz }\IeC {\cyra }\IeC {\cyrc }\IeC {\cyri }\IeC {\cyri }}{13}}
\@writefile{toc}{\contentsline {section}{$\S  ~8$ \IeC {\CYRK }\IeC {\cyrl }\IeC {\cyra }\IeC {\cyrs }\IeC {\cyrs }\IeC {\cyri }\IeC {\cyrf }\IeC {\cyri }\IeC {\cyrk }\IeC {\cyra }\IeC {\cyrc }\IeC {\cyri }\IeC {\cyrya } \IeC {\cyrp }\IeC {\cyro }\IeC {\cyrg }\IeC {\cyrr }\IeC {\cyre }\IeC {\cyrsh }\IeC {\cyrn }\IeC {\cyro }\IeC {\cyrs }\IeC {\cyrt }\IeC {\cyri }}{15}}
\@writefile{toc}{\contentsline {section}{$\S  ~9$ \IeC {\CYRM }\IeC {\cyre }\IeC {\cyrt }\IeC {\cyro }\IeC {\cyrd } \IeC {\CYRA }\IeC {\cyrd }\IeC {\cyra }\IeC {\cyrm }\IeC {\cyrs }\IeC {\cyra }}{17}}
\@writefile{toc}{\contentsline {section}{$\S  ~10$ \IeC {\CYRP }\IeC {\cyrr }\IeC {\cyra }\IeC {\cyrk }\IeC {\cyrt }\IeC {\cyri }\IeC {\cyrch }\IeC {\cyre }\IeC {\cyrs }\IeC {\cyrk }\IeC {\cyri }\IeC {\cyre } \IeC {\cyrm }\IeC {\cyre }\IeC {\cyrt }\IeC {\cyro }\IeC {\cyrd }\IeC {\cyrery } \IeC {\cyro }\IeC {\cyrc }\IeC {\cyre }\IeC {\cyrn }\IeC {\cyrk }\IeC {\cyri } \IeC {\cyrp }\IeC {\cyro }\IeC {\cyrg }\IeC {\cyrr }\IeC {\cyre }\IeC {\cyrsh }\IeC {\cyrn }\IeC {\cyro }\IeC {\cyrs }\IeC {\cyrt }\IeC {\cyri }.}{18}}
\@writefile{toc}{\contentsline {section}{$\S  ~11$ Leap Frog}{19}}
\@writefile{toc}{\contentsline {section}{$\S  ~12$ \IeC {\CYRM }\IeC {\cyre }\IeC {\cyrt }\IeC {\cyro }\IeC {\cyrd }\IeC {\cyrery } \IeC {\CYRR }\IeC {\cyru }\IeC {\cyrn }\IeC {\cyrg }\IeC {\cyre }-\IeC {\CYRK }\IeC {\cyru }\IeC {\cyrt }\IeC {\cyrt }\IeC {\cyrery }}{21}}
